"label","effect","se","g1_mean","g2_mean","n1","n2","language","male_prop","total_n","religious1_mean","religious2_mean","religious3_mean","religious_grandmean"
"10 commandments effect",1.06562137049942,0.761522107600156,4.30952380952381,3.24390243902439,42,41,"German",0.122448979591837,196,2.20512820512821,2.67179487179487,1.62886597938144,2.16859635210151
"control condition",-0.893416927899687,0.430987179904235,2.72727272727273,3.62068965517241,55,58,"German",0.122448979591837,196,2.20512820512821,2.67179487179487,1.62886597938144,2.16859635210151
"control condition permaa",-0.428520499108734,0.346772160428285,2.6078431372549,3.03636363636364,51,55,"German",0.122448979591837,196,2.20512820512821,2.67179487179487,1.62886597938144,2.16859635210151
"cheating",-0.376787216148023,0.653625846643347,3.24390243902439,3.62068965517241,41,58,"German",0.122448979591837,196,2.20512820512821,2.67179487179487,1.62886597938144,2.16859635210151
"cheating permaa",0.207538802660754,0.59516074680233,3.24390243902439,3.03636363636364,41,55,"German",0.122448979591837,196,2.20512820512821,2.67179487179487,1.62886597938144,2.16859635210151
"commandments condition",1.58225108225108,0.58175520814631,4.30952380952381,2.72727272727273,42,55,"German",0.122448979591837,196,2.20512820512821,2.67179487179487,1.62886597938144,2.16859635210151
"commandments condition permaa",1.70168067226891,0.588175600545939,4.30952380952381,2.6078431372549,42,51,"German",0.122448979591837,196,2.20512820512821,2.67179487179487,1.62886597938144,2.16859635210151
"difference",-1.95903829839911,0.87502335374868,-0.376787216148023,1.58225108225108,99,97,"German",0.122448979591837,196,2.20512820512821,2.67179487179487,1.62886597938144,2.16859635210151
"difference permaa",-1.49414186960815,0.836759733502923,0.207538802660754,1.70168067226891,99,97,"German",0.122448979591837,196,2.20512820512821,2.67179487179487,1.62886597938144,2.16859635210151
"self report vs external check",0.355652028719319,0.281408494045994,3.1858407079646,2.83018867924528,113,113,"German",0.122448979591837,196,2.20512820512821,2.67179487179487,1.62886597938144,2.16859635210151
