"label","effect","se","g1_mean","g2_mean","n1","n2","language","male_prop","total_n","religious1_mean","religious2_mean","religious3_mean","religious_grandmean"
"10 commandments effect",0.387096774193548,0.399811029892479,3.11290322580645,2.7258064516129,62,62,"Swedish",0.444915254237288,236,1.59051724137931,1.73390557939914,1.2274678111588,1.51729687731242
"control condition",-0.347368421052631,0.439649968956501,2.6,2.94736842105263,55,57,"Swedish",0.444915254237288,236,1.59051724137931,1.73390557939914,1.2274678111588,1.51729687731242
"control condition permaa",-0.365231259968102,0.325062242222854,2.09090909090909,2.45614035087719,55,57,"Swedish",0.444915254237288,236,1.59051724137931,1.73390557939914,1.2274678111588,1.51729687731242
"cheating",-0.221561969439728,0.470385941742827,2.7258064516129,2.94736842105263,62,57,"Swedish",0.444915254237288,236,1.59051724137931,1.73390557939914,1.2274678111588,1.51729687731242
"cheating permaa",0.26966610073571,0.367700268325324,2.7258064516129,2.45614035087719,62,57,"Swedish",0.444915254237288,236,1.59051724137931,1.73390557939914,1.2274678111588,1.51729687731242
"commandments condition",0.512903225806451,0.363150135120243,3.11290322580645,2.6,62,55,"Swedish",0.444915254237288,236,1.59051724137931,1.73390557939914,1.2274678111588,1.51729687731242
"commandments condition permaa",1.02199413489736,0.360985918861274,3.11290322580645,2.09090909090909,62,55,"Swedish",0.444915254237288,236,1.59051724137931,1.73390557939914,1.2274678111588,1.51729687731242
"difference",-0.73446519524618,0.594256640541052,-0.221561969439728,0.512903225806451,119,117,"Swedish",0.444915254237288,236,1.59051724137931,1.73390557939914,1.2274678111588,1.51729687731242
"difference permaa",-0.752328034161651,0.515280817557411,0.26966610073571,1.02199413489736,119,117,"Swedish",0.444915254237288,236,1.59051724137931,1.73390557939914,1.2274678111588,1.51729687731242
"self report vs external check",0.5,0.274365901345795,2.77678571428571,2.27678571428571,112,112,"Swedish",0.444915254237288,236,1.59051724137931,1.73390557939914,1.2274678111588,1.51729687731242
