"label","effect","se","g1_mean","g2_mean","n1","n2","language","male_prop","total_n","religious1_mean","religious2_mean","religious3_mean","religious_grandmean"
"10 commandments effect",-0.154761904761905,0.303515879182966,3.02380952380952,3.17857142857143,84,84,"English",0.25,336,1.8963963963964,2.3033033033033,1.35735735735736,1.85235235235235
"control condition",-0.134865134865135,0.330652833795149,3.33766233766234,3.47252747252747,77,91,"English",0.25,336,1.8963963963964,2.3033033033033,1.35735735735736,1.85235235235235
"control condition permaa",-0.0429570429570432,0.316508770988593,3.07792207792208,3.12087912087912,77,91,"English",0.25,336,1.8963963963964,2.3033033033033,1.35735735735736,1.85235235235235
"cheating",-0.293956043956044,0.338002708998586,3.17857142857143,3.47252747252747,84,91,"English",0.25,336,1.8963963963964,2.3033033033033,1.35735735735736,1.85235235235235
"cheating permaa",0.0576923076923075,0.328288262140901,3.17857142857143,3.12087912087912,84,91,"English",0.25,336,1.8963963963964,2.3033033033033,1.35735735735736,1.85235235235235
"commandments condition",-0.313852813852814,0.295308913042916,3.02380952380952,3.33766233766234,84,77,"English",0.25,336,1.8963963963964,2.3033033033033,1.35735735735736,1.85235235235235
"commandments condition permaa",-0.054112554112554,0.290734428593218,3.02380952380952,3.07792207792208,84,77,"English",0.25,336,1.8963963963964,2.3033033033033,1.35735735735736,1.85235235235235
"difference",0.0198967698967696,0.44883536559965,-0.293956043956044,-0.313852813852814,175,161,"English",0.25,336,1.8963963963964,2.3033033033033,1.35735735735736,1.85235235235235
"difference permaa",0.111804861804861,0.438519886697192,0.0576923076923075,-0.054112554112554,175,161,"English",0.25,336,1.8963963963964,2.3033033033033,1.35735735735736,1.85235235235235
"self report vs external check",0.309523809523809,0.226862006473376,3.41071428571429,3.10119047619048,168,168,"English",0.25,336,1.8963963963964,2.3033033033033,1.35735735735736,1.85235235235235
