datetime,subjID,sex,prime_code,prime_condition,prime_response,triv1_raw,triv1_correct,triv2_raw,triv2_correct,triv3_raw,triv3_correct,triv4_raw,triv4_correct,triv5_raw,triv5_correct,triv6_raw,triv6_correct,triv7_raw,triv7_correct,triv8_raw,triv8_correct,triv9_raw,triv9_correct,triv10_raw,triv10_correct,triv11_raw,triv11_correct,triv12_raw,triv12_correct,triv13_raw,triv13_correct,triv14_raw,triv14_correct,triv15_raw,triv15_correct,triv16_raw,triv16_correct,triv17_raw,triv17_correct,triv18_raw,triv18_correct,triv19_raw,triv19_correct,triv20_raw,triv20_correct,triv21_raw,triv21_correct,triv22_raw,triv22_correct,triv23_raw,triv23_correct,triv24_raw,triv24_correct,triv25_raw,triv25_correct,triv26_raw,triv26_correct,triv27_raw,triv27_correct,triv28_raw,triv28_correct,triv29_raw,triv29_correct,triv30_raw,triv30_correct,age,major,language,sex_r,year,area_writing,area_trivia,purpose,link_yn,link_text,thinking_yn,thinking_text,comments,prior_hool,voetbalhooligan_int_rating,voetbalhooligan_acc_rating,professor_int_rating,professor_acc_rating
20170215-122112,114,man,1,professor,"Ik ben professor en wanneer ik mijn tijd niet steek in het doen van onderzoek, ben ik bezig met mijn gezin. De tijd tussen die ik voor mijzelf en mijn vrouw heb besteed ik het liefst aan nuttige dingen, zoals het lezen van een goede publicatie of wetenschappelijk boek. Zodat ik op elk moment mijn kennis uitbreid. Naast het trainen van mijn brein ben ik ervan bewust dat mijn fysieke gesteldheid ook belangrijk is. Zo ben ik fervent wielrennen en plan ik graag fietsvakanties in met mijn collega's en vrienden die ik heb leren kennen tijdens mijn studie. Zo blijf ik niet alleen mentaal- en fysiek fit, maar blijf ik nog steeds in contact met mijn omgeving, iets dat sommige professoren wel eens vergeten. In trant van sociaal blijven hou ik natuurlijk ook af en toe van een goed speciaal biertje. 
Wanneer ik mij weer op "" werk"" verkeer, ben ik bezig met mijn onderzoeken. Ik zie mijzelf als een zelverzekerd persoon, die koste wat het kost bij een voldoenden antwoord moet komen. Alles wat ik doe moet een objectieve reden hebben, een reden die niet enkel profijt bied voor mij, maar ook voor mijn omgeving. Kortom, benik ervan bewust dat ik een mens ben van vlees en bloed en daardoor houd van sociale en soms niet nuttige bezigheden. Maar door mijn plek en privilege in de maatschappij moet ik anderen helpen met mijn data en wetenschap. ",Botswana,True,HTML,False,Capibara,True,Uranus,False,12,True,India,True,Arm,True,Sweeney Todd,False,Brons,True,Golf,True,Isobaren,True,21,True,Ford,False,180,True,Mercury,False,Mikhail Gorbachov,True,Straling,True,Blue Knight,False,Tektonische plaat,True,Fascisme,True,Röntgenstraling,False,Paul Cezanne,False,Colorado Rivier,False,In de keel,True,Siberië,True,Jupiter,True,Tsjaikovski,True,Luchtdruk,True,Keratine,True,Frankrijk,True,1e jaar,man,22,Nederlands,communicatie,communicatie,psychologie,het meten van mijn algemene kennis ,ja,mijn kennis irt die van een professor en het stigma dat er heerst over professors,ja,"doordat ik mij eerst probeerde te plaatsen in de schoenen van een professor en zijn/haar mentaliteit. bleef dat laatste als het ware ""plakken""  tijdens het invoeren van de vragen. ",nee,ja,50.0,8,75,18
