datetime,subjID,sex,prime_code,prime_condition,prime_response,triv1_raw,triv1_correct,triv2_raw,triv2_correct,triv3_raw,triv3_correct,triv4_raw,triv4_correct,triv5_raw,triv5_correct,triv6_raw,triv6_correct,triv7_raw,triv7_correct,triv8_raw,triv8_correct,triv9_raw,triv9_correct,triv10_raw,triv10_correct,triv11_raw,triv11_correct,triv12_raw,triv12_correct,triv13_raw,triv13_correct,triv14_raw,triv14_correct,triv15_raw,triv15_correct,triv16_raw,triv16_correct,triv17_raw,triv17_correct,triv18_raw,triv18_correct,triv19_raw,triv19_correct,triv20_raw,triv20_correct,triv21_raw,triv21_correct,triv22_raw,triv22_correct,triv23_raw,triv23_correct,triv24_raw,triv24_correct,triv25_raw,triv25_correct,triv26_raw,triv26_correct,triv27_raw,triv27_correct,triv28_raw,triv28_correct,triv29_raw,triv29_correct,triv30_raw,triv30_correct,age,major,language,sex_r,year,area_writing,area_trivia,purpose,link_yn,link_text,thinking_yn,thinking_text,comments,prior_hool,voetbalhooligan_int_rating,voetbalhooligan_acc_rating,professor_int_rating,professor_acc_rating
20161205-141547,30,man,1,professor,"In het dagelijks leven als professor zou ik mij bezighouden met het verdiepen en up to date blijven van de vakliteratuur. typische activiteiten hierbij zijn het doornemen van vak-relevante artikelen en items. De bijpassende persoonlijkheidskenmerken zijn nieuwsgierigheid, doorzettingsvermogen, empathie en overtuigingskracht. Eventuele hobbys die bij mij horen omvatten inteligentie uitdagende onderwerpen als klassieke concerten bijwonen, bourgondisch leren koken of een instrument leren bespelen.
  
 
 
 
 
 
 
 
       
 
 ",Zaire,False,ASCII,True,Capibara,True,Uranus,False,12,True,India,True,Arm,True,Sweeney Todd,False,Messing,False,Ijsberg,False,Isobaren,True,21,True,Mitsubishi,False,360,False,Mars,False,Mikhail Gorbachov,True,Straling,True,Deep Thought,False,Tektonische plaat,True,Fascisme,True,Penicilline,True,Paul Cezanne,False,Colorado Rivier,False,In de keel,True,Siberië,True,Saturnus,False,Beethoven,False,Luchtdruk,True,Keratine,True,Frankrijk,True,1e jaar,man,25,Nederlands,Datascience,Psychologie,Toegepaste psychologie,Algemene kennis testen voor toekomstige studenten en zo een gids samenstellen.,ja,Meer parate kennis oproepen,nee,,nee,ja,25,8,70,20
