datetime,subjID,sex,prime_code,prime_condition,prime_response,triv1_raw,triv1_correct,triv2_raw,triv2_correct,triv3_raw,triv3_correct,triv4_raw,triv4_correct,triv5_raw,triv5_correct,triv6_raw,triv6_correct,triv7_raw,triv7_correct,triv8_raw,triv8_correct,triv9_raw,triv9_correct,triv10_raw,triv10_correct,triv11_raw,triv11_correct,triv12_raw,triv12_correct,triv13_raw,triv13_correct,triv14_raw,triv14_correct,triv15_raw,triv15_correct,triv16_raw,triv16_correct,triv17_raw,triv17_correct,triv18_raw,triv18_correct,triv19_raw,triv19_correct,triv20_raw,triv20_correct,triv21_raw,triv21_correct,triv22_raw,triv22_correct,triv23_raw,triv23_correct,triv24_raw,triv24_correct,triv25_raw,triv25_correct,triv26_raw,triv26_correct,triv27_raw,triv27_correct,triv28_raw,triv28_correct,triv29_raw,triv29_correct,triv30_raw,triv30_correct,age,major,language,sex_r,year,area_writing,area_trivia,purpose,link_yn,link_text,thinking_yn,thinking_text,comments,prior_hool,ultra de fútbol_int_rating,ultra de fútbol_acc_rating,profesor universitario_int_rating,profesor universitario_acc_rating
20170224-210416,192,muj,1,profesor universitario,"yo en mi vida diaria como profesora intento enseñar a mis alumnos y alumnas sobre la especialidad de la asignatura, yo intento que mis alumnos aprendan y sobre todo que disfruten de la signatura aprendiendo y no solo memorizando lo cual no va a servirle de nada en un futuro, ya que la memoria nos puede fallar y todo lo memorizado desaparecera. Mis tareas tipicas como profesor son impartir clases en la universidad donde trabajo, cada clase que imparto la preparo con anterioridad para que los alumnos puedan aprender todos los conceptos y actividades que se realizan en ese periodo donde le imparto clase, las clases son acompañadas por transparencias sobre el tema tratado, tanto definiciones como imagenes, ademas de proporcionarle a mis alumnos los temarios necesarios para aprobar y aprender lo que es mas importante",Zimbabue,False,ASCII,True,Castor,False,La Tierra,True,12,True,India,True,Brazo,True,Guy Fawkes,True,Bronce,True,Ola,True,Isobaras,True,21,True,Mitsubishi,False,180,True,Marte,False,Alexander Popov,False,Presión,False,Deep Blue,True,Plataforma continental,True,Republicano,False,Estetoscopio,False,Pablo Picasso,True,Río Colorado,False,En los pulmones,False,Bielorrusia,False,Saturno,False,Tchaikovsky,True,Presión atmosférica,True,Colágeno,False,España,False,Español,femenino,primer año,relaciones laborales y recursos humanos,0,desarrollando la imaginacion,conocer lo aprendido de memoria en años anteriores,"conocer la mente de las personas
",sí,no se,no,,te ayudan a pensar sobre distintos aspectos,sí,70,8,100,30
