datetime,subjID,sex,prime_code,prime_condition,prime_response,triv1_raw,triv1_correct,triv2_raw,triv2_correct,triv3_raw,triv3_correct,triv4_raw,triv4_correct,triv5_raw,triv5_correct,triv6_raw,triv6_correct,triv7_raw,triv7_correct,triv8_raw,triv8_correct,triv9_raw,triv9_correct,triv10_raw,triv10_correct,triv11_raw,triv11_correct,triv12_raw,triv12_correct,triv13_raw,triv13_correct,triv14_raw,triv14_correct,triv15_raw,triv15_correct,triv16_raw,triv16_correct,triv17_raw,triv17_correct,triv18_raw,triv18_correct,triv19_raw,triv19_correct,triv20_raw,triv20_correct,triv21_raw,triv21_correct,triv22_raw,triv22_correct,triv23_raw,triv23_correct,triv24_raw,triv24_correct,triv25_raw,triv25_correct,triv26_raw,triv26_correct,triv27_raw,triv27_correct,triv28_raw,triv28_correct,triv29_raw,triv29_correct,triv30_raw,triv30_correct,age,major,language,sex_r,year,area_writing,area_trivia,purpose,link_yn,link_text,thinking_yn,thinking_text,comments,prior_hool,profesor universitario_int_rating,profesor universitario_acc_rating,ultra de fútbol_int_rating,ultra de fútbol_acc_rating
20161110-015243,35,hom,0,ultra de fútbol,"Como ultra de futbol que soy, diariamente me gusta ponerme al dia leyendo toda la prensa deportiva nacional. Y mas aun la relacionada con mi equipo de futbol que es mi pasion como es el Atletico de Madrid. Al terminar dicha tarea, me gusta buscar informacion adicional sobre el club al que soy socio. Por ello, me meto en su pagina web al igual que en los foros que comparto con el resto de ultras.
Las actividades t´ipicas que realizo como ultra son algo peculiares. Normalmente, si tengo la posibilidad de ir a ver el partido al estadio, lo hago,aunque las veces que no puedo asistir al partido, lo veo en un bar acompañado de mis amigos. 
Mi personalidad se basa en mi caracter fuerte, por ello algunas veces actuo con enfasis al ver ganar o perder a mi equipo. E incluso en ocasiones, me gusta moolestar a los aficionados rivales que vienen al estadio, mas aun cuando meten un gol o mi equipo va perdiendo.
Mi hobbie tipico es ir a ver tod",Zimbabue,False,HTML,False,Castor,False,Marte,False,6,False,Bangladesh,False,Brazo,True,Sweeney Todd,False,Bronce,True,Ola,True,Isobaras,True,21,True,Mitsubishi,False,180,True,Venus,True,Mijaíl Gorbachov,True,Radiación,True,Deep Blue,True,Plataforma continental,True,Fascista,True,Penicilina,True,Pablo Picasso,True,Río Lobos,False,En la garganta,True,Siberia,True,Júpiter,True,Tchaikovsky,True,Presión atmosférica,True,Queratina,True,España,False,Español,masculino,primer año,Terapia Ocupacional,17,psicologia social,psicologia social,Hacer un estudio sobre algun tema social.,sí,"Quizas, que los ultras aparte de conocer el futbol tambien tenga un conocimiento general.",no,,Algunas de las preguntas de conocimiento general son dificiles.,no,85,25,30,10
