datetime,subjID,sex,prime_code,prime_condition,prime_response,triv1_raw,triv1_correct,triv2_raw,triv2_correct,triv3_raw,triv3_correct,triv4_raw,triv4_correct,triv5_raw,triv5_correct,triv6_raw,triv6_correct,triv7_raw,triv7_correct,triv8_raw,triv8_correct,triv9_raw,triv9_correct,triv10_raw,triv10_correct,triv11_raw,triv11_correct,triv12_raw,triv12_correct,triv13_raw,triv13_correct,triv14_raw,triv14_correct,triv15_raw,triv15_correct,triv16_raw,triv16_correct,triv17_raw,triv17_correct,triv18_raw,triv18_correct,triv19_raw,triv19_correct,triv20_raw,triv20_correct,triv21_raw,triv21_correct,triv22_raw,triv22_correct,triv23_raw,triv23_correct,triv24_raw,triv24_correct,triv25_raw,triv25_correct,triv26_raw,triv26_correct,triv27_raw,triv27_correct,triv28_raw,triv28_correct,triv29_raw,triv29_correct,triv30_raw,triv30_correct,age,major,language,sex_r,year,area_writing,area_trivia,purpose,link_yn,link_text,thinking_yn,thinking_text,comments,prior_hool,barrista de fútbol_int_rating,barrista de fútbol_acc_rating,profesor universitario_int_rating,profesor universitario_acc_rating
20161121-120025,286,Female,1,profesor universitario,"me levanto me baño desayuno me voy a ala universidad a dictar clases terminos mis clase continuo con mi investigacion que llevo desde hace 5 años y me devuelvo a mi casa como

y duermo
mis acytividades tipicas con dictar clase y la investigacion
soy un profesor pasiente, dedicado, didactico y  con mucho amor a mi profesion
pasatienpos la invetigacion y conocer otros puntos de vista sobre esta investigacion, de tracticar uno de mis deportes favoritos como lo es el futbol par4a mantener un eq",Zaire,False,ASCII,True,Castor,False,Marte,False,12,True,Pakistan,False,Pie,False,0,False,Bronce,True,Montaña,False,Isobaras,True,20,False,General Motors,True,180,True,Venus,True,Boris Yeltsin,False,Radiación,True,Deep Blue,True,Pendiente continental,False,Fascista,True,Estetoscopio,False,Paul Cezanne,False,Río Colorado,False,En la médula espinal,False,Siberia,True,Júpiter,True,Handel,False,Presión atmosférica,True,Queratina,True,Grecia,False,Español,femenino,primer año,nutricion humana,23,personalidad,aprendizaje,no se,no,,no,,no,sí,86,15.0,100,26
