datetime,subjID,sex,prime_code,prime_condition,prime_response,triv1_raw,triv1_correct,triv2_raw,triv2_correct,triv3_raw,triv3_correct,triv4_raw,triv4_correct,triv5_raw,triv5_correct,triv6_raw,triv6_correct,triv7_raw,triv7_correct,triv8_raw,triv8_correct,triv9_raw,triv9_correct,triv10_raw,triv10_correct,triv11_raw,triv11_correct,triv12_raw,triv12_correct,triv13_raw,triv13_correct,triv14_raw,triv14_correct,triv15_raw,triv15_correct,triv16_raw,triv16_correct,triv17_raw,triv17_correct,triv18_raw,triv18_correct,triv19_raw,triv19_correct,triv20_raw,triv20_correct,triv21_raw,triv21_correct,triv22_raw,triv22_correct,triv23_raw,triv23_correct,triv24_raw,triv24_correct,triv25_raw,triv25_correct,triv26_raw,triv26_correct,triv27_raw,triv27_correct,triv28_raw,triv28_correct,triv29_raw,triv29_correct,triv30_raw,triv30_correct,age,major,language,sex_r,year,area_writing,area_trivia,purpose,link_yn,link_text,thinking_yn,thinking_text,comments,prior_hool,profesor universitario_int_rating,profesor universitario_acc_rating,barrista de fútbol_int_rating,barrista de fútbol_acc_rating
20161129-122858,383,Male,0,barrista de fútbol,"me la paso en el parque con mi parche compartiendo, generalmente tomado pola, cuadramos las actividades para el siguiente partido, de vez en cuando toca salir a recorrer zonas de otras barras para imponer respeto, muchas veces los sacamos corriendo o toca pararnos duro por nuestro equipo

toca cuadrar cantos, instrumental , llevar los trapos. hay que ser rudo y violento para que no se la monten a uno , en la casa con la cucha es otra cosa esa mujer es mi vida soy cariñoso, comprensivo y me",Uganda,False,HTML,False,Rata almizclera,False,La Tierra,True,12,True,Bangladesh,False,Brazo,True,Guy Fawkes,True,Bronce,True,Iceberg,False,Isobaras,True,21,True,Mitsubishi,False,180,True,Venus,True,Mijaíl Gorbachov,True,0,False,King Blue,False,Plataforma continental,True,Fascista,True,Rayos X,False,Pablo Picasso,True,Río Grande,True,En la garganta,True,Siberia,True,Júpiter,True,Handel,False,Presión atmosférica,True,Queratina,True,Francia,True,Español,masculino,tercer año,fisioterapia,21,psicologia social ,cognicion y memoria,concer como persibe una persona del comun a los barristas- determinar el grado de educacion que tiene la persona que hizo el papel de barrista,sí,como concibe una persona con cierto nivel de educacion el actuar de un barrista ,no,,no,sí,50.0,25,50.0,10
