datetime,subjID,sex,prime_code,prime_condition,prime_response,triv1_raw,triv1_correct,triv2_raw,triv2_correct,triv3_raw,triv3_correct,triv4_raw,triv4_correct,triv5_raw,triv5_correct,triv6_raw,triv6_correct,triv7_raw,triv7_correct,triv8_raw,triv8_correct,triv9_raw,triv9_correct,triv10_raw,triv10_correct,triv11_raw,triv11_correct,triv12_raw,triv12_correct,triv13_raw,triv13_correct,triv14_raw,triv14_correct,triv15_raw,triv15_correct,triv16_raw,triv16_correct,triv17_raw,triv17_correct,triv18_raw,triv18_correct,triv19_raw,triv19_correct,triv20_raw,triv20_correct,triv21_raw,triv21_correct,triv22_raw,triv22_correct,triv23_raw,triv23_correct,triv24_raw,triv24_correct,triv25_raw,triv25_correct,triv26_raw,triv26_correct,triv27_raw,triv27_correct,triv28_raw,triv28_correct,triv29_raw,triv29_correct,triv30_raw,triv30_correct,age,major,language,sex_r,year,area_writing,area_trivia,purpose,link_yn,link_text,thinking_yn,thinking_text,comments,prior_hool,barrista de fútbol_int_rating,barrista de fútbol_acc_rating,profesor universitario_int_rating,profesor universitario_acc_rating
20170214-095533,413,female,1,profesor universitario,"1) Doy clases en varias universidades del pais algunas veces por semana y en el tiempo libre me dedico a hacer investigaciones
2) Dar clase e investigar tematicas en de la psicologia 
3)Ser una persona curiosa que siempre busca saber mas sobre una disiplina y transmite esa cualidad investigativa a los estudiantes, inspiandolos a llegar lo mas lejos posible
4)Viajar por el mundo y conocer nuevas culturas
   ",Uganda,False,HTML,False,Castor,False,Marte,False,6,False,Pakistan,False,Brazo,True,Guy Fawkes,True,Bronce,True,Iceberg,False,Isobaras,True,21,True,Mitsubishi,False,180,True,Venus,True,Boris Yeltsin,False,Temperatura,False,Blue Knight,False,Pendiente continental,False,Fascista,True,Rayos X,False,Pablo Picasso,True,Río Grande,True,En la garganta,True,Bielorrusia,False,Saturno,False,Tchaikovsky,True,Humedad relativa,False,Queratina,True,España,False,Español,femenino,segundo año,psicologia,20,psicologia social,cognicion,hacer varias preguntas y al final mirar si el estidiante se acordaba de algun detalle dicho anteriormente,no,,no,,no,sí,1,9,90,20
