datetime,subjID,sex,prime_code,prime_condition,prime_response,triv1_raw,triv1_correct,triv2_raw,triv2_correct,triv3_raw,triv3_correct,triv4_raw,triv4_correct,triv5_raw,triv5_correct,triv6_raw,triv6_correct,triv7_raw,triv7_correct,triv8_raw,triv8_correct,triv9_raw,triv9_correct,triv10_raw,triv10_correct,triv11_raw,triv11_correct,triv12_raw,triv12_correct,triv13_raw,triv13_correct,triv14_raw,triv14_correct,triv15_raw,triv15_correct,triv16_raw,triv16_correct,triv17_raw,triv17_correct,triv18_raw,triv18_correct,triv19_raw,triv19_correct,triv20_raw,triv20_correct,triv21_raw,triv21_correct,triv22_raw,triv22_correct,triv23_raw,triv23_correct,triv24_raw,triv24_correct,triv25_raw,triv25_correct,triv26_raw,triv26_correct,triv27_raw,triv27_correct,triv28_raw,triv28_correct,triv29_raw,triv29_correct,triv30_raw,triv30_correct,age,major,language,sex_r,year,area_writing,area_trivia,purpose,link_yn,link_text,thinking_yn,thinking_text,comments,prior_hool,profesor universitario_int_rating,profesor universitario_acc_rating,barrista de fútbol_int_rating,barrista de fútbol_acc_rating
20170324-103923,460,male,0,barrista de fútbol,"en mi vida diaria leo sobre mi equipo favorito y salgo a tomar con mi grupo
mis actividades tipicas son ver partidos reunirme con otros barristas de mi equipo tomar en los parques tratar mal a los inchas de otros equipos y defender mi equipo como sea
mis caracteristicas o atributo, soy una persona agresiva si se meten con mi equipo, no me importan las leyes que me impidan hacer lo que me gusta y soy una persona apasionada por lo que le gusta.
",Botsuana,True,ASCII,True,Capibara,True,La Tierra,True,8,False,Filipinas,False,Pierna,False,Robin Hood,False,Bronce,True,Ola,True,Isotermas,False,21,True,General Motors,True,360,False,Mercurio,False,Nikita Krushchev,False,Radiación,True,King Blue,False,Plataforma continental,True,Fascista,True,Rayos X,False,Paul Cezanne,False,Río Grande,True,En los pulmones,False,Bielorrusia,False,Júpiter,True,Tchaikovsky,True,Humedad relativa,False,Colágeno,False,Francia,True,Español,masculino,primer año,psicologia,19,no recuerdo,cognicion,no se,no,,sí,creo que pensar asi creo una distraccion en mi mente,no,no,70,25,20,10
