datetime,subjID,sex,prime_code,prime_condition,prime_response,triv1_raw,triv1_correct,triv2_raw,triv2_correct,triv3_raw,triv3_correct,triv4_raw,triv4_correct,triv5_raw,triv5_correct,triv6_raw,triv6_correct,triv7_raw,triv7_correct,triv8_raw,triv8_correct,triv9_raw,triv9_correct,triv10_raw,triv10_correct,triv11_raw,triv11_correct,triv12_raw,triv12_correct,triv13_raw,triv13_correct,triv14_raw,triv14_correct,triv15_raw,triv15_correct,triv16_raw,triv16_correct,triv17_raw,triv17_correct,triv18_raw,triv18_correct,triv19_raw,triv19_correct,triv20_raw,triv20_correct,triv21_raw,triv21_correct,triv22_raw,triv22_correct,triv23_raw,triv23_correct,triv24_raw,triv24_correct,triv25_raw,triv25_correct,triv26_raw,triv26_correct,triv27_raw,triv27_correct,triv28_raw,triv28_correct,triv29_raw,triv29_correct,triv30_raw,triv30_correct,age,major,language,sex_r,year,area_writing,area_trivia,purpose,link_yn,link_text,thinking_yn,thinking_text,comments,prior_hool,soccer hooligan_int_rating,soccer hooligan_acc_rating,professor_int_rating,professor_acc_rating
20170206-125140,060,2,1,professor,"A a university professor, my hobbies will be reading up on new research papers, and other articles that are related to my field of research. I will be very observant to my surroundings and constantly trying to think of any interesting research questions that could improve my research. In my daily life, I will be preparing teaching materials for my students, conducting my research and going to conferences to meet up with fellow professors. 

My personality characteristic will be calm and passionate about what I am currently doing. Since I interact with students often, I will develop a more friendly personality and try to teach my students modules that I am interested i",Uganda,False,HTML,False,Muskrat,False,Earth,True,8,False,India,True,Arm,True,Robin Hood,False,Brass,False,Iceberg,False,Isotherms,False,21,True,Chrysler,False,360,False,Venus,True,Alexander Popov,False,Temperature,False,Blue Knight,False,Continental Slope,False,Fascist,True,Penicillin,True,Salvador Dali,False,Rio Grande,True,In the lungs,False,Ukraine,False,Neptune,False,Mozart,False,Air pressure,True,Keratin,True,Greece,False,20,Social Science Psychology,English,female,2nd year,priming,general knowledge,no idea,yes,think that professors tend to have higher level of general knowledge ,no,,no,no,30,5,80,17
