datetime,subjID,sex,prime_code,prime_condition,prime_response,triv1_raw,triv1_correct,triv2_raw,triv2_correct,triv3_raw,triv3_correct,triv4_raw,triv4_correct,triv5_raw,triv5_correct,triv6_raw,triv6_correct,triv7_raw,triv7_correct,triv8_raw,triv8_correct,triv9_raw,triv9_correct,triv10_raw,triv10_correct,triv11_raw,triv11_correct,triv12_raw,triv12_correct,triv13_raw,triv13_correct,triv14_raw,triv14_correct,triv15_raw,triv15_correct,triv16_raw,triv16_correct,triv17_raw,triv17_correct,triv18_raw,triv18_correct,triv19_raw,triv19_correct,triv20_raw,triv20_correct,triv21_raw,triv21_correct,triv22_raw,triv22_correct,triv23_raw,triv23_correct,triv24_raw,triv24_correct,triv25_raw,triv25_correct,triv26_raw,triv26_correct,triv27_raw,triv27_correct,triv28_raw,triv28_correct,triv29_raw,triv29_correct,triv30_raw,triv30_correct,age,major,language,sex_r,year,area_writing,area_trivia,purpose,link_yn,link_text,thinking_yn,thinking_text,comments,prior_hool,soccer hooligan_int_rating,soccer hooligan_acc_rating,professor_int_rating,professor_acc_rating
20170209-094936,093,1,1,professor,"Daily life as a university professor: attend classses, meetings, prepare for classes and churn out research papers
Typical activities: answering student queries, attending staff meetings, being present at conferences
Typical personality characteristics: likes to read, thinks critically and a penchant for research and writing
Typical hobbies: reading, engaging in field study, perhaps sports in the spare time ",Zimbabwe,False,HTML,False,Capybara,True,Earth,True,12,True,India,True,Leg,False,Guy Fawkes,True,Bronze,True,Wave,True,Isobars,True,21,True,Ford,False,180,True,Venus,True,Mikhail Gorbachev,True,Temperature,False,Deep Blue,True,Continental Abyss,False,Fascist,True,Penicillin,True,Salvador Dali,False,Rio Grande,True,In the nose,False,Siberia,True,Jupiter,True,Handel,False,Air pressure,True,Keratin,True,France,True,22,Sociology,English,male,1st year,Not sure,Cognitive psych,no idea,no,,no,,nil,no,60,15.0,70,20
