datetime,subjID,sex,prime_code,prime_condition,prime_response,triv1_raw,triv1_correct,triv2_raw,triv2_correct,triv3_raw,triv3_correct,triv4_raw,triv4_correct,triv5_raw,triv5_correct,triv6_raw,triv6_correct,triv7_raw,triv7_correct,triv8_raw,triv8_correct,triv9_raw,triv9_correct,triv10_raw,triv10_correct,triv11_raw,triv11_correct,triv12_raw,triv12_correct,triv13_raw,triv13_correct,triv14_raw,triv14_correct,triv15_raw,triv15_correct,triv16_raw,triv16_correct,triv17_raw,triv17_correct,triv18_raw,triv18_correct,triv19_raw,triv19_correct,triv20_raw,triv20_correct,triv21_raw,triv21_correct,triv22_raw,triv22_correct,triv23_raw,triv23_correct,triv24_raw,triv24_correct,triv25_raw,triv25_correct,triv26_raw,triv26_correct,triv27_raw,triv27_correct,triv28_raw,triv28_correct,triv29_raw,triv29_correct,triv30_raw,triv30_correct,age,major,language,sex_r,year,area_writing,area_trivia,purpose,link_yn,link_text,thinking_yn,thinking_text,comments,prior_hool,professor_int_rating,professor_acc_rating,soccer hooligan_int_rating,soccer hooligan_acc_rating
20170209-105321,102,1,0,soccer hooligan,"In my daily life i would be waking up late, about lunch time, then have a anyhow-ly cooked meal or a takeaway from the coffee shop downstairs, play a few rounds of computer gaming like Counter Strike or DOTA, before going to play soccer with the usual gang of friends about 4pm. I would be playing the entire day till late. Typical personality characterisitics would be a person that is gruff, or appears to be so, high extraversion, loud, and like to be given attention and recognition of friends. Typical passions would probably be still playing soccer, but maybe betting on actual matches. As a hooligan, probably i would never want to lose any match when i ""challenge"" the people in the field to a game, so I would do whatever it takes to win, if need be, resorting to physical tactics in order to win, even if there is no ""prize"" to be won.",Zaire,False,HTML,False,Muskrat,False,Mars,False,6,False,Bangladesh,False,Foot,False,Guy Fawkes,True,Brass,False,Wave,True,Fronts,False,21,True,Chrysler,False,180,True,Mercury,False,Mikhail Gorbachev,True,Radiation,True,Blue Knight,False,Continental Shelf,True,Fascist,True,Penicillin,True,Paul Cezanne,False,Colorado River,False,In the nose,False,Kazakhstan,False,Jupiter,True,Tchaikovsky,True,Air pressure,True,Keratin,True,Spain,False,23,Business,English,male,2nd year,Motivational/Behavioural,Cultural awareness and impact on world view,"I think is to see if there is a correlation between how broad one's world view is and if that impacts how one views another person, or are better able to understand ""different"" people in society (like hooligans) better
",yes,"as explained earlier, if how much general knowledge i have will help me to understand / rationalize the ""random"" and abnormal behaviour of hooligans",yes,made me more impatient and frustrated,"nope
",yes,86,25,50.0,6
