datetime,subjID,sex,prime_code,prime_condition,prime_response,triv1_raw,triv1_correct,triv2_raw,triv2_correct,triv3_raw,triv3_correct,triv4_raw,triv4_correct,triv5_raw,triv5_correct,triv6_raw,triv6_correct,triv7_raw,triv7_correct,triv8_raw,triv8_correct,triv9_raw,triv9_correct,triv10_raw,triv10_correct,triv11_raw,triv11_correct,triv12_raw,triv12_correct,triv13_raw,triv13_correct,triv14_raw,triv14_correct,triv15_raw,triv15_correct,triv16_raw,triv16_correct,triv17_raw,triv17_correct,triv18_raw,triv18_correct,triv19_raw,triv19_correct,triv20_raw,triv20_correct,triv21_raw,triv21_correct,triv22_raw,triv22_correct,triv23_raw,triv23_correct,triv24_raw,triv24_correct,triv25_raw,triv25_correct,triv26_raw,triv26_correct,triv27_raw,triv27_correct,triv28_raw,triv28_correct,triv29_raw,triv29_correct,triv30_raw,triv30_correct,age,major,language,sex_r,year,area_writing,area_trivia,purpose,link_yn,link_text,thinking_yn,thinking_text,comments,prior_hool,soccer hooligan_int_rating,soccer hooligan_acc_rating,professor_int_rating,professor_acc_rating
20170220-110703,133,1,1,professor,"daily life:
leaving work at 7, going home to family
marking assignemnets, preparing materials (tests, exams, etc)
going out with friends after hours
doing research, holding consultations, going to meetings

Typical activities:
overlaps with the above

Personality characteristics:
Extrovert, intellectual, learner, passionate, knowledgeable in domain specific tasks, good orator, empathetic

Passions and hobbies:
domain specific research, understanding the nature of domain related tasks (finance; stock market, psychology; how people think)
Drinking, hanging out with other professors
spending time with family
sports, running etc",Uganda,False,HTML,False,Capybara,True,Mars,False,12,True,India,True,Leg,False,Guy Fawkes,True,Pewter,False,Wave,True,Isotherms,False,21,True,Mitsubishi,False,180,True,Mercury,False,Boris Yeltsin,False,Radiation,True,Deep Blue,True,Continental Shelf,True,Fascist,True,X Rays,False,Pablo Picasso,True,Rio Grande,True,In the throat,True,Siberia,True,Jupiter,True,Tchaikovsky,True,Air pressure,True,Keratin,True,Spain,False,24,Business,English,male,3rd year,Social,Cognitive,no idea,yes,striving to answer questions more correctly after being primed to think as a professor,yes,stress,no,no,16,9,78,18
