datetime,subjID,sex,prime_code,prime_condition,prime_response,triv1_raw,triv1_correct,triv2_raw,triv2_correct,triv3_raw,triv3_correct,triv4_raw,triv4_correct,triv5_raw,triv5_correct,triv6_raw,triv6_correct,triv7_raw,triv7_correct,triv8_raw,triv8_correct,triv9_raw,triv9_correct,triv10_raw,triv10_correct,triv11_raw,triv11_correct,triv12_raw,triv12_correct,triv13_raw,triv13_correct,triv14_raw,triv14_correct,triv15_raw,triv15_correct,triv16_raw,triv16_correct,triv17_raw,triv17_correct,triv18_raw,triv18_correct,triv19_raw,triv19_correct,triv20_raw,triv20_correct,triv21_raw,triv21_correct,triv22_raw,triv22_correct,triv23_raw,triv23_correct,triv24_raw,triv24_correct,triv25_raw,triv25_correct,triv26_raw,triv26_correct,triv27_raw,triv27_correct,triv28_raw,triv28_correct,triv29_raw,triv29_correct,triv30_raw,triv30_correct,age,major,language,sex_r,year,area_writing,area_trivia,purpose,link_yn,link_text,thinking_yn,thinking_text,comments,prior_hool,soccer-hooligan_int_rating,soccer-hooligan_acc_rating,professor_int_rating,professor_acc_rating
20161007-122214,AF005,Female,1,professor,"Daily life as a professor would consist of lectures, office hours and grading. I feel like a normal university professor would do those things monday thru friday. If I were a professor, I would be funny and try not to give homework on the weekends but still be a good teacher. Typcial passions would be researching the subject I teach about or trying to make a breaktrhough with my gatherings and research. I would make learning fun because when kids get to college it isn't fun anymore, it more of a task that needs to be done to get a good job. I would bring imagination and fun back into it. Also I would give extra credit at every opportunity just to make sure everyone does well in the class. I  would never want to fail anyone or make them hate me or ruin there college experience.  I had several teachers in that past that made me hate them and the subject they taught, and I wouldn't want that for anyone especialy if they intially liked the subject and now had it ruined by an awful teacher.",Botswana,True,HTML,False,Capybara,True,Uranus,False,12,True,India,True,Arm,True,Robin Hood,False,Bronze,True,Wave,True,Isobars,True,20,False,Mitsubishi,False,120,False,Mercury,False,Nikita Krushchev,False,Pressure,False,Blue Knight,False,Continental Abyss,False,Fascist,True,Penicillin,True,Salvador Dali,False,Rio Lobos,False,In the throat,True,Siberia,True,Jupiter,True,Beethoven,False,Air pressure,True,Keratin,True,France,True,20,"Political Science
",English,female,2nd year,They must figure out what to test the pilot.,Ask a series of questions to determine what is going on.,No idea,no,,no,,Nope,no,38,11,82,25
