datetime,subjID,sex,prime_code,prime_condition,prime_response,triv1_raw,triv1_correct,triv2_raw,triv2_correct,triv3_raw,triv3_correct,triv4_raw,triv4_correct,triv5_raw,triv5_correct,triv6_raw,triv6_correct,triv7_raw,triv7_correct,triv8_raw,triv8_correct,triv9_raw,triv9_correct,triv10_raw,triv10_correct,triv11_raw,triv11_correct,triv12_raw,triv12_correct,triv13_raw,triv13_correct,triv14_raw,triv14_correct,triv15_raw,triv15_correct,triv16_raw,triv16_correct,triv17_raw,triv17_correct,triv18_raw,triv18_correct,triv19_raw,triv19_correct,triv20_raw,triv20_correct,triv21_raw,triv21_correct,triv22_raw,triv22_correct,triv23_raw,triv23_correct,triv24_raw,triv24_correct,triv25_raw,triv25_correct,triv26_raw,triv26_correct,triv27_raw,triv27_correct,triv28_raw,triv28_correct,triv29_raw,triv29_correct,triv30_raw,triv30_correct,age,major,language,sex_r,year,area_writing,area_trivia,purpose,link_yn,link_text,thinking_yn,thinking_text,comments,prior_hool,soccer-hooligan_int_rating,soccer-hooligan_acc_rating,professor_int_rating,professor_acc_rating
20161011-184544,AF016,Female,1,professor,"As a university professor I am dedicated to educating my students about my field, as well as increasing my knowledge on the field. In my daily life, I typically wake up, gather all of the materials I will need for my lesson, and drive to my academic institution. Once I arrive to the campus, I settle ungraded papers and exams in my office. Occassionally I will meet with my students to inquire about their academic performances or answer any questions they have regarding my curriculum and field. Afterwards I will teach my classes, and end my day again in my office correcting papers and meeting with students. On the weekends and on vacations I enjoy traveling to different conferences that are investigating the future of my field so that I can continue to broaden my understanding of the field. I am always eager to learn and educate others on what I know.",Botswana,True,HTML,False,Capybara,True,Earth,True,8,False,Phillipines,False,Foot,False,Guy Fawkes,True,Bronze,True,Wave,True,Isobars,True,21,True,General Motors,True,360,False,Venus,True,Mikhail Gorbachev,True,Pressure,False,Deep Blue,True,Continental Abyss,False,Fascist,True,Stethoscope,False,Pablo Picasso,True,Colorado River,False,In the throat,True,Ukraine,False,Jupiter,True,Tchaikovsky,True,Air pressure,True,Collagen,False,France,True,21,Speech-Language Pathology,English,female,4th year or higher,Cognitive,Cognitive,"no idea
",yes,Think in a higher manner,no,,No,yes,60,15.0,65,20
