datetime,subjID,sex,prime_code,prime_condition,prime_response,triv1_raw,triv1_correct,triv2_raw,triv2_correct,triv3_raw,triv3_correct,triv4_raw,triv4_correct,triv5_raw,triv5_correct,triv6_raw,triv6_correct,triv7_raw,triv7_correct,triv8_raw,triv8_correct,triv9_raw,triv9_correct,triv10_raw,triv10_correct,triv11_raw,triv11_correct,triv12_raw,triv12_correct,triv13_raw,triv13_correct,triv14_raw,triv14_correct,triv15_raw,triv15_correct,triv16_raw,triv16_correct,triv17_raw,triv17_correct,triv18_raw,triv18_correct,triv19_raw,triv19_correct,triv20_raw,triv20_correct,triv21_raw,triv21_correct,triv22_raw,triv22_correct,triv23_raw,triv23_correct,triv24_raw,triv24_correct,triv25_raw,triv25_correct,triv26_raw,triv26_correct,triv27_raw,triv27_correct,triv28_raw,triv28_correct,triv29_raw,triv29_correct,triv30_raw,triv30_correct,age,major,language,sex_r,year,area_writing,area_trivia,purpose,link_yn,link_text,thinking_yn,thinking_text,comments,prior_hool,professor_int_rating,professor_acc_rating,soccer hooligan_int_rating,soccer hooligan_acc_rating
20161025-164923,AF031,Female,0,soccer hooligan,"As a soccer hooligan, i do not spend alot of time worrying about school. You can usually catch me watching TV or catching the latest game. I love to talk about sports with the guys and enjoy l following my favorite sports teams 24/7. I like to go out to sports bars to drink and make a rucus with my friends. We go out and come home the next day and dont even remember what we did the night before. I tend to tell it as it is. If i am offensive, dont take it personally - I am like that with everyone and curse all the time. When my team doesnt win a game, me and my boys get pretty upset and tend to cause some trouble around town being too loud, drinking too much, or driving recklessly. ",Zimbabwe,False,HTML,False,Capybara,True,Pluto,False,12,True,Bangledesh,False,Leg,False,Sweeney Todd,False,Bronze,True,Iceberg,False,Isotherms,False,21,True,Mitsubishi,False,120,False,Mars,False,Alexander Popov,False,Radiation,True,0,False,Continental Shelf,True,Republic,False,Penicillin,True,Pablo Picasso,True,Rio Grande,True,In the throat,True,Ukraine,False,Jupiter,True,Tchaikovsky,True,Air pressure,True,Keratin,True,France,True,19,"psychology
",English,female,2nd year,i do not remember,Cognitive psychology,no idea,yes,no idea,yes,no idea,no,no,75,22,31,13
