datetime,subjID,sex,prime_code,prime_condition,prime_response,triv1_raw,triv1_correct,triv2_raw,triv2_correct,triv3_raw,triv3_correct,triv4_raw,triv4_correct,triv5_raw,triv5_correct,triv6_raw,triv6_correct,triv7_raw,triv7_correct,triv8_raw,triv8_correct,triv9_raw,triv9_correct,triv10_raw,triv10_correct,triv11_raw,triv11_correct,triv12_raw,triv12_correct,triv13_raw,triv13_correct,triv14_raw,triv14_correct,triv15_raw,triv15_correct,triv16_raw,triv16_correct,triv17_raw,triv17_correct,triv18_raw,triv18_correct,triv19_raw,triv19_correct,triv20_raw,triv20_correct,triv21_raw,triv21_correct,triv22_raw,triv22_correct,triv23_raw,triv23_correct,triv24_raw,triv24_correct,triv25_raw,triv25_correct,triv26_raw,triv26_correct,triv27_raw,triv27_correct,triv28_raw,triv28_correct,triv29_raw,triv29_correct,triv30_raw,triv30_correct,age,major,language,sex_r,year,area_writing,area_trivia,purpose,link_yn,link_text,thinking_yn,thinking_text,comments,prior_hool,soccer-hooligan_int_rating,soccer-hooligan_acc_rating,professor_int_rating,professor_acc_rating
20161004-161727,AM001,Male,1,professor,"As a professor I would be tasked with performing various years of research, writing publications, and reviewing other professor's works. At Loyola I would also have th opportunity to work closely with students at the undergraduate level, due to Loyola's size. I would have to grade their papers, projects and homework assignments. I would also be able top get them more involved in reasearch withing the department I am teaching. So attributes that I would ahve would include: enjoys teaching, enjoys interacting with students in a teaching environment, enjoys research, actually interested in the topics I'm explaining. ",Uganda,False,ASCII,True,Beaver,False,Earth,True,12,True,Bangladesh,False,Leg,False,Robin Hood,False,Brass,False,Wave,True,Fronts,False,21,True,General Motors,True,180,True,Venus,True,Nikita Krushchev,False,Radiation,True,Blue Knight,False,Continental Rise,False,Communist,False,Penicillin,True,Salvador Dali,False,Rio Grande,True,In the throat,True,Siberia,True,Jupiter,True,Beethoven,False,Air pressure,True,Elastin,False,Spain,False,0,18,English,male,3rd year,The psyc department,Psyc department,no idea,yes,"no idea
",no,,No,yes,74,15.0,90,17
