datetime,subjID,sex,prime_code,prime_condition,prime_response,triv1_raw,triv1_correct,triv2_raw,triv2_correct,triv3_raw,triv3_correct,triv4_raw,triv4_correct,triv5_raw,triv5_correct,triv6_raw,triv6_correct,triv7_raw,triv7_correct,triv8_raw,triv8_correct,triv9_raw,triv9_correct,triv10_raw,triv10_correct,triv11_raw,triv11_correct,triv12_raw,triv12_correct,triv13_raw,triv13_correct,triv14_raw,triv14_correct,triv15_raw,triv15_correct,triv16_raw,triv16_correct,triv17_raw,triv17_correct,triv18_raw,triv18_correct,triv19_raw,triv19_correct,triv20_raw,triv20_correct,triv21_raw,triv21_correct,triv22_raw,triv22_correct,triv23_raw,triv23_correct,triv24_raw,triv24_correct,triv25_raw,triv25_correct,triv26_raw,triv26_correct,triv27_raw,triv27_correct,triv28_raw,triv28_correct,triv29_raw,triv29_correct,triv30_raw,triv30_correct,age,major,language,sex_r,year,area_writing,area_trivia,purpose,link_yn,link_text,thinking_yn,thinking_text,comments,prior_hool,professor_int_rating,professor_acc_rating,soccer-hooligan_int_rating,soccer-hooligan_acc_rating
20170214-152406,129,m,0,soccer-hooligan,"My daily life would consider going to pubs and bars and watching soccer games, perhaps occasionally going to public soccer games as well in the community, generally trying to be involved in soccer as much as i can because it is a passion. I'd be pretty aggressive, especially when I get drunk while watching a game, arguing a lot and possibly getting into fights or disputes with people who don't agree with me. Regardless of all this though it'd be tied down to the fact that I just enjoy soccer so much that it's an incredibly important part of my life. It is simply who I am, soccer is my life.",Zaire,False,ASCII,True,Capybara,True,Earth,True,6,False,India,True,Arm,True,Sweeney Todd,False,Brass,False,Wave,True,Isotherms,False,21,True,General Motors,True,180,True,Venus,True,Mikhail Gorbachev,True,Radiation,True,Blue Knight,False,0,False,Fascist,True,Stethoscope,False,Salvador Dali,False,Colorado River,False,In the throat,True,Siberia,True,Jupiter,True,Handel,False,Air temperature,False,Keratin,True,France,True,18,"paramedicine
",English,male,1st year,cognitive response,general intelligence,"to give measures on intelligence and ability to write/respond to questions
",yes,no idea,no,,no,no,70,22,40,12
