datetime,subjID,sex,prime_code,prime_condition,prime_response,triv1_raw,triv1_correct,triv2_raw,triv2_correct,triv3_raw,triv3_correct,triv4_raw,triv4_correct,triv5_raw,triv5_correct,triv6_raw,triv6_correct,triv7_raw,triv7_correct,triv8_raw,triv8_correct,triv9_raw,triv9_correct,triv10_raw,triv10_correct,triv11_raw,triv11_correct,triv12_raw,triv12_correct,triv13_raw,triv13_correct,triv14_raw,triv14_correct,triv15_raw,triv15_correct,triv16_raw,triv16_correct,triv17_raw,triv17_correct,triv18_raw,triv18_correct,triv19_raw,triv19_correct,triv20_raw,triv20_correct,triv21_raw,triv21_correct,triv22_raw,triv22_correct,triv23_raw,triv23_correct,triv24_raw,triv24_correct,triv25_raw,triv25_correct,triv26_raw,triv26_correct,triv27_raw,triv27_correct,triv28_raw,triv28_correct,triv29_raw,triv29_correct,triv30_raw,triv30_correct,age,major,language,sex_r,year,area_writing,area_trivia,purpose,link_yn,link_text,thinking_yn,thinking_text,comments,prior_hool,professor_int_rating,professor_acc_rating,soccer-hooligan_int_rating,soccer-hooligan_acc_rating
20170323-152635,152,female,0,soccer-hooligan,"1. drnking, watching sports. and say offensive things to people
2. typical activities include playing sports and drinking at bars
3. typical passion includes watching and playing soccer",Uganda,False,HTML,False,Capybara,True,Earth,True,12,True,India,True,Foot,False,Sweeney Todd,False,Brass,False,Iceberg,False,Fronts,False,20,False,General Motors,True,90,False,Venus,True,Alexander Popov,False,Radiation,True,Blue Knight,False,Continental Shelf,True,Communist,False,X Rays,False,Salvador Dali,False,Rio Grande,True,In the throat,True,Ukraine,False,Mars,False,Tchaikovsky,True,Air temperature,False,Keratin,True,Spain,False,18,human biology,other:,female,1st year,writing and language ,memory and knowledge ,no idea ,no,,yes,no idea,no,no,82,28,42,13
