datetime,subjID,sex,prime_code,prime_condition,prime_response,triv1_raw,triv1_correct,triv2_raw,triv2_correct,triv3_raw,triv3_correct,triv4_raw,triv4_correct,triv5_raw,triv5_correct,triv6_raw,triv6_correct,triv7_raw,triv7_correct,triv8_raw,triv8_correct,triv9_raw,triv9_correct,triv10_raw,triv10_correct,triv11_raw,triv11_correct,triv12_raw,triv12_correct,triv13_raw,triv13_correct,triv14_raw,triv14_correct,triv15_raw,triv15_correct,triv16_raw,triv16_correct,triv17_raw,triv17_correct,triv18_raw,triv18_correct,triv19_raw,triv19_correct,triv20_raw,triv20_correct,triv21_raw,triv21_correct,triv22_raw,triv22_correct,triv23_raw,triv23_correct,triv24_raw,triv24_correct,triv25_raw,triv25_correct,triv26_raw,triv26_correct,triv27_raw,triv27_correct,triv28_raw,triv28_correct,triv29_raw,triv29_correct,triv30_raw,triv30_correct,age,major,language,sex_r,year,area_writing,area_trivia,purpose,link_yn,link_text,thinking_yn,thinking_text,comments,prior_hool,professor_int_rating,professor_acc_rating,soccer-hooligan_int_rating,soccer-hooligan_acc_rating
20161018-123238,15,f,0,soccer-hooligan,"In the daily life of a soccer hooligan, i believe this to be a very reckless life. I would be living in a run down appartment close to a local bar/pub. I would be high tempered and very one side minded, giving gate way to offensive remarks and actions. I would not have a high paying job because my lack of responsibilities would show in the real work force as well as how my attitude. my attitude would be rude, disrespectful and mean towards most people, even my famliy and friends. i wouldn't have many friends to start with and the ones that stick around me would have the same attitude as me. Making public outtings with these people horrendace to the public around us. my hobies would include; cat calling, drinking almost everynight while watching or rewatching a soccer game and play soccer and showing off my ",Uganda,False,HTML,False,Capybara,True,Uranus,False,12,True,Bangladesh,False,Arm,True,Sweeney Todd,False,Brass,False,Iceberg,False,Isotherms,False,21,True,Chrysler,False,120,False,Venus,True,Alexander Popov,False,Temperature,False,King Blue,False,Continental Slope,False,Fascist,True,Penicillin,True,Pablo Picasso,True,Rio Grande,True,In the throat,True,Siberia,True,Neptune,False,Tchaikovsky,True,Air pressure,True,Lecithin,False,Greece,False,18,"Paramedicine
",English,female,1st year, ,student,no idea,yes,what general knowledge i haveabout soccer and hooligans was used to answer that quetion,no,,no,no,80,15,24,13
