datetime,subjID,sex,prime_code,prime_condition,prime_response,triv1_raw,triv1_correct,triv2_raw,triv2_correct,triv3_raw,triv3_correct,triv4_raw,triv4_correct,triv5_raw,triv5_correct,triv6_raw,triv6_correct,triv7_raw,triv7_correct,triv8_raw,triv8_correct,triv9_raw,triv9_correct,triv10_raw,triv10_correct,triv11_raw,triv11_correct,triv12_raw,triv12_correct,triv13_raw,triv13_correct,triv14_raw,triv14_correct,triv15_raw,triv15_correct,triv16_raw,triv16_correct,triv17_raw,triv17_correct,triv18_raw,triv18_correct,triv19_raw,triv19_correct,triv20_raw,triv20_correct,triv21_raw,triv21_correct,triv22_raw,triv22_correct,triv23_raw,triv23_correct,triv24_raw,triv24_correct,triv25_raw,triv25_correct,triv26_raw,triv26_correct,triv27_raw,triv27_correct,triv28_raw,triv28_correct,triv29_raw,triv29_correct,triv30_raw,triv30_correct,age,major,language,sex_r,year,area_writing,area_trivia,purpose,link_yn,link_text,thinking_yn,thinking_text,comments,prior_hool,professor_int_rating,professor_acc_rating,soccer-hooligan_int_rating,soccer-hooligan_acc_rating
20161115-122418,79,m,0,soccer-hooligan,"My daily routine would be waking up late, eating unhealthy food, calling my fellow soccer fanatics and discussing the results of previous games, watching sport channels for highlighs, making fun of other sports that are not soccer, drinking a lot of beer usually at pubs, yelling at the referees, causing problems in my sons soccer team, anything from yelling at the coach or critiqing other players, usually wearing my avourite jersey and sweats, out of shape, play soocer on weekends with my budddies, tatoo of my favourite team and player, same hair style as them too
",Zimbabwe,False,ASCII,True,Capybara,True,Mars,False,12,True,Pakistan,False,Arm,True,Guy Fawkes,True,Bronze,True,Iceberg,False,Isobars,True,21,True,Mitsubishi,False,180,True,Mars,False,Nikita Krushchev,False,Temperature,False,King Blue,False,Continental Abyss,False,Fascist,True,Penicillin,True,Salvador Dali,False,Rio Lobos,False,In the throat,True,Ukraine,False,Jupiter,True,Tchaikovsky,True,Air pressure,True,Keratin,True,France,True,18,paramedcine,English,male,1st year,"it was difficult to structure my ideas to make them flow, so I used it more as listing random points.","the variety of questions made it difficult to answer. Some topics i was fimiliar with, but others I ha dno clue",the purpose is to compare the general knowledge of different university students based on the length of their post secondary education. The first experiment was ment to discover the stereotype of soccer fanatics,no,,no,,no,yes,80,22,25,9
