datetime,subjID,sex,prime_code,prime_condition,prime_response,triv1_raw,triv1_correct,triv2_raw,triv2_correct,triv3_raw,triv3_correct,triv4_raw,triv4_correct,triv5_raw,triv5_correct,triv6_raw,triv6_correct,triv7_raw,triv7_correct,triv8_raw,triv8_correct,triv9_raw,triv9_correct,triv10_raw,triv10_correct,triv11_raw,triv11_correct,triv12_raw,triv12_correct,triv13_raw,triv13_correct,triv14_raw,triv14_correct,triv15_raw,triv15_correct,triv16_raw,triv16_correct,triv17_raw,triv17_correct,triv18_raw,triv18_correct,triv19_raw,triv19_correct,triv20_raw,triv20_correct,triv21_raw,triv21_correct,triv22_raw,triv22_correct,triv23_raw,triv23_correct,triv24_raw,triv24_correct,triv25_raw,triv25_correct,triv26_raw,triv26_correct,triv27_raw,triv27_correct,triv28_raw,triv28_correct,triv29_raw,triv29_correct,triv30_raw,triv30_correct,age,major,language,sex_r,year,area_writing,area_trivia,purpose,link_yn,link_text,thinking_yn,thinking_text,comments,prior_hool,professor_int_rating,professor_acc_rating,soccer-hooligan_int_rating,soccer-hooligan_acc_rating
20161122-112120,91,m,0,soccer-hooligan,"Right then lad you want to know what a day in the life of me is like then do you. Right I usually wake up with my flatmates. We live down in Machester the three of us, Billy, Jezza, and myself. After a quick breakfast I'll head off to work, down at the train station. The real fun starts after. Me and the lads will kip off to the local pub, The Salty Fox, its a right proper one it is. Get a bit of a predrink on before the match today, it'll be our beloved Red Devils up against those totters from Chelsea. Everyone dressed in full kit as we make our way to the pitch, making sure to let everyone know who we support. If we see anyone dressed in blue we hold up our club's traditions and make sure to tell them to bugger off. H",Botswana,True,HTML,False,Capybara,True,Mars,False,12,True,Pakistan,False,Arm,True,Guy Fawkes,True,Bronze,True,Wave,True,Isobars,True,21,True,Chrysler,False,90,False,Venus,True,Boris Yeltsin,False,Radiation,True,Deep Blue,True,Continental Shelf,True,Fascist,True,Penicillin,True,Salvador Dali,False,Colorado River,False,In the throat,True,Siberia,True,Jupiter,True,Tchaikovsky,True,Air pressure,True,Keratin,True,France,True,19,Life Sciences,English,male,1st year,Empathy,"General Knowledge
","To see how much we knew about the world (the questions were all around the world) and to see if we could place ourselves in someone else's shoes.
",no,,no,,No,yes,75,17,26,4
