datetime,subjID,sex,prime_code,prime_condition,prime_response,triv1_raw,triv1_correct,triv2_raw,triv2_correct,triv3_raw,triv3_correct,triv4_raw,triv4_correct,triv5_raw,triv5_correct,triv6_raw,triv6_correct,triv7_raw,triv7_correct,triv8_raw,triv8_correct,triv9_raw,triv9_correct,triv10_raw,triv10_correct,triv11_raw,triv11_correct,triv12_raw,triv12_correct,triv13_raw,triv13_correct,triv14_raw,triv14_correct,triv15_raw,triv15_correct,triv16_raw,triv16_correct,triv17_raw,triv17_correct,triv18_raw,triv18_correct,triv19_raw,triv19_correct,triv20_raw,triv20_correct,triv21_raw,triv21_correct,triv22_raw,triv22_correct,triv23_raw,triv23_correct,triv24_raw,triv24_correct,triv25_raw,triv25_correct,triv26_raw,triv26_correct,triv27_raw,triv27_correct,triv28_raw,triv28_correct,triv29_raw,triv29_correct,triv30_raw,triv30_correct,age,major,language,sex_r,year,area_writing,area_trivia,purpose,link_yn,link_text,thinking_yn,thinking_text,comments,prior_hool,professor_int_rating,professor_acc_rating,soccer hooligan_int_rating,soccer hooligan_acc_rating
20161122-141848,104362,Female,0,soccer hooligan,"I love soccer. Everything I do is about soccer. Every night I go over to my buds place and we watch the big game that night and drink beer. I am constantly checking my social media on who is winning and stats of a game. My passionsare playing soccer and going to my favorite teams games. I have season tickets.  I am super loud and annoying when I watch soccer, but i really do not care because the game is my life. I am strong headed and hate losing, and get really angry when my favorite team loses, or if i lose a bet.    ",Zimbabwe,False,Morse Code,False,Capybara,True,Mars,False,12,True,India,True,9,False,Robin Hood,False,Brass,False,Wave,True,Isobars,True,21,True,Chrysler,False,180,True,Venus,True,Nikita Krushchev,False,Underground,False,Blue Knight,False,Continental Shelf,True,Fascist,True,Penicillin,True,Iron,True,Rio Grande,True,In the throat,True,Siberia,True,Jupiter,True,Beethoven,False,Wind speed,False,Collagen,False,France,True,20,Nursing,English,female,3rd year,do not remember,cognitive,"no idea
",no,,no,,no,no,66,27,30,10
