"datetime","subjID","sex","prime_code","prime_condition","prime_response","triv1_raw","triv1_correct","triv2_raw","triv2_correct","triv3_raw","triv3_correct","triv4_raw","triv4_correct","triv5_raw","triv5_correct","triv6_raw","triv6_correct","triv7_raw","triv7_correct","triv8_raw","triv8_correct","triv9_raw","triv9_correct","triv10_raw","triv10_correct","triv11_raw","triv11_correct","triv12_raw","triv12_correct","triv13_raw","triv13_correct","triv14_raw","triv14_correct","triv15_raw","triv15_correct","triv16_raw","triv16_correct","triv17_raw","triv17_correct","triv18_raw","triv18_correct","triv19_raw","triv19_correct","triv20_raw","triv20_correct","triv21_raw","triv21_correct","triv22_raw","triv22_correct","triv23_raw","triv23_correct","triv24_raw","triv24_correct","triv25_raw","triv25_correct","triv26_raw","triv26_correct","triv27_raw","triv27_correct","triv28_raw","triv28_correct","triv29_raw","triv29_correct","triv30_raw","triv30_correct","age","major","language","sex_r","year","area_writing","area_trivia","purpose","link_yn","link_text","thinking_yn","thinking_text","comments","prior_hool","soccer.hooligan_int_rating","soccer.hooligan_acc_rating","professor_int_rating","professor_acc_rating","correct_raw","skipped_raw","correct_pct","correct_skip_pct","country","test_cond","enough_males"
"20161128-114350",456856,"Male",1,"professor","In my daily life as a university professor, i have 2 sections of lecture. One is in the morning at 8AM the other is in the middle afternoon at 2:30PM. Outside of classroom hours i have office hours from Noon to 2PM every day where i get bombarded by students ranging from perfectionists to students who don't understand the core concepts. other than that i have research that is going on class to class where i am trying to identify how many people use their cellphones in class. the morning class is told about cameras that are recording video only to count the number of cell phones that are used. the afternoon class is not told. after 2 semesters of classes, each having 100 seas op","Zaire","False","ASCII","True","Capybara","True","Earth","True",6,"False","India","True","12","True","Guy Fawkes","True","Brass","False","Iceberg","False","Isotherms","False",21,"True","General Motors","True",180,"True","Mercury","False","Mikhail Gorbachev","True","In trees","True","King Blue","False","Continental Shelf","True","Fascist","True","Stethoscope","False","Brass","False","Rio Lobos","False","In the throat","True","Siberia","True","Jupiter","True","Tchaikovsky","True","Air pressure","True","Keratin","True","France","True",24,"engineering technology ","English","0","2nd year","social psychology","cognitive psychology ","to aid current research ",1,"a creative link, depending on problem solving techniques.",0,NA,"no.",1,70,18,50,16,20,0,66.6666666666667,66.6666666666667,"United States",1,0
"20170213-133430",6451,"Female",0,"soccer hooligan","I think as a soccer hooigan, my daily activities consist of looking up soccer stats, watching the current game, and keeping the cold ones flowing. My typical activities include cat calling some pretty ladies on the street, and harrasing fans of the opposite team. My personality is goofy and down for all the fun. I like to joke around and play games like beer pong. I am passionate about my team and destroying the opposite team on the scoreboard. I really love soccer and the things that go along with it. I love to wear my jersey at all times, even  to simply go to the store. I fin","Zimbabwe","False","HTML","False","Capybara","True","Mars","False",12,"True","Bangledesh","False","12","True","Sweeney Todd","False","Brass","False","Wave","True","Isotherms","False",21,"True","Chrysler","False",180,"True","Venus","True","Mikhail Gorbachev","True","In trees","True","Blue Knight","False","Continental Shelf","True","Communist","False","Penicillin","True","Bronze","True","Rio Grande","True","In the throat","True","Siberia","True","Saturn","False","Mozart","False","Air pressure","True","Keratin","True","Spain","False",21,"Biology","English","1","3rd year","I dont know",NA,"NO idea",0,NA,0,NA,"No",0,50,14,60,18,17,0,56.6666666666667,56.6666666666667,"United States",1,0
"20161122-132142",100180,"female",1,"professor","I would most likely read books on my free time. I believe my personality will be very well organized. I will have a callender to help with my daily functions, especially at a university. I will spend most of my time at the university working with students and in my lab. I will come up with new hypothesis and research that I would be intersted in. Overall, I would mostly spend my time in the lab because that would be my passion. ","Botswana","True","Wordpad","False","Beaver","False","Earth","True",12,"True","Phillipines","False","15","False","Dick Turpin","False","Bronze","True","Iceberg","False","Isotherms","False",25,"False","Ford","False",90,"False","Mars","False","Alexander Popov","False","In trees","True","Blue Knight","False","Continental Rise","False","Communist","False","X Rays","False","Copper","False","Rio Rojo","False","In the throat","True","Ukraine","False","Mars","False","Handel","False","Air temperature","False","Keratin","True","France","True",22,"psychology","moldovian","1","4th year or higher","sociology","cognitive","no idea",0,NA,1,"no idea","no",0,37,15,84,26,8,0,26.6666666666667,26.6666666666667,"United States",1,0
"20161202-111715",100216,"Male",1,"professor","I  have a very busy schedule as a professor. Although my life focuses around academia most of the time, I try to include specific and unique hobbies of mine into my daily life. Life as a professor can be quite busy. After teaching a few lectures throughout the week , I usually spend close to 20 hours in my office each week grading, answering emails, meeting with students , and brainstorming new research methods. Aside from lectures and office hours, I often spend my time in the lab reviewing gathered data from my experiments or preparing an article for submission. I hope this one gets published. I was sure that my last one would but boy was I dissapointed. After all is said and done at the university I enjoy retreating back to my home to play video games and spend time with my family. ","Botswana","True","ASCII","True","Capybara","True","Earth","True",8,"False","Bangledesh","False","12","True","Sweeney Todd","False","Brass","False","Wave","True","Isotherms","False",21,"True","General Motors","True",180,"True","Venus","True","Mikhail Gorbachev","True","In trees","True","Blue Knight","False","Continental Shelf","True","Fascist","True","Penicillin","True","Bronze","True","Rio Grande","True","In the throat","True","Siberia","True","Jupiter","True","Tchaikovsky","True","Air pressure","True","Keratin","True","Greece","False",21,"child psychology","English","0","3rd year","social psychology","cognitive","Maybe to see if puting yourself in the shoes of a professor would make you perform better on a cognitive test",1,"no idea",0,NA,"no",0,40,10,60,20,23,0,76.6666666666667,76.6666666666667,"United States",1,0
"20170201-114555",100792,"female",0,"soccer hooligan","As a member of the soccer hooligan community  I tend to spend my days attedning soccer games, playing in pickup games, going with the guys on my team for burgers and beer, and watching my favorite team, Man City. In my daily life I am a High School soccer coach. My team has won first in district for the past 4 years. I have been coaching for 6 years now. If I had to describe my self it would be goal oriented (both soccer goal and personal goals), driven, forceful, ambitions, goofy, and passionate. I also am a very dedicated team player. I work better with others than with myself. Also, as a goalie, I consider myself very protective of things that I care about.  One of my hobbies is having all of my friends over to watch the games. ","Botswana","True","HTML","False","Capybara","True","Earth","True",12,"True","Pakistan","False","12","True","Sweeney Todd","False","Pewter","False","Wave","True","Fronts","False",21,"True","Mitsubishi","False",360,"False","Venus","True","Mikhail Gorbachev","True","In trees","True","Blue Knight","False","Continental Shelf","True","Republic","False","Stethoscope","False","Iron","True","Rio Grande","True","In the throat","True","Belarus","False","Jupiter","True","Tchaikovsky","True","Air pressure","True","Keratin","True","Spain","False",19,"psychology","English","1","2nd year","social","cognitive","to see if there was  a correlation between my ability to put myself in a different scenario and my common knowlegde",1,"how much you know about a random career might relate to your random knowledge",0,NA,"no",0,44,12,71,20,18,0,60,60,"United States",1,0
"20161122-144433",101278,"Male",1,"professor","My daily life would include preparing lecture notes for my various classes  and teaching my students in those classes. Besides that, I would spend time doing my research on whatever it may be and also planning the rest of my week out. As dar as my personality traits as a professor, I would be pretty out-going. I'd want to make sure my students enjoy learning rather than barely getting through a lecture. I would relate to them and build good relationships (as long as i didn't teach a class of 200 students). My passion is to engage students in their learning and making sure whatever they are learning is applicable to their career interests. I want the students to, again, have fun while they're learning so they will retain what they learned better and easier","Zaire","False","HTML","False","Beaver","False","Mars","False",8,"False","Bangledesh","False","12","True","Sweeney Todd","False","Brass","False","Wave","True","Isobars","True",21,"True","Mitsubishi","False",180,"True","Saturn","False","Nikita Krushchev","False","Underground","False","Blue Knight","False","Continental Abyss","False","Fascist","True","Penicillin","True","Bronze","True","Colorado River","False","In the throat","True","Siberia","True","Saturn","False","Tchaikovsky","True","Wind speed","False","Collagen","False","Spain","False",20,"Communications","English","0","3rd year","Being a professor","Questions about minerals, space, history","to possibly assess knowledge over broad topics and compare that to being a professor somehow",1,"Maybe to see how general knowledge could affect being a professor",0,NA,"no",0,40,10,70,19,11,0,36.6666666666667,36.6666666666667,"United States",1,0
"20161201-134819",101422,"Female",0,"soccer hooligan","I love to keep up with my schools soccer team and try to go to as many games as possible. I watch the games on t.v too. There are alot of different leagues but I try to keep up with as many as possible. I'm a very competetive person and I hate loosing. If I'm at a bar and someone of the opposite team starts to talk trash about the team I like I'm not afraid to start a fight. I have many different soccer jerseys and one that I have signed by a famous soccer athelete. I played soccer myself back in the day and was thrown out of the last game I played in due to unsportsman like conduct.  ","Botswana","True","ASCII","True","Capybara","True","Uranus","False",8,"False","India","True","12","True","Sweeney Todd","False","Bronze","True","Wave","True","Fronts","False",21,"True","Chrysler","False",360,"False","Venus","True","Mikhail Gorbachev","True","Underground","False","Blue Knight","False","Continental Shelf","True","Communist","False","Stethoscope","False","Brass","False","Colorado River","False","In the throat","True","Siberia","True","Jupiter","True","Tchaikovsky","True","Air pressure","True","Collagen","False","Germany","False",22,"psychology","English","1","4th year or higher","social psychology","cognitive psychology","no idea",1,"reaction",0,NA,"no",1,55,20,70,20,16,0,53.3333333333333,53.3333333333333,"United States",1,0
"20161122-171955",101581,"Female",1,"professor","In my daily life as a professor I would probably be teaching classes, grading assignments, making study guides, and holding office hours. I might be involved on other university committies or perhaps doing my own research in a lab. My typical personality characteristics as a university professor would be professional, decisive, willing to help others, compassionate, hard working, and devoted to my line of work. My passions of hobbies as a university professor would be reading, exercising, tak","Botswana","True","HTML","False","Capybara","True","Earth","True",6,"False","Phillipines","False","12","True","Guy Fawkes","True","Brass","False","Wave","True","Isotherms","False",21,"True","Mitsubishi","False",360,"False","Mars","False","Alexander Popov","False","In trees","True","Blue Knight","False","Continental Shelf","True","Fascist","True","Penicillin","True","Copper","False","Rio Grande","True","In the throat","True","Siberia","True","Saturn","False","Tchaikovsky","True","Air pressure","True","Keratin","True","Spain","False",21,"clinical psychology","English","1","4th year or higher","cognitive psychology","sociology","no idea",1,"professors know more general knowledge",0,NA,"no",1,60,13,80,22,17,0,56.6666666666667,56.6666666666667,"United States",1,0
"20161130-123741",102613,"male",1,"professor","if i was a professor  some of my daily actvities would be teaching,gradeing,helping,and spending time with family.i am very outspoken and willing to help whoever needs or would appreciate it.   Some of my hobbies include basketball,swimming, video gaming. As a professor I would do some tutoring or offer help to students.   ","Botswana","True","HTML","False","Muskrat","False","Earth","True",6,"False","Bangledesh","False","9","False","Sweeney Todd","False","Brass","False","Iceberg","False","Fronts","False",21,"True","General Motors","True",180,"True","Mars","False","Mikhail Gorbachev","True","0","False","Deep Thought","False","0","False","Communist","False","Stethoscope","False","Iron","True","Rio Grande","True","In the throat","True","Siberia","True","Jupiter","True","Handel","False","Air pressure","True","Collagen","False","Spain","False",18,"undecided
 ","English","0","1st year","cog","social	","no idea
",0,NA,0,NA,"no",1,NA,5,50,15,12,2,40,42.8571428571429,"United States",1,0
"20161128-124823",102637,"Female",1,"professor","I go to work and try to teach my students all they need in order to achieve the degree they desire.  I devote all my effort at work to my students and allow them to contact me with any questions or concerns and allow them to come by my office if they have any questions about the class or just about college in general.  I strive to give my students the opportunities and knowledge that I have achieved.  I put myself in their shoes and understand they have a large work load but push them to try hard in my class and their others.  I am very interested in seeing my students succeed and go to every graduation so they know I care.  I know that being a student is hard and understand that entirely.","Zimbabwe","False","HTML","False","Beaver","False","Earth","True",12,"True","Bangledesh","False","12","True","Robin Hood","False","Brass","False","Wave","True","Cyclones","False",15,"False","Ford","False",120,"False","Venus","True","Nikita Krushchev","False","Underground","False","King Blue","False","Continental Rise","False","Communist","False","Stethoscope","False","Iron","True","Rio Grande","True","In the throat","True","Ukraine","False","Jupiter","True","Beethoven","False","Wind speed","False","Keratin","True","Greece","False",19,"0","English","1","1st year","incognitive","cognitive","to better the psych tests",1,"could help a student",1,"i put myself in their shoes","no",0,39,22,100,30,10,0,33.3333333333333,33.3333333333333,"United States",1,0
"20161122-162302",102745,"Female",0,"soccer hooligan","In my daily life as a soccer hooligan, I watch sports and sports talk shows constantly. I attend lots of soccer games, and even travel far distances for big and exciting games. I am very masculine, but my masculinity is fragile so I feel the need to reiterate my masculinity at every opportunity I get, including making derrogatory remarks toward women, drinking lots of 'manly' beers, and not going anywhere that could be considered 'feminine'. I talk about my love for soccer at every opportunity that comes up, and if I meet fans of my opposing team, I will not hesitate to get into loud, verbal, and sometimes even physical altercations with them over the sport. I wear soccer jerseys very often, and have lots of hair gel in my hair at all times. At parties I suggest playing soccer themed video games or else playing soccer if the weather permits. My friends and I like to have lots of sports themed gatherings, and are regulars at the local sports bars, where they know our name and vice versa. When we walk in we greet the bartender by name and order him around a little to give him a hard time and display our power and masculinity. We cat call women and wink at them ","Botswana","True","Wordpad","False","Capybara","True","Earth","True",15,"False","India","True","12","True","Guy Fawkes","True","Bronze","True","Wave","True","Fronts","False",21,"True","General Motors","True",180,"True","Mars","False","Mikhail Gorbachev","True","Underground","False","Blue Knight","False","Continental Shelf","True","Fascist","True","Penicillin","True","Iron","True","Rio Grande","True","In the throat","True","Siberia","True","Jupiter","True","Tchaikovsky","True","Air pressure","True","Keratin","True","France","True",19,"undeclared","English","1","1st year","i dont know","i dont know","no idea",0,NA,0,NA,"no",0,45,15,80,20,24,0,80,80,"United States",1,0
"20161122-141620",102766,"female",1,"professor","As a University professor, I would imagine me to teach anatomy and physoiology. I would have a desire to make this difficult class as simple as possible, so my students could comprehend it easier. In my daily life as a professor, I would teach this class, and the lab to go with it. I would also hold tutor sessions to imporve my students' achievments in the class. I would try to the best of my ability to be kind and helpful, so my students will succeed. It will not be my duty to fail them. We would work together, and gain the knowledge needed to complete this class. I would also have a passion to raise money for charity foundations and food, for food drives to provide people with as much as i can that are not capable of getting the oppurtunity me and my students have. ","Botswana","True","ASCII","True","Capybara","True","Pluto","False",12,"True","India","True","12","True","Sweeney Todd","False","Bronze","True","Iceberg","False","Isotherms","False",21,"True","Mitsubishi","False",180,"True","Mars","False","Alexander Popov","False","Underground","False","Blue Knight","False","Continental Abyss","False","Communist","False","Penicillin","True","Brass","False","Rio Grande","True","In the throat","True","Siberia","True","Mars","False","Beethoven","False","Relative humidity","False","Keratin","True","Greece","False",20,"nursing","English","1","2nd year","don't know ","don't know","to compare the knowledge of students",0,NA,0,NA,"no",0,40,20,60,20,14,0,46.6666666666667,46.6666666666667,"United States",1,0
"20161129-162118",102820,"Female",1,"professor","As a professor, my daily life consists of living in a condo near campus. I have to get up early in the morning to get ready for the day. I start my day by taking out the dog and getting the newspaper. After I do this, I will make something to eat for breakfast. I will the go to the campus and get my lessons prepared for the class, and make sure everything is organized. After teaching all day, I go to the CPA where I tend to exercise for about an hour. After this I will go home an dfix dinner while grading my student's assignment. Then it is time for bed and the whole process starts over again. My personality is outgoing. As a professor, I have to be willing to talk to anyone and get along and tolerate all personality types. My job involves me helping the students the most I can. I enjoy walking my dogs and helping others. I need to be a resource to my students an dlet them know they can come to me for hel","Uganda","False","HTML","False","Beaver","False","Pluto","False",12,"True","Pakistan","False","9","False","Sweeney Todd","False","Bronze","True","Wave","True","Fronts","False",25,"False","Chrysler","False",180,"True","Venus","True","Mikhail Gorbachev","True","Underground","False","Blue Knight","False","Continental Shelf","True","Communist","False","Penicillin","True","Iron","True","Rio Grande","True","In the throat","True","Ukraine","False","Jupiter","True","Tchaikovsky","True","Wind speed","False","Keratin","True","Greece","False",19,"Psychology","English","1","2nd year","critical thinking","memory","no idea",0,NA,0,NA,"None",0,35,10,75,20,14,0,46.6666666666667,46.6666666666667,"United States",1,0
"20161130-112940",103060,"Female",1,"professor","As a university professor, I am an extremely patient person. I understand that unfortunately, not everyone wants to take my class, and not everyone is willing to put forth the effort to succeed. Even though this annoys me, seeing as I spent ten years in school to perfect my craft, I have a passion for the subject I teach and enjoy being able to share my passion with students, regardless of if they want to be there or not. On a typical day, I like to wake up and get a donut to wake up in the best way possible. Thankfully, I don't teach any classes at 8:15, so I have plenty of time to check my emails and grade some papers before class starts. When my students arrive, I usually have downed a few cups of coffee so I am awake, even though typically, most of my students are exhausted from the night before and college life in general. I am used to it, because I have made college my life. When I get home at night, I usually finish grading some papers to return the grades to students on time, because I know how eager they are to know if they passed or failed. Then, I tend to eat a nice big dinner prepared by my spouse and watch television until I am ready for bed. ","Zimbabwe","False","HTML","False","Muskrat","False","Earth","True",6,"False","Phillipines","False","15","False","Guy Fawkes","True","Brass","False","Pillar","False","Isobars","True",25,"False","Mitsubishi","False",180,"True","Venus","True","Nikita Krushchev","False","In trees","True","Blue Knight","False","Continental Shelf","True","Fascist","True","Penicillin","True","Iron","True","Rio Grande","True","In the throat","True","Siberia","True","Jupiter","True","Tchaikovsky","True","Wind speed","False","Keratin","True","France","True",20,"English","English","1","2nd year","Proffesor","5","To improve college courses",1,"How well a professor knows his own course.",0,NA,"No",1,40,8,70,26,17,0,56.6666666666667,56.6666666666667,"United States",1,0
"20161129-175345",103126,"male",1,"professor","Everyday I wake up and go to my office at least an  hour before my morning class . Before I go to class I look over the lesson plan and add or take out somethings i feel should be talked about. While in class with my students I try to be enthusiactic and speak to  where the students can understand. I feel these two things are  important and allows some students to feel more comfortable to come speak with me. As a professor I can't always fully know all of my students so some things i do to connect with them is things such as working out in the gym","Botswana","True","Morse Code","False","Capybara","True","Uranus","False",6,"False","Pakistan","False","15","False","Robin Hood","False","Brass","False","Wave","True","Isotherms","False",21,"True","Mitsubishi","False",360,"False","Mars","False","Nikita Krushchev","False","Underground","False","Deep Blue","True","Continental Abyss","False","Democracy","False","X Rays","False","Copper","False","Rio Grande","True","In the throat","True","Ukraine","False","Jupiter","True","Mozart","False","Air temperature","False","Collagen","False","Greece","False",19,"biology","English","0","1st year","wanted to be more detailed but had to answer all 5 questions","felt like i didn't know any of the trivia","no idea ",0,NA,0,NA,"i feel the  two have no connection to each other",0,55,8,63,19,8,0,26.6666666666667,26.6666666666667,"United States",1,0
"20161128-131745",103255,"Male",1,"professor","As a professor, I would make sure I reach all the students potential in learning, maximizing their learning capabilities.  I wouldn't be a strcit teacher as it is their money they choose to waste if they don't want to participate.  If you come to my class and complete your objectives, there will be no problem in making a C average or above.  I would work with every student as if they are my own child.  I would hate to see a student fail my course and waste their money.  I would ensure to help every student if they put the forth effort to pass.  I would make class time wise because I know everyone doesn't have spare time so coming to my class would strictly go over testing material.  I would not waste time because as a student I know this can be annoying.  I can make learning fun as it can be, you just have to figure out your students and how is the best way to teach them material.  I had to learn the hard way of my learning style but the first day of class would be me just getting to learn everybody and their learning style so I could adapt my teaching habits to benefit my kids.","Zimbabwe","False","HTML","False","Capybara","True","Earth","True",12,"True","Bangledesh","False","12","True","Dick Turpin","False","Bronze","True","Wave","True","Isotherms","False",25,"False","Mitsubishi","False",360,"False","Mars","False","Nikita Krushchev","False","Underground","False","Deep Thought","False","Continental Slope","False","Democracy","False","X Rays","False","Copper","False","Rio Grande","True","In the throat","True","Siberia","True","Saturn","False","Handel","False","Air pressure","True","Keratin","True","France","True",18,"nursing","English","0","1st year","Psychology student","Psychology student","Learn more about people",1,"Some kind of brain connection",1,"Can I ask professors questions or will they ignore it","no",0,54,20,85,20,12,0,40,40,"United States",1,0
"20161128-124817",103261,"Male",1,"professor","If I were a university professor, I would of course have to be guiding and helpful. I would go out of my way to teach kids concepts in a way that I, or anyone, could understand. Everyday would probably consist of teaching, reading, and grading assignments.My passions and hobbies would probably consist of watching tvn or reading, just to get my mind off of work, which I'm sure carries over into personal time most days.","Zaire","False","HTML","False","Capybara","True","Mars","False",12,"True","Phillipines","False","12","True","Dick Turpin","False","Bronze","True","Iceberg","False","Isotherms","False",21,"True","Ford","False",180,"True","Venus","True","Nikita Krushchev","False","In deserts","False","Deep Blue","True","Continental Abyss","False","Fascist","True","X Rays","False","Brass","False","Colorado River","False","In the throat","True","Siberia","True","Jupiter","True","Beethoven","False","Air pressure","True","Keratin","True","France","True",18,"0","English","0","1st year","social","cognitive","no idea",1,"no idea",0,NA,"no",0,50,12,80,18,15,0,50,50,"United States",1,0
"20161128-151157",103330,"female",1,"professor","In the typical day as a professor, I would wake up around 5:00am and have a small breakfast bar for breakfast. I would be in a hurry to get to work, since there would so much to do. Another thing I do is teach classes. I spend a lot of time planning out all my classes and what I will be doing in each one. I usually would have a power point presentation for the class. As a professor I am always grading assignments or working on new assigments. I enjoy teaching people who are interested in the same thing as me, and I think that is the best part to being a professor. I usually go to bed very late due to always being busy with something related to school. ","Uganda","False","Wordpad","False","Muskrat","False","Earth","True",12,"True","Pakistan","False","9","False","Dick Turpin","False","Brass","False","Iceberg","False","Isotherms","False",21,"True","General Motors","True",90,"False","Venus","True","Nikita Krushchev","False","In rivers","False","King Blue","False","Continental Shelf","True","Communist","False","South America","False","Brass","False","Rio Grande","True","In the spine","False","Siberia","True","Jupiter","True","Beethoven","False","Air temperature","False","Lecithin","False","Greece","False",19,"psychology","English","1","1st year","social psychology","cognotive psycholgy","I am not sure",1,"They have to know the general knowledge questions.",0,NA,"No",0,70,11,100,28,9,0,30,30,"United States",1,0
"20161118-081135",103426,NA,1,"professor"," During my daily routine as a professor I would atempt to engage in thought-out and intelligent conversations with both my colleagues and students. I would try to help facilitate student success. Aside from my own studies, research and educating young minds, I would pursue hobbies that employ craftiness and also be relaxing. ","Botswana","True","HTML","False","Muskrat","False","Uranus","False",12,"True","India","True","Foot","False","Guy Fawkes","True","Bronze","True","Wave","True","Isotherms","False",21,"True","Chrysler","False",0,"False","Saturn","False","Mikhail Gorbachev","True","Radiation","False","Deep Blue","True","Continental Shelf","True","Fascist","True","Penicillin","True","Paul Cezanne","False","Colorado River","False","In the throat","True","Kazakhstan","False","Jupiter","True","Tchaikovsky","True","Air pressure","True","Keratin","True","Germany","False",20,"Bussiness","English","0","1st year","Social pyschology	","Cognitive Pyschology","To test the effectiveness of future tests",NA,NA,0,NA,"none",NA,NA,NA,NA,NA,17,1,56.6666666666667,58.6206896551724,"United States",1,0
"20161115-145551",103549,"Female",1,"professor","1. In my dailey life as a professor, I would be grading papers and making sure that my students were passing my class. I would also help them when they asked me for help.
2.Grading papers, talking to students, creating the class activities.
3.A happy and energetic professor.
4.Reading and being happy.","Zimbabwe","False","HTML","False","Beaver","False","Mars","False",12,"True","Pakistan","False","Arm","True","Guy Fawkes","True","Brass","False","Wave","True","Isotherms","False",20,"False","General Motors","True",180,"True","Mars","False","Mikhail Gorbachev","True","Temperature","False","Blue Knight","False","Continental Rise","False","Fascist","True","Penicillin","True","Salvador Dali","False","Rio Grande","True","In the throat","True","Siberia","True","Jupiter","True","Beethoven","False","Air pressure","True","Keratin","True","France","True",18,"social work","English","1","1st year","I cant remeber the names","I","To help with future studies",1,"A professor needs to have general based knowledge",1,"no idea","nope",1,45,10,75,22,16,0,53.3333333333333,53.3333333333333,"United States",1,0
"20161201-082011",103831,"male",1,"professor","teaching classes, going to meetings and helping students. The characteristics must be willing and helpful. hobbies would most likely include whatever subject I am teaching. Giving lectures about a specific subject to groups of students. ","Zimbabwe","False","Morse Code","False","Beaver","False","Pluto","False",8,"False","Pakistan","False","9","False","Sweeney Todd","False","Bronze","True","Iceberg","False","Cyclones","False",21,"True","Ford","False",360,"False","Saturn","False","Mikhail Gorbachev","True","In trees","True","Blue Knight","False","Continental Rise","False","Communist","False","Penicillin","True","Iron","True","Rio Grande","True","In the throat","True","Siberia","True","Jupiter","True","Beethoven","False","Wind speed","False","Lecithin","False","France","True",19,"ex science","English","0","2nd year","desk","desk","no idea",1,"no idea",0,NA,"no",0,60,9,75,15,11,0,36.6666666666667,36.6666666666667,"United States",1,0
"20161201-145105",103858,"Male",0,"soccer hooligan","In my daily life as a soccer hooligan, I spend most of my time at my job where I sit in front of a computer all day and participate in my favorite team's forums. I talk about who should be playing, which coachesw that should get fired. I go to all the games. I am a crazy guy who is frequently critisied on his drinking habits. i I do not have any hobbies as a soccer hooligan other than constantly annoying others with my common theme of soccer banter. I know the security officers at the games by name. ","Botswana","True","ASCII","True","Muskrat","False","Earth","True",12,"True","Phillipines","False","12","True","Sweeney Todd","False","Bronze","True","Pillar","False","Fronts","False",21,"True","Mitsubishi","False",180,"True","Venus","True","Alexander Popov","False","In trees","True","Deep Thought","False","Continental Shelf","True","Fascist","True","X Rays","False","Copper","False","Rio Grande","True","In the lungs","False","Kazakhstan","False","Jupiter","True","Beethoven","False","Air pressure","True","Elastin","False","France","True",18,"UNDECLARED","English","0","1st year","The writing task  was my favorite of the two tasks. It needed to be longer. ","This task seemed more difficult and less fun. ","no idea",0,NA,0,NA,"no",0,30,6,NA,21,16,0,53.3333333333333,53.3333333333333,"United States",1,0
"20161129-164951",103981,"Male",1,"professor","As a university professor, i try to make sure that i have the layout of the class before i go into the class, making sure i have each item to talk about at a seperate time and not getting to caught up on one topic, being able to manage time wisely. As a professor a typical activity that i would do would be just simply going home after being at class and working and researching what my next topic to my class will be. Being a nice and humble type of professor and also being that straight up type of professor that is straight to the point on somethings and a little bit more leanient on other things. Hobbie i would have would be collecting old cars and being able to work on them outside of my job and be able to keep them running.","Botswana","True","ASCII","True","Capybara","True","Mars","False",8,"False","Bangledesh","False","9","False","Robin Hood","False","Bronze","True","Iceberg","False","Isotherms","False",21,"True","General Motors","True",180,"True","Mercury","False","Mikhail Gorbachev","True","In deserts","False","Blue Knight","False","Continental Shelf","True","Communist","False","Stethoscope","False","Iron","True","Rio Rojo","False","In the throat","True","Ukraine","False","Saturn","False","Mozart","False","Air pressure","True","Keratin","True","France","True",19,"Biomedical Engineering","English","0","1st year",NA,"here","To give us the chance to think like a professor.",1,"I feel as if a professor knows the most about their subject but has a general knowing of other subjects that they may of had to have taken throughout their college career",0,NA,"NO",0,30,13,75,25,14,0,46.6666666666667,46.6666666666667,"United States",1,0
"20161129-162121",104065,"male",0,"soccer hooligan","Avid supporter of a soccer team. Yell and chant for the team. Talk trash to the other teams supporters. I'm very passionate for my team and for soccer. When chatting to other supporters of my team I'm friendly towards them but I'm very hostile to other teams supporters. On the day of a game I'm very anxious for the game to start. As a soccer hooligan I drink a lot during the game and more than likely spill my drink on other people. Since I love soccer so much I play it a lot when I have time. I'd probably get in trouble with the security at a soccer match because I am a hooligan. ","Zimbabwe","False","HTML","False","Beaver","False","Earth","True",12,"True","Bangledesh","False","12","True","Guy Fawkes","True","Solder","False","Wave","True","Isotherms","False",21,"True","Ford","False",180,"True","Mars","False","Mikhail Gorbachev","True","Underground","False","Blue Knight","False","Continental Abyss","False","Communist","False","Penicillin","True","Brass","False","Rio Grande","True","In the throat","True","Siberia","True","Jupiter","True","Beethoven","False","Wind speed","False","Collagen","False","Spain","False",18,"Information Technology","English","0","1st year","developmental","cognitive","to develop ideas for future testing",1,"no idea",0,NA,"no",1,70,20,85,28,13,0,43.3333333333333,43.3333333333333,"United States",1,0
"20161129-173610",104305,"Femal",1,"professor","As a professor, my days, mostly, would consist of grading homework assignments, preparing for lectures, and teaching the students in my class. I consider myself to be organized when it comes to grading, assigning and teaching. I am friendly with my students so they can feel as though they are in a safe atmosphere to speak their minds respectfully and ask questions without fear. I do my best to make the class time interesting to keep the students engaged in the material they need to learn. As a professor, I am of course passionate about the material I teach and educating others about what I learned; and, I do plenty of research related to the topic that I teach in order to better educate myself and to become an even better teacher for future students who take my class. ","Zimbabwe","False","HTML","False","Capybara","True","Uranus","False",15,"False","India","True","11","False","Sweeney Todd","False","Bronze","True","Wave","True","Fronts","False",21,"True","General Motors","True",180,"True","Venus","True","Nikita Krushchev","False","Underground","False","Blue Knight","False","Continental Shelf","True","Fascist","True","Penicillin","True","Iron","True","Rio Grande","True","In the throat","True","Siberia","True","Jupiter","True","Mozart","False","Relative humidity","False","Keratin","True","France","True",18,"Undeclared","English","1","1st year","Psychology	","Social psychology","No idea",0,NA,0,NA,"no",0,NA,9,78,29,18,0,60,60,"United States",1,0
"20161122-141848",104362,"Female",0,"soccer hooligan","I love soccer. Everything I do is about soccer. Every night I go over to my buds place and we watch the big game that night and drink beer. I am constantly checking my social media on who is winning and stats of a game. My passionsare playing soccer and going to my favorite teams games. I have season tickets.  I am super loud and annoying when I watch soccer, but i really do not care because the game is my life. I am strong headed and hate losing, and get really angry when my favorite team loses, or if i lose a bet.    ","Zimbabwe","False","Morse Code","False","Capybara","True","Mars","False",12,"True","India","True","9","False","Robin Hood","False","Brass","False","Wave","True","Isobars","True",21,"True","Chrysler","False",180,"True","Venus","True","Nikita Krushchev","False","Underground","False","Blue Knight","False","Continental Shelf","True","Fascist","True","Penicillin","True","Iron","True","Rio Grande","True","In the throat","True","Siberia","True","Jupiter","True","Beethoven","False","Wind speed","False","Collagen","False","France","True",20,"Nursing","English","1","3rd year","do not remember","cognitive","no idea
",0,NA,0,NA,"no",0,30,10,66,27,17,0,56.6666666666667,56.6666666666667,"United States",1,0
"20161201-115320",104608,"female",0,"soccer hooligan","if i was a soccer holigan my hobbies would be going out, partying mainly just having fun. my daily life would be me just worrying about myself and doing what i want to do and watching sports.  ","Zimbabwe","False","ASCII","True","Capybara","True","Uranus","False",12,"True","India","True","12","True","Dick Turpin","False","Brass","False","Mountain","False","Isotherms","False",25,"False","Mitsubishi","False",180,"True","Mars","False","Nikita Krushchev","False","Underground","False","Deep Blue","True","Continental Slope","False","Communist","False","X Rays","False","Bronze","True","Rio Grande","True","In the throat","True","Ukraine","False","Jupiter","True","Beethoven","False","Wind speed","False","Keratin","True","Greece","False",18,"undeclared","English","1","1st year","cognitive","pyschological","no idea",0,NA,0,NA,"no",0,45,19,66,18,12,0,40,40,"United States",1,0
"20161128-131818",104626,"Male",1,"professor","I spend my daily life furthuring the education of my students. During my off time i research different facts to further my knowledge, that will in the end, help my students.Although i am a professor, i still have the same personality and attributes as any other peron. On the weekends, i use my off time spending quality time with my wife and kids. With my children i play sports, such as football, baseball, and swimming. On top of that i take the time to share Jesus with them, so they will know their worth.","Uganda","False","Morse Code","False","Muskrat","False","Earth","True",12,"True","India","True","15","False","Robin Hood","False","Bronze","True","Wave","True","Fronts","False",21,"True","Mitsubishi","False",360,"False","Saturn","False","Mikhail Gorbachev","True","Underground","False","Blue Knight","False","Continental Slope","False","Communist","False","X Rays","False","Bronze","True","Colorado River","False","In the throat","True","Ukraine","False","Mars","False","Mozart","False","Relative humidity","False","Keratin","True","Spain","False",18,"Art","English","0","1st year","Describe your everyday life as a college professor, whom has his doctorite.","Task of seeing what i know about the world around me.","It seems like i was tested on how imaginative i am based on my knbowledge and experiences in Life.",1,"How much knowledge you have about the world and how creative that makes your mind.",0,NA,"No",0,35,6,80,22,10,0,33.3333333333333,33.3333333333333,"United States",1,0
"20161117-132315",104758,"Male",0,"soccer-hooligan","Daily life I wake up and pour me shum Guinness Dark Lager and head out and shee if I can find where I parked my car 'cause I'm damn sure I was drunk when I parked it! I like to go out to the ole' pub down at Shaunessy's playce and have some brews with me pre-game mates. I enjoy getting blitzed on shaturdaysh andusually I take the resht of the week off and only get half-blitzed, Jaysus don't like it when you're hammered all the time. My passions are cheering for Mans United and watching Lionel Messi getting his shit kicked in ","Botswana","True","ASCII","True","Capybara","True","Earth","True",6,"False","India","True","Arm","True","Guy Fawkes","True","Bronze","True","Wave","True","Isobars","True",21,"True","Mitsubishi","False",180,"True","Mercury","False","Boris Yeltsin","False","Radiation","True","Deep Blue","True","Continental Shelf","True","Fascist","True","X Rays","False","Paul Cezanne","False","Colorado River","False","In the throat","True","Siberia","True","Jupiter","True","Tchaikovsky","True","Air pressure","True","Keratin","True","France","True",20,"Computer Science: Information Technology
","English","0","3rd year","Social task","Cognitive Task","To measure the creativity and love withheld by each individual student at this wonderful University. I'm sorry if this answer means this isn't useable data. Wow I'm communicating with you directly through the survey indirectly...whoooaa...thats pretty meta bro",1,"because I am a soccer hooligan doesn't mean I don't know general knowledge",0,NA,"nope. But I do have a fun little anecdote. Once an Indian (Native American kind, not the sacred cows kind) drank so much tea, when he went to bed that night he drowned in his tee pee :) lol",1,50,15,50,15,23,0,76.6666666666667,76.6666666666667,"United States",1,0
"20161130-131849",104884,"Male",1,"professor","As a university I will spend much of my time preparing for the day ahead. I would be preparing lesson plans, grading homework, coming up with new assignments, and figuring out ways to trump my students to make them think. When im not in ""teacher"" mode I would be spending time with other students building social bonds with those I work with. I would also be spending time with my family and outside of work friends. I am quite a loving individual who love spending time at work because I get to enrich the minds of those around. I also enjoy spending time with my loved ones. I am a pretty easy go guy until you make me mad. I enjoy the finer things in life but would never put them over my integrity. ","Zimbabwe","False","HTML","False","Muskrat","False","Earth","True",12,"True","Bangledesh","False","12","True","Guy Fawkes","True","Brass","False","Wave","True","Isobars","True",21,"True","Chrysler","False",180,"True","Venus","True","Mikhail Gorbachev","True","Underground","False","Blue Knight","False","Continental Abyss","False","Communist","False","Penicillin","True","Copper","False","Rio Grande","True","In the throat","True","Siberia","True","Jupiter","True","Mozart","False","Air pressure","True","Lecithin","False","France","True",23,"Radio Tv Film","English","0","4th year or higher","IDK","IDK","test knowledge",1,"if you think like one, you could have more confience with the questions.",1,"I honestly knew just a few but I felt like I knew more after the first set of questions.","NO
",1,50,10,75,23,17,0,56.6666666666667,56.6666666666667,"United States",1,0
"20161117-102553",104920,"Female ",1,"professor","A university professor is someone who would be a highly repected and knowlegdable person. It is expected for the university professor to be well educated, has an above average level of IQ as well as EQ and has a personality that works well with their fellow students. During their free time, they would be busy grading students' papers, making and creating tests, exams presentation","Zaire","False","HTML","False","Muskrat","False","Pluto","False",12,"True","India","True","Neck","False","Sweeney Todd","False","Bronze","True","Wave","True","Isotherms","False",21,"True","Ford","False",180,"True","Venus","True","Alexander Popov","False","Radiation","True","Blue Knight","False","Continental Shelf","True","Fascist","True","Penicillin","True","Pablo Picasso","True","Rio Grande","True","In the throat","True","Ukraine","False","Jupiter","True","Handel","False","Air temperature","False","Keratin","True","France","True",18,"Sports Management","English","1","1st year","Social Psychology ","Cognitive Psychology","no idea ",1,"Level of knowlege ",0,NA,"no",1,24,4,78,19,17,0,56.6666666666667,56.6666666666667,"United States",1,0
"20161130-171120",105073,"Male",0,"soccer hooligan","During the day, I await the next game so I can party all night with my close friends. When I party, I like to drink until I pass out, give people the business, and fight. I love hanging out with the bros, watching my favorite team win, and party all night when they do. There is nothing better than partying during a good game.   
  ","Botswana","True","ASCII","True","Capybara","True","Earth","True",12,"True","Bangledesh","False","15","False","Guy Fawkes","True","Bronze","True","Wave","True","Isobars","True",21,"True","Chrysler","False",90,"False","Venus","True","Nikita Krushchev","False","In trees","True","Deep Blue","True","Continental Shelf","True","Fascist","True","Penicillin","True","Iron","True","Rio Grande","True","In the throat","True","Siberia","True","Saturn","False","Tchaikovsky","True","Air pressure","True","Keratin","True","France","True",23,"Exercise Science
","English","0","3rd year","Social psychology","psychology","no idea
",0,NA,0,NA,"no",1,50,10,80,25,24,0,80,80,"United States",1,0
"20161122-091555",105112,"Male",0,"soccer hooligan","Iwhat i am doing everyday as a soccer hooligan is playing soccer.
my typical activities as a soocer hooligin is learning new soccer tricks.
im usually rude to others.
My hobbies are doing stuff with my friends and learning new soccer tricks that way i will be as good as renaldo.","Uganda","False","HTML","False","Coypu","False","Earth","True",8,"False","Pakistan","False","12","True","Sweeney Todd","False","Bronze","True","Wave","True","Isobars","True",21,"True","Ford","False",180,"True","Venus","True","Mikhail Gorbachev","True","Underground","False","Deep Blue","True","Continental Slope","False","Communist","False","Stethoscope","False","Iron","True","Rio Rojo","False","In the throat","True","Belarus","False","Mars","False","Beethoven","False","Relative humidity","False","Lecithin","False","Greece","False",19,"undecleared","English","0","1st year","soccer hooligin","piolet test task","to experiment",1,"no idea",0,NA,"no",0,50,15,50,21,12,0,40,40,"United States",1,0
"20161128-153218",105211,"female",0,"soccer hooligan","on a day to day basis i hang out with my friends, work out , pratice with my soccer ball. My personaility is arrogant stuck up and  i have great confidence when it comes to aletisim . i like to go to local bars and clubs i like cheese fires. im a B averagarge student. i dont commit to having a realationship.i like girls i like to have fun i listen to modern pop and rock . i drink gatorade and poweraid to stay hydrated i eat alot of carbs i have long legs ","Zimbabwe","False","HTML","False","Muskrat","False","Uranus","False",6,"False","Bangledesh","False","9","False","Sweeney Todd","False","Brass","False","Iceberg","False","Isotherms","False",25,"False","Mitsubishi","False",180,"True","Venus","True","Boris Yeltsin","False","In trees","True","Blue Knight","False","Continental Rise","False","Democracy","False","Penicillin","True","Copper","False","Rio Lobos","False","In the throat","True","Ukraine","False","Jupiter","True","Mozart","False","Air pressure","True","Keratin","True","France","True",19,"undeclared","English","1","1st year","Dont know","Dont know","no idea",0,NA,0,NA,"no",0,50,15,50,3,9,0,30,30,"United States",1,0
"20170331-115200",105229,"Female",1,"professor","I am a professor at East Tennessee State University. A day in my shoes consist of waking up from a good nights rest, starting my morning off with coffee, gathering my lesson plans for the day that i went over the night before, and heading to campus. After teaching 2 classes, i usually go for lunch with a few colleges. Following that, i head to the sherrod library to do tutoring with a few students. I tutor 3 out of the 5 days a week, and have 2 classes everyday of the week. My personality as a professor is that i try to be as upbeat and excited about the material as possible, that way the students will also be more enthusisastic as well. As far as hobbies go","Uganda","False","ASCII","True","Capybara","True","Earth","True",15,"False","Pakistan","False","12","True","Sweeney Todd","False","Bronze","True","Wave","True","Isobars","True",21,"True","Chrysler","False",360,"False","Mercury","False","Nikita Krushchev","False","Underground","False","Blue Knight","False","Continental Slope","False","Democracy","False","0","False","Brass","False","Colorado River","False","In the nose","False","Ukraine","False","Jupiter","True","Mozart","False","Air pressure","True","Keratin","True","Greece","False",19,"criminal justice","English","1","2nd year","To imahgine myself as a professor for a social pschologist .","To answer questions that were on a scale from 1 to 5","to help social pychologist collect data for further experiments",0,NA,0,NA,"no",1,40,15,85,22,11,1,36.6666666666667,37.9310344827586,"United States",1,0
"20161128-122209",105247,"Female",0,"soccer hooligan","I work a blue collar job, live in a small apartment with a roommate, go to the bars at night and watch soccer on tv during the day. I am a little outspoken in my daily life but not at work. My hobbies include chilling with freinds, drinking beer, playing video games, and obviously watching soccer. I sometimes like to travel but only to see other soccer games, I'm not much of a tourist. I am also not married but I am dating. I like to go to games with my friends and drink beer and egt rowdy. ","Botswana","True","HTML","False","Capybara","True","Mars","False",8,"False","Bangledesh","False","15","False","Dick Turpin","False","Brass","False","Wave","True","Fronts","False",21,"True","Chrysler","False",180,"True","Mars","False","Mikhail Gorbachev","True","In trees","True","Deep Blue","True","Continental Shelf","True","Fascist","True","Penicillin","True","Iron","True","Colorado River","False","In the throat","True","Siberia","True","Jupiter","True","Tchaikovsky","True","Air pressure","True","Keratin","True","France","True",20,"Digital Media","English","1","3rd year","Social","Cognitive","no idea",1,"no idea",0,NA,"nope",0,50,14,65,20,19,0,63.3333333333333,63.3333333333333,"United States",1,0
"20170210-104754",105262,"Female",0,"soccer hooligan","Today was a crazy day. I woke up with an extreme hangover, as I was out partying and drinking with my friends until 5 this morning. I don't really have a stable job and I live with my parents. I usually try not to drink in the mornings, but my buddies invited me to the bar to watch soccer. I was going to practice my guitar, but I decided to go drinking (again). I ended up getting drunk... again. The game was close and I ended up getting into a fight with some dude who was cheering for the other team (they suck). I don't really do much besides watch soccer, drink, and pick up chicks wheneber I can. Oh well. It's whatever. ","Botswana","True","HTML","False","Capybara","True","Earth","True",6,"False","India","True","12","True","Guy Fawkes","True","Bronze","True","Iceberg","False","Isobars","True",21,"True","Ford","False",180,"True","Venus","True","Nikita Krushchev","False","In trees","True","Blue Knight","False","Continental Shelf","True","Democracy","False","Stethoscope","False","Iron","True","Colorado River","False","In the throat","True","Kazakhstan","False","Jupiter","True","Tchaikovsky","True","Air pressure","True","Keratin","True","France","True",19,"Psychology","English","1","1st year","I don't know. ","I don't know. ","Task1: experimenting with sterotypes?
task 2: general knowledge",0,NA,0,NA,"No.",1,43,7,84,20,20,0,66.6666666666667,66.6666666666667,"United States",1,0
"20161129-094759",105298,"female",1,"professor","As an university professor i hold a doctorate in my feild of study. I conduct experiments and research through the university. my findings will be recorded so tyat i can write a book on my topic of study. i also aid in the peer edit of text books wriiten by fellow professors in my feild. as a professor i like to believe that i am hard working and dedicated in all aspects of my life. i enjoy readind all genres of books but also i enjoy having fun. my favorite aspect of teaching is enlightening youths with my knowledge an wisdom i hold on my specific subject matter. ","Uganda","False","Morse Code","False","Muskrat","False","Uranus","False",12,"True","Phillipines","False","9","False","Guy Fawkes","True","Brass","False","Iceberg","False","Isobars","True",21,"True","Chrysler","False",180,"True","Venus","True","Boris Yeltsin","False","In trees","True","Blue Knight","False","Continental Slope","False","Republic","False","Penicillin","True","Iron","True","Rio Lobos","False","In the throat","True","Siberia","True","Jupiter","True","Tchaikovsky","True","Air pressure","True","Keratin","True","France","True",18,"Criminal Justice","English","1","1st year","idk","cognitive","the retaining of information in youths",1,"thought process",0,NA,"nah fam",0,45,7,61,22,16,0,53.3333333333333,53.3333333333333,"United States",1,0
"20170125-091508",105727,"female",1,"professor","I spend much of my time grading papers. I have a family, a husband and a daughter. I give 5 lectures a week and have my office hours available for my students. I am very knowledgeable and I care about the next generation. I enjoy conducting experiments and learning new information about psychology, as that is my passion. My hobbies include people watching. I also enjoy watching WWYD, for some laughs and deep thought. I spend a lot of my time creating powerpoints that I feel my students will enjoy. I want to create an environment that students want to be in. I try to make the lectures and information I give them relative to their college life. If not, they may not enjoy the class, which means they may not reap as many benefits from it as are possible. ","Zaire","False","HTML","False","Muskrat","False","Pluto","False",12,"True","Bangledesh","False","15","False","Guy Fawkes","True","Brass","False","Wave","True","Isotherms","False",21,"True","Ford","False",180,"True","Venus","True","Alexander Popov","False","Underground","False","Deep Blue","True","Continental Slope","False","Democracy","False","X Rays","False","Brass","False","Rio Grande","True","In the throat","True","Siberia","True","Jupiter","True","Beethoven","False","Wind speed","False","Keratin","True","France","True",19,"Interdisciplinary Studies K-6","English","1","2nd year","social psych	","cognitive psych","no idea",0,NA,0,NA,"no",0,35,15,67,18,13,0,43.3333333333333,43.3333333333333,"United States",1,0
"20170125-105234",105745,"male",0,"soccer hooligan","My daily life as soccer hooligan is to get an early start around noon, i wake up and start the day with a big breakfast and a beer to combat the previos nights hangover. I hit the gym a few hours later after a good rest. I work out with my buddies and grab some food after. Tonight there is a big game and me and my boys arfe gonna go out and grab some brews before to pre-game. Tonight is a big game so we are gonna get hammered, no ladies tonight for me. After getting a good buzz we are gonna go to the game in person. ","Uganda","False","HTML","False","Capybara","True","Mars","False",6,"False","Bangledesh","False","12","True","Guy Fawkes","True","Pewter","False","Wave","True","Isobars","True",21,"True","General Motors","True",90,"False","Mars","False","Boris Yeltsin","False","Underground","False","Deep Blue","True","Continental Abyss","False","Fascist","True","Penicillin","True","Iron","True","Colorado River","False","In the throat","True","Siberia","True","Jupiter","True","Handel","False","Air pressure","True","Keratin","True","France","True",24,"Biology","English","0","2nd year","On a Computer in Roger Stout Rm 329C","On a computer in Roger Stout Rm 329C","The first task was to view an individuals perspective of how they view a disruptive person and put them into that mind set, while the second task was to ask general knowledge questions that did not pertain to anything inparticular",1,"To change a person's thoughts drastically",0,NA,NA,1,30,10,65,20,17,0,56.6666666666667,56.6666666666667,"United States",1,0
"20170124-131747",105985,"male",0,"soccer hooligan","I go to class just because I'm supposed to.  I really have no interest in putting forth any effort in my college classes aside from just enough to coast by.  I eat on my meal plan at school and live in a dorm on campus, and most of my free time is spent with my friends from my team.  I'm rash in most of my decisions and speak before I think most of the time.  My parents always said I had a weak filter.  I'm not sure what career path I want to take, but I'm majoring in Business.  I do my best to make it to every soccer game I can and usually pre-game with my brothers in the parking lot.  Messing with the referees and opposing players is half the fun of attending the games, and celebrating a game is always a good excuse to drink more afterwards.  Worse case scenario, we can still party some to take our minds off a loss.  Games make for a good opportunity to hang out with any girls I meet too.
","Botswana","True","HTML","False","Capybara","True","Uranus","False",12,"True","Pakistan","False","12","True","Robin Hood","False","Bronze","True","Wave","True","Isobars","True",21,"True","Chrysler","False",180,"True","Venus","True","Mikhail Gorbachev","True","In trees","True","Deep Blue","True","Continental Shelf","True","Republic","False","Penicillin","True","Iron","True","Colorado River","False","In the throat","True","Siberia","True","Jupiter","True","Beethoven","False","Air pressure","True","Collagen","False","France","True",18,"Health Sciences (MIcrobiology Concentration)","English","0","1st year","I don't remember	","I don't remember","To give an insight into what people think of certain stereotypes of people and to guage the general knowledge of a student.",1,"Perhaps those with a broader knowledge of the world in general will be less likely to pin certain characteristics on a stereotype.",0,NA,"The writing topic was fairly entertaining, if a little trivial, to think about.  I feel like my personal judgements may have played a role in my perspective on the ""hooligans.""",1,43,11,83,20,21,0,70,70,"United States",1,0
"20170124-125322",106114,"Male",1,"professor","I am busy preparing for lectures and helping students with material.  I am also making tests and absorbing material to cover in upcoming lectures to better prepare my students.  My activities include lectures, preparing for lectures, and spending time working in my office where i meet with students.  My personalitiy attributes include determined, focused, and experience of being a leader.  My hobbies are learing new material and working on reaearch and labs.           ","Uganda","False","Wordpad","False","Beaver","False","Pluto","False",12,"True","Bangledesh","False","12","True","Dick Turpin","False","Bronze","True","Wave","True","Fronts","False",21,"True","General Motors","True",360,"False","Mercury","False","Alexander Popov","False","Underground","False","King Blue","False","Continental Rise","False","Republic","False","Penicillin","True","Bronze","True","Rio Grande","True","In the throat","True","Ukraine","False","Jupiter","True","Beethoven","False","Air pressure","True","Keratin","True","Greece","False",19,"Health Science","English","0","1st year","I describe my day to day job as a professor. ","I answered multiple choice questions on random trivia.","To measure my knowledge and writing abilities.",1,"The professors field of study.
",1,"I tried to think like a professor and not a student.","No",0,42,11,97,28,13,0,43.3333333333333,43.3333333333333,"United States",1,0
"20170127-154258",1061167,"Male",1,"professor","As a University Proffesor, I try and prioritize ensuring that my students accuratley understand the content of the material i am instructing them with. I will take time out of my day to answer emails and encourage my students to use my office hours whenever they feel the need to. I make great and lasting friendships with my collegues and try and find out which projects or what research they are doing, as it is helpful to be close with your coworkers. I enjoy reading and staying active with outdoor activities such as hiking, fishing, and biking. I enjoy taking vacations when I can, and will frequently watch movies with my wife. I try and expand my knowledge in my field, and if a students asks a question that I do not know, I will try my best to find the answer and report back to them. I always learn more a","Botswana","True","ASCII","True","Capybara","True","Earth","True",8,"False","Bangledesh","False","12","True","Guy Fawkes","True","Brass","False","Wave","True","Fronts","False",21,"True","Chrysler","False",360,"False","Venus","True","Mikhail Gorbachev","True","Underground","False","Blue Knight","False","Continental Shelf","True","Fascist","True","Penicillin","True","Iron","True","Rio Grande","True","In the throat","True","Siberia","True","Jupiter","True","Tchaikovsky","True","Air pressure","True","Keratin","True","France","True",18,"Computer Science","English","0","1st year","Clinical Psychology","Developmental Psychology","To get a grasp on the thought processess of students",1,"Students who are more knowledgable may be mor inclined to think like a professor",0,NA,"None",1,45,13,68,25,22,0,73.3333333333333,73.3333333333333,"United States",1,0
"20170127-105748",106231,"Female",1,"professor","As a university professor, reading almost any material that would be deemed necessary to my field of study, would be an essential aspect to my daily life. having an inquisitive mind and questioning anything that I might consider interesting would be something that I do on the regular. I would attend events that might help me teach students or further my understanding of the subject that I teach or research. Along with enjoying conversations with students or fellow scholars of my specific subject, I would feel the need to interact in debates on various subjects and actually listen intently to someone who might have some interesting information on the subject, or even someone who would have questions on the subject. Having an open mind and an understanding of diversity is essential to my daily life. Every student or peer is to be given equal opportunity to learn.","Zimbabwe","False","HTML","False","Beaver","False","Mars","False",12,"True","India","True","9","False","Guy Fawkes","True","Solder","False","Wave","True","Fronts","False",21,"True","General Motors","True",180,"True","Mars","False","Mikhail Gorbachev","True","In deserts","False","Blue Knight","False","Continental Shelf","True","Fascist","True","X Rays","False","Iron","True","Rio Grande","True","In the throat","True","Siberia","True","Jupiter","True","Tchaikovsky","True","Air pressure","True","Keratin","True","Greece","False",20,"journalism","Afrikaans","1","3rd year","Understanding the life of a professional	","Simply answer somequestions","To help set up future surveys",1,"What could one learn from either",1,"I almost felt as though I was trying to impress my inner-professor","No",1,22,3,71,19,18,0,60,60,"United States",1,0
"20170331-105637",106279,"Male",0,"soccer hooligan","My average day consists of waking up, most likely hung over, and then going to a job that I do not care about very much. The whole day I think of nothing but what bar I will go to that night or a big game coming up tonight. I may even just watch soccer games on my phone or computer during work. Immediately after work I will go home and change into my team jersey and hit the bar with my friends. We will get drunk like we do almost every night and be loud at the bar until the match concludes. Then we will stumble home, maybe destroying things or bothering people along the way. My personality traits include irresponsiblity and lack of motivation. My hobbies include drinking, watching sports, maybe playing sports video games.","Uganda","False","ASCII","True","Capybara","True","Mars","False",8,"False","Phillipines","False","12","True","Guy Fawkes","True","Bronze","True","Iceberg","False","Isobars","True",21,"True","General Motors","True",180,"True","Mars","False","Mikhail Gorbachev","True","In trees","True","Deep Blue","True","Continental Shelf","True","Fascist","True","Penicillin","True","Copper","False","Colorado River","False","In the throat","True","Siberia","True","Jupiter","True","Tchaikovsky","True","Air pressure","True","Keratin","True","France","True",19,"Computer Science","English","0","1st year","Social Psychology","Cognitive Psychology","To determine whether there is a correlation between personality and problem solving skills.",1,"How you view a soccer hooligan may determine your personality type which may in turn, influence your knowledge or problem solving skills.",0,NA,"No.",0,38,8,90,20,22,0,73.3333333333333,73.3333333333333,"United States",1,0
"20170217-115302",106294,"female",0,"soccer hooligan","I like to met my friends at the local bar after practice. We like to drink and watch the game on tv.On a typical day my team and i don't have many problems with others but if they try and mess with us, we won't hesitate to jump. Soccer is my whole life, eat breathe and live it. In my free time i am practicing drills and endurance training. 
       Some times when we are drunk we go outside to people watch and make comments about those who walk by. what you may find offensive, i fin dh","Botswana","True","ASCII","True","Capybara","True","Uranus","False",8,"False","India","True","12","True","Guy Fawkes","True","Brass","False","Iceberg","False","Isotherms","False",21,"True","General Motors","True",180,"True","Venus","True","Nikita Krushchev","False","In trees","True","King Blue","False","Continental Shelf","True","Communist","False","Penicillin","True","Bronze","True","Rio Grande","True","In the throat","True","Ukraine","False","Jupiter","True","Tchaikovsky","True","Air pressure","True","Keratin","True","France","True",19,"nursing","English","1","1st year","social psychology","i don't know","to help a student conduct experiments",1,"character vs. intelligence",1,"i was too busy thinking aboout a different personalitiy to focus on the other answers","no",0,45,13,71,18,21,0,70,70,"United States",1,0
"20170201-082042",106318,"male",1,"professor","As a university professor I would teach history in various forms to classes everyday. I would probably do my work in the day, and hold leisure time in the evening. I would be the bright and early type of professor that would have classes EARLY in the morning. I would be a fun professor during my lectures because it would generally help my students overall. Although, I would be serious with my test and assigments. Also I would prefer teaching small room classes. ","Zimbabwe","False","HTML","False","Muskrat","False","Uranus","False",12,"True","Phillipines","False","12","True","Guy Fawkes","True","Bronze","True","Wave","True","Isobars","True",21,"True","Mitsubishi","False",180,"True","Mars","False","Mikhail Gorbachev","True","In rivers","False","King Blue","False","Continental Shelf","True","Fascist","True","Penicillin","True","Copper","False","Rio Grande","True","In the throat","True","Siberia","True","Jupiter","True","Handel","False","Wind speed","False","Elastin","False","France","True",20,"Human Services","English","0","2nd year","Tristen Peters","Tristen Peters","To gain an insight on a student's prespective",1,"To test the capabilty of the professor",0,NA,"no",0,30,8,75,17,17,0,56.6666666666667,56.6666666666667,"United States",1,0
"20170331-091933",106357,"male",1,"professor","I will be making researchs as a professor for new ideas.  Initial activities that I do as a professor is to keep up with my academic work, and also make sure to keep my brain active by studying to know more.Personality characters i would have is to be able to interact and socialize with more people for new ideas. I will read as much as i can","Zimbabwe","False","HTML","False","Beaver","False","Earth","True",12,"True","Pakistan","False","12","True","Robin Hood","False","Brass","False","Wave","True","Fronts","False",25,"False","General Motors","True",360,"False","Venus","True","Alexander Popov","False","Underground","False","Blue Knight","False","Continental Slope","False","Fascist","True","Stethoscope","False","Bronze","True","Rio Grande","True","In the lungs","False","Ukraine","False","Jupiter","True","Mozart","False","Air pressure","True","Collagen","False","Greece","False",19,"Pre-Nursing","Twi","0","1st year","Being a University Professor","A list of random questions from all aspects of life","no idea",1,"General knowledge",0,NA,"no",0,53,11,80,26,11,0,36.6666666666667,36.6666666666667,"United States",1,0
"20170208-121546",106378,"female",0,"soccer hooligan","I am practicing religiously to maintain my endurance and improve my skills for the game, I am always around my friends doing whatever they tell me. I am one with the group. Activities I do as a soccer hooligan include: not keeping my grades to the full potential they could be and doing the bare minmum of which I can get by with. I'm extremely confident and have the mindset that I am the best player on the field and no one is in competition. My passion is soccer, it would be my entirety. If someone said something not pertaining to soccer I would ignore it and have no interest in it. I would always put my feelings above anyone elses.If it wasn't pertaining to soccer it wouldn't matter to me. ","Uganda","False","HTML","False","Muskrat","False","Mars","False",12,"True","Bangledesh","False","12","True","Sweeney Todd","False","Brass","False","Pillar","False","Isotherms","False",21,"True","General Motors","True",180,"True","Venus","True","Boris Yeltsin","False","Underground","False","Blue Knight","False","Continental Shelf","True","Fascist","True","Penicillin","True","Copper","False","Colorado River","False","In the throat","True","Siberia","True","Neptune","False","Tchaikovsky","True","Air pressure","True","Keratin","True","Germany","False",19,"nursing ","English","1","1st year","social psychology","cognitive psychology","no idea",1,"the more creative, the more random knowledge you should know",0,NA,"Will I see my results?",0,58,19,78,17,14,0,46.6666666666667,46.6666666666667,"United States",1,0
"20170203-162239",106402,"female",0,"soccer hooligan","I enjoy playing soccer with all of my friends on the weekends and all of us hanging out afterwards. We ussually will hit up some bars and drink away the night. We are a very loud group of people but I always seem to have a good time when I am with them. Even though I go out with my friends regularly, I still keep in shape because of the soccer as well as helping me stay focused. We have all grwon up playing soccer and can't seem to stop. ","Botswana","True","ASCII","True","Capybara","True","Earth","True",12,"True","Bangledesh","False","12","True","Guy Fawkes","True","Brass","False","Wave","True","Isotherms","False",21,"True","Chrysler","False",180,"True","Venus","True","Nikita Krushchev","False","In trees","True","Deep Thought","False","Continental Slope","False","Communist","False","Penicillin","True","Copper","False","Colorado River","False","In the throat","True","Ukraine","False","Jupiter","True","Beethoven","False","Air pressure","True","Keratin","True","Greece","False",18,"NURSING","English","1","1st year","DON'T KNOW","DON'T KNOW","NO IDEA",1,"NO IDEA",0,NA,"NO",1,39,8,80,18,17,0,56.6666666666667,56.6666666666667,"United States",1,0
"20170208-132632",106483,"male",0,"soccer hooligan","As a soccer hooligan I will be watching soccer when i wake up in the morning and when i go to bed to put me to sleep. After my morning soccer game watch i will take a few shots of yager and redbull and get ready to terrorize my wife and kids with my soccer hooligan antics. People say i am not nice but i disagree, unless you are a Messi fan instead of Ronaldo in that case fuck off. I am a very social fella. Pubs are my go to place. Nothing better than drinking ale with my buddies and then fighting one later that night. My goal in life? To become a offcial ambassador to a soccer team. Drake is ambassador of a basketball team why can't I be one for soccer. When it comes to me though, a good ole game of soccer, an ale, and an arguement is what fuels my life.","Uganda","False","HTML","False","Capybara","True","Earth","True",8,"False","India","True","9","False","Guy Fawkes","True","Brass","False","Wave","True","Isobars","True",21,"True","Chrysler","False",90,"False","Venus","True","Mikhail Gorbachev","True","Underground","False","Blue Knight","False","Continental Abyss","False","Fascist","True","Penicillin","True","Copper","False","Colorado River","False","In the throat","True","Siberia","True","Jupiter","True","Beethoven","False","Relative humidity","False","Keratin","True","France","True",20,"BIOLOGY","English","0","1st year","Social","Cognitive",NA,0,NA,0,NA,"no",0,50,15,65,25,16,0,53.3333333333333,53.3333333333333,"United States",1,0
"20170216-095525",106606,"male",0,"soccer hooligan","I always am checking up on soccer scores, telling my friends about how their teams aren't good at all compared with mine. I do enjoy getting tipsy, and in doing so, I become an even bigger fan. Although, sometimes I drink too much and will fight people who think that themselves or their team is better than mine(how dare they!). I sometimes break the windshields of people that act like this as well, if I'm not in a fighting mood. I am obsessed with my team being the best. I know our entire roster (even the guys who never leave the bench). I get painted up before games while I pregame(or drink heavily) to make things exciting. Life is exciting when I do all of this. I've yet to have been arrested, because I'm faster than anyone who could ever want to catch me. ","Zaire","False","ASCII","True","Capybara","True","Earth","True",12,"True","Phillipines","False","12","True","Sweeney Todd","False","Bronze","True","Iceberg","False","Isobars","True",21,"True","Ford","False",180,"True","Venus","True","Mikhail Gorbachev","True","In trees","True","Blue Knight","False","Continental Abyss","False","Fascist","True","Penicillin","True","Iron","True","Colorado River","False","In the throat","True","Siberia","True","Jupiter","True","Tchaikovsky","True","Relative humidity","False","Keratin","True","France","True",19,"Geography","English","0","1st year","At a computer desk","At a computer desk","Probably to see if ""becoming"" a different person would have an effect on how the questions were answered",1,"Well it depends on how much a person really ""becomes"" the character. If they place great emphasis upon it, they may start thinking much like the character would, and they could perhaps not answer the questions as well as they normally could.",1,"Just a bit. It took me a second to sort of transition out of that character and back into myself. ","No",0,38,6,97,25,21,0,70,70,"United States",1,0
"20170217-152021",106615,"female",0,"soccer hooligan","In my daily life as a soccer hooligan I sleep in and keep a messy environment with little personal hygiene because you dont need to shower regularly to watch sports games. My crew spends our days drinking excessively and watching the game. We don't generally have jobs because our parents can afford to support us. We have jerseys from oru favorite players and teams and we know all the best bars to go to for pregame celebrations and post game parties. During the world cup, we skip class and spend all day partying to celebrate.Some of us hold part time jobs, but in general we dont need employment to enjoy soccer. When we do go out, we hit on any female that we want and if her boyfriend has a problem with it then he can blow us because our crew goes hard. Sometimes old people give us crap and we tel them to shove it because we're more ath","Zaire","False","ASCII","True","Capybara","True","Mars","False",12,"True","Phillipines","False","9","False","Guy Fawkes","True","Bronze","True","Wave","True","Isobars","True",21,"True","Mitsubishi","False",180,"True","Venus","True","Mikhail Gorbachev","True","In trees","True","Deep Blue","True","Continental Shelf","True","Fascist","True","X Rays","False","Iron","True","Colorado River","False","In the throat","True","Siberia","True","Jupiter","True","Handel","False","Air pressure","True","Keratin","True","France","True",22,"digital media","English","1","3rd year","cognitive psychology","social psychology","no idea",1,"link between general knowledge and ability to imagine yourself as another demographic",0,NA,"no",1,10,3,80,28,22,0,73.3333333333333,73.3333333333333,"United States",1,0
"20170303-102635",106642,"MALE",1,"professor","MY TYPICAL DAY AS A PROFESSOR CONSISTS OF A VARIETY OF THINGS.  I WOULD ARRIVE AT THE SCHOOL EARLY, THIS WAY I HAVE TIME TO WORK ON SOMETHING I MISSED AND PREPARE FOR THE DAY.  I WOULD MAKE SURE I HAVE A GOOD RELATIONSHIP WITH ALL OF MY STUDENTS AND LET THEM KNOW THAT I AM HERE FOR THEM REGARDLESS.  I GRADE ASSIGNMENTS PROMPTLY AND SWIFTLY AND AM READY TO EXPLAIN ANYTHING TO THE STUDENTS.  WHEN I AM NOT TEACHING, I AM IN MY OFFICE AT DESIGNATED TIMES.  DURING THIS TIME, I AM GRADING PAPERS, PREPARING FUTURE ASSIGNMENTS, AND KEEPING UP IN CURRENT EVENTS RELATED TO MY FIELD.  EVEN THOUGH I AM A PROFESSOR, I AM STILL LEARNING AS WE GO ON.  SOME HOBBIES AND PASSIONS RELATED TO THE SCHOOL INCLUDE ATTENDING ATHLETIC EVENTS TO SHOW MY SCHOOL SPIRIT.  MOST PROFESSORS I HAVE DEALT WITH ARE CARING AND WANT EVERYONE TO SUCCEED, SO IF I CAN BEHAVE SIMILAR TO THEM, I WILL BE IN GOOD SHAPE.  WITH THIS BEING SAID, EVERYBODY IS DIFFERENT, AND I WANT TO BRING A UNIQUE STYLE TO MY TEACHING.  MY GOAL IS TO MAKE MY STUDENTS BETTER AND SET THEM UP WITH FUTURE SUCCESS, WHILE HAVING A LITTLE FUN.  ","Zimbabwe","False","HTML","False","Capybara","True","Uranus","False",12,"True","Pakistan","False","9","False","Sweeney Todd","False","Bronze","True","Wave","True","Isotherms","False",21,"True","Ford","False",90,"False","Venus","True","Mikhail Gorbachev","True","In trees","True","Blue Knight","False","Continental Shelf","True","Fascist","True","Stethoscope","False","Iron","True","Rio Grande","True","In the lungs","False","Siberia","True","Jupiter","True","Mozart","False","Air pressure","True","Collagen","False","Greece","False",21,"SPORT MANAGEMENT","English","0","3rd year","DESCRIBING MY DAILY ROLE AS A PROFESOR.  ","KNOWLEDGE QUESTIONS ON A VARIETY OF TOPICS","TO GAIN A BETTER UNDERSTANDING OF PROFESSORS AND WHAT THEY GO THROUGH.  ALSO, GAINING FURTHER KNOWLEDGE AND WHAT STUDENTS HAVE LEARNED.  ",1,"CERTAN PROFESSORS MAY GIVE TIPS FOR ANSWERING QUESTIONS, AND YOU MAY REMEMBER LEARNING A CERTAIN TOPIC IN THEIR CLASS.",0,NA,"THE TASKS HAVE BEEN FAIR SO FAR.  THEY HAVE MADE ME THINK. ",1,45,10,70,21,15,0,50,50,"United States",1,0
"20170302-104914",106723,"female",1,"professor","In my daily life i would be coming to my classroom, teaching/lecturing my stdents, and then in my office hours attending to any student who needs my advising or help. I would also use my office hours time to eat lunch. My typical activities would also be teaching, doing things i need to do during my office hours and free time. I would make sure the class shedule is ready to go and everything is ready for each class when the class begins. My typical personality characteristics and attributes would be that i am passionate about my work. I show compassion to my students and really care about thei","Uganda","False","HTML","False","Muskrat","False","Uranus","False",6,"False","Pakistan","False","12","True","Dick Turpin","False","Bronze","True","Wave","True","Isotherms","False",21,"True","Mitsubishi","False",120,"False","Venus","True","Nikita Krushchev","False","Underground","False","Blue Knight","False","Continental Abyss","False","Fascist","True","X Rays","False","Iron","True","Rio Grande","True","In the throat","True","Siberia","True","Saturn","False","Beethoven","False","Air pressure","True","Keratin","True","Greece","False",18,"physical therapy
","English","1","1st year","social psychology","biological psychology","to study how different people think about different situations.",0,NA,1,"i didnt get to finish all the question in the professor portion so i was more focused on what i did not complete rather than the answer of the knowledge questions. ","no",1,35,10,85,20,12,0,40,40,"United States",1,0
"20161201-151823",1174,"female",0,"soccer hooligan","In the daily life of a soccer hooligan I drink a lot with my friends and binge watch my favorite soccer teams games. My typical activities consist of spending all my money on soccer game tickets and buying tickets for my friends so they can go with me. My passions and hobbies as a soccer hooligan are to sit around and waste my day obsessing over my favorite team play, I typically trash talk the competeing team with my friends. I wear my favorite soccer team players shirts and make multiple tweets and posts on social media about my soccer obsession.  ","Zimbabwe","False","ASCII","True","Muskrat","False","Pluto","False",12,"True","Pakistan","False","12","True","Sweeney Todd","False","Brass","False","Iceberg","False","Isotherms","False",15,"False","General Motors","True",180,"True","Venus","True","Boris Yeltsin","False","In trees","True","Blue Knight","False","Continental Abyss","False","Communist","False","Penicillin","True","Iron","True","Rio Grande","True","In the throat","True","Ukraine","False","Neptune","False","Handel","False","Wind speed","False","Collagen","False","France","True",18,"dental hygiene","hindi","1","1st year","i have no idea","general knowledge","the purpose of this was to find out the general knowledge of a college student.",0,NA,0,NA,"no.",0,50,16,70,22,12,0,40,40,"United States",1,0
"20161121-142911",89290,"Female",0,"soccer hooligan","everyday, i go to soccer events and drink a keg and piss off the loosers. I love be some nice girls so I always sit by the girl with the biggest breast so she can keep my beer. This one time,I stole a girl from this stupid doche and punched him right in the face man it was awesome. HAHA! I am really a nice person but it pisses me off when I can't enjoy a game dude! I play soccer about five times a week myself and go to games daily. There's a really nice game coming up this weekend actually and all the hotties will be there. After the game, I'll probably go and get a hotdog or chips with my buddies if not we will probably j","Uganda","False","HTML","False","Beaver","False","Mars","False",6,"False","Pakistan","False","12","True","Sweeney Todd","False","Brass","False","Iceberg","False","Isotherms","False",21,"True","Mitsubishi","False",180,"True","Venus","True","Alexander Popov","False","0","False","Blue Knight","False","Continental Shelf","True","Communist","False","Stethoscope","False","Bronze","True","Colorado River","False","In the throat","True","Siberia","True","Jupiter","True","Mozart","False","Air pressure","True","Keratin","True","Spain","False",20,"clinical psychology","English","1","3rd year","social psychology","cognitive psychology","to test a pilot for future studies",1,"the level of knowledge about a soccer hooligan reponses to your overall general knowlegde about things.",0,NA,"Was I suppose to know the typical questions asked in the cognitive part of the study?",0,60,18,75,18,11,1,36.6666666666667,37.9310344827586,"United States",1,0
"20161118-161627",90382,NA,1,"professor"," My stundents mostly only know me for teching lectures and handing out exams but that is the easier part of what my day normally involves. As a professor I normally have a lab I run; this can be both frustrating and rewarding. I am normally trying to get a study approved or published. The teaching part is also a big part but it gets eaiser once you get the hang of it. I try to be helpful to my students and teach them things they can use later in life and in the work force. I like to think of myself as down to earth and like everybody else in terms of my personality, I give to charity, I workout, I have a family. Family is a really big part of my life, like anybody else. My passions range from biking to singing in my little band. I like to do thinks with my family on the weekend. I'm trying to get tenured by being a good professor and helpfull to all my students but my mail goal is to help t ","Zimbabwe","False","HTML","False","Capybara","True","Earth","True",6,"False","Pakistan","False","Arm","False","Guy Fawkes","True","Bronze","True","Wave","True","Isobars","True",21,"True","General Motors","True",180,"True","Venus","True","Mikhail Gorbachev","True","Temperature","False","Deep Blue","True","Continental Rise","False","Communist","False","Penicillin","True","Paul Cezanne","False","Rio Rojo","False","In the throat","True","Siberia","True","Jupiter","True","Tchaikovsky","True","Wind speed","False","Collagen","False","France","True",20,"Psychology","English","0","3rd year","Not sure	","Not sure",NA,NA,NA,NA,NA,NA,NA,NA,NA,NA,NA,18,0,60,60,"United States",1,0
"20161117-082502",95122,"Male",0,"soccer-hooligan","My usual daily activities consist of long nights in the office which then lead me to going out to bar to have a few beer with my friends. I am fan of any kind of sport and will always find favor in sports. I really like to fish and be outside. I do my best to provide for family but I also feel that I am not with them as often as I should be. I always put other's feelings and opinions before my own. I allow myself to get easily frustrated at the little things and tend to lose focus on the bigger scope of things. I also find myself to be jealous of the things that i do not have and do not show enough gratification to the things I already have. I sometimes cause problems when I am with my friends as it allows me to forget about my faults.","Uganda","False","Morse Code","False","Capybara","True","Uranus","False",6,"False","India","True","Neck","False","Sweeney Todd","False","Brass","False","Wave","True","Isotherms","False",21,"True","Chrysler","False",180,"True","Venus","True","Alexander Popov","False","Pressure","False","Deep Blue","True","Continental Shelf","True","Communist","False","Stethoscope","False","Salvador Dali","False","Rio Grande","True","In the throat","True","Kazakhstan","False","Jupiter","True","Beethoven","False","Air pressure","True","Keratin","True","France","True",21,"Psychology ","English","0","3rd year","I don't know","I don't know ","No idea ",1,"No idea ",1,"Had to go from train of thought to another ","No",0,55,12,70,20,14,0,46.6666666666667,46.6666666666667,"United States",1,0
"20161121-130223",96019,"Female",0,"soccer hooligan","My typical day would start early at the local gym. I don't really go to workout, I just goo to catch up on the latest soccer news. Usually I have about 4 guys that I get my info from. Then I shower to since its free at the gym and go to the local buffalo wild wings for lunch. Most of the works know me and one of the waitors, Josh, will ask me aboutthe scores of frequent games. He doesn't know all the players like I do but I still find him interesting to talk to. After I chow down on some wings, I head out to the local park where they practice ","Uganda","False","HTML","False","Beaver","False","Mars","False",6,"False","Pakistan","False","11","False","Guy Fawkes","True","Bronze","True","Wave","True","Isotherms","False",20,"False","Mitsubishi","False",120,"False","Mars","False","Boris Yeltsin","False","Underground","False","King Blue","False","Continental Shelf","True","Communist","False","Stethoscope","False","Brass","False","Rio Grande","True","In the throat","True","Ukraine","False","Jupiter","True","Beethoven","False","Air pressure","True","Keratin","True","Spain","False",24,"Clinical Psychology","English","1","4th year or higher","Social Psychology","Cognitive Psychology","To see how students answered the questions and their general knowledge",0,NA,1,"It made me think of actions I don't usually preform","no",1,52,16,80,19,9,0,30,30,"United States",1,0
"20161117-090538",96772,"Female",0,"soccer-hooligan","I am watching soccer games constiently and always have the soccer games/scores pulled up on my phone or computer. My typical activites are watching soccer games going out to bars, drinking cheering my team on and making sure it is known that i love soccer. My passion is soccer always has been and always will be. I live and breathe soccer and nothing else. I am a fun person to be around. I love to have a good  time cheering on my team and drinking the night away when my team wins. If my team does not win which is never I get really upset, and hate life. My world revolves aroudn soccer and my teams schedule. I've been known to follow my team around the world if necessary to watch games live in the stadium so I have the best experience to watch and cheer on my team. I am a soccer fanatic and would do anything for my team to continue winning. It's all about my teams success and them winning games so they can win the world cup every year. They are the best team in the world and will always be numbe one in my heart. I love soccer with all my heart and I will alwa","Uganda","False","HTML","False","Beaver","False","Earth","True",12,"True","Bangledesh","False","Leg","False","Guy Fawkes","True","Bronze","True","0","False","Isobars","True",21,"True","Mitsubishi","False",180,"True","Mars","False","Nikita Krushchev","False","Rainfall","False","Deep Thought","False","Continental Shelf","True","Fascist","True","X Rays","False","Salvador Dali","False","Rio Grande","True","In the throat","True","Siberia","True","Mars","False","Tchaikovsky","True","Air pressure","True","Collagen","False","France","True",20,"child psychology","English","1","3rd year","It was easy to get in the mindset because i am a huge fan of football so it was easy to get in the midset of someone who was crazy about a sport.","The qustions were not common knowledge and if I had not studied about the question at a previous time I did not know it and probably never will know the answer.","I have no idea",0,NA,0,NA,"none",0,25,8,97,19,15,1,50,51.7241379310345,"United States",1,0
"20170331-112517",97816,"Female",0,"soccer hooligan","I wake up and drink a protein shake before heading for a morning run. At about noon I meet up with the guys to go to the gym for our daily workout. Tjem I head home for a brief shower and nap. After taking a nap I make sure to feed my two dogs. The dogs are my best friends and always look out for me. I am very passionate about sports and dedicate most of my time to sports. My personality isnt liked by all people but I cant be anything but myself. Like it ot love it Im me.","Zimbabwe","False","HTML","False","Capybara","True","0","False",6,"False","Phillipines","False","15","False","Robin Hood","False","Brass","False","Iceberg","False","Isotherms","False",21,"True","General Motors","True",180,"True","Venus","True","Alexander Popov","False","Underground","False","Blue Knight","False","Continental Abyss","False","Fascist","True","Penicillin","True","Iron","True","Rio Grande","True","In the throat","True","Ukraine","False","Neptune","False","Mozart","False","Air pressure","True","Keratin","True","Spain","False",21,"criminal justice","English","1","2nd year","It was to desribe","It was knowledge based.","no idea",1,"no idea",1,"I was thinking about something specific then went into a variety on the knowldege portion","no",0,45,15,68,19,12,1,40,41.3793103448276,"United States",1,0
"20161128-144455",97876,"female",0,"soccer hooligan","My guess is I go to church on sundays because my parents make me and not because I really want to or care. Mom and Dad say it will look better for my image if I am a Christian. I like to stay out late after the games and go drink and party with my boys. Practice is 24/7. Soccer is life. I want to play soccer professionally, and I don't really care about school, but I go so I can play in college and have a better chance at the pros.  I'm rough around the edges but that is because people don't get how important soccer is to me. I love the ladies. They like me pretty well too. I have a  few ""girlfriends"", but they're nothing serious. One does my homework and the other is a cheerleader. There is a girl that I actually care about, but she's way too much work. I used to have a job, but I got in trouble for stealing, so mom and dad just give me whatever I want. The only person that truly seems to get me is Momma Joey, my grandmother. I secretly love going over to her house. I want to be a better person for her sake, but I feel so stuck in my ways. Besides, who really cares right?","Uganda","False","HTML","False","Capybara","True","Mars","False",6,"False","Pakistan","False","12","True","Robin Hood","False","Bronze","True","Iceberg","False","Fronts","False",21,"True","Chrysler","False",180,"True","Venus","True","Nikita Krushchev","False","In trees","True","Deep Blue","True","Continental Shelf","True","Fascist","True","Penicillin","True","Iron","True","Colorado River","False","In the throat","True","Siberia","True","Jupiter","True","Tchaikovsky","True","Air pressure","True","Keratin","True","France","True",20,"general psychology","English","1","2nd year","social psychology","cognitive psychology","no idea",1,"no idea, but that's how research tends to work.",0,NA,"Go bucs.",0,44,9,65,18,19,0,63.3333333333333,63.3333333333333,"United States",1,0
"20161201-145024",98038,"male",0,"soccer hooligan","As a soccer hooligan I really enjoy keeping up with my soccer team and talking smack to my friends and others about their teams.  I love to drink beer and watch soccer. I love to scream and yell at others who are not of the same team as me.  I am very enthusiastic and outgoing about my team.  I am extremely passionate about my team and soccer, and love to play a little soccer on the side as well.  I love to go to the games and scream at the opposing team in order to tryt and mess them up.  Any response I can get out of the other team, especially negative ones, just get me even more antsy to start something.  If I can get an opposing player a red card, I would consider that to be so exellerating, especially when the crowd cheers as the player is sent of","Zimbabwe","False","Morse Code","False","Muskrat","False","Uranus","False",12,"True","Phillipines","False","12","True","Guy Fawkes","True","Brass","False","Wave","True","Isobars","True",21,"True","General Motors","True",180,"True","Venus","True","Mikhail Gorbachev","True","In deserts","False","Deep Blue","True","Continental Shelf","True","Fascist","True","Penicillin","True","Brass","False","Rio Grande","True","In the throat","True","Siberia","True","Jupiter","True","Beethoven","False","Air pressure","True","Keratin","True","France","True",19,"marketing managment/ pre-physical therapy","English","0","2nd year","social","cognitive","to relate the two",1,"The overall way a person thinks and the implication of their social mind on their congitive mind or visa versa.",0,NA,"no",1,60,15,75,20,21,0,70,70,"United States",1,0
"20161121-120925",99337,"Female",0,"soccer hooligan","In my daily life I am hanging out with friends and playing soccer. I do not do anything that I dont want to do and I usually sleep durning the day time hours instead of night time. I typically hang with the other soccer players wondering around time and hanging out at the soccer feild.Sometimes we go eat or go out to the clubs on the weekends. Personality wise I am rude and dont care who I offend. I think very highly of myself but not highly of others. I have a passion for soccer and thats about it. I do not personally care about school or doing things for others. Deep down  I am a nice person but the people I hang out with like this version of me so this is the one I show to everyone else. My goal is to play soccer at a college and become a teacher to help young children. My mom is really my favorite person but no one I am freinds with knows that. I play the part of who they think I am . ","Zimbabwe","False","HTML","False","Muskrat","False","Mars","False",15,"False","India","True","12","True","Sweeney Todd","False","Bronze","True","Wave","True","Isobars","True",21,"True","General Motors","True",360,"False","Mars","False","Nikita Krushchev","False","In trees","True","Blue Knight","False","Continental Abyss","False","Republic","False","Penicillin","True","Iron","True","Rio Grande","True","In the throat","True","Siberia","True","Jupiter","True","Tchaikovsky","True","Air pressure","True","Keratin","True","France","True",19,"Psychology","English","1","2nd year","social","cognitive","No idea 
",0,NA,0,NA,"No",1,40,13,70,20,18,0,60,60,"United States",1,0
