"","authors","label","effect","se","g1_mean","g2_mean","n1","n2","language","male_prop","total_n","religious1_mean","religious2_mean","religious3_mean","religious_grandmean"
"1","Acar","10 commandments effect",0.220588235294118,0.625994384420755,3.97058823529412,3.75,34,44,"English",0.325153374233129,163,2.52147239263804,3.19018404907975,1.96319018404908,2.55828220858896
"2","Acar","control condition",-0.0888888888888886,0.524140535915672,4,4.08888888888889,40,45,"English",0.325153374233129,163,2.52147239263804,3.19018404907975,1.96319018404908,2.55828220858896
"3","Acar","control condition permaa",-0.0944444444444446,0.491670891864601,3.55,3.64444444444444,40,45,"English",0.325153374233129,163,2.52147239263804,3.19018404907975,1.96319018404908,2.55828220858896
"4","Acar","cheating",-0.338888888888889,0.520385027482256,3.75,4.08888888888889,44,45,"English",0.325153374233129,163,2.52147239263804,3.19018404907975,1.96319018404908,2.55828220858896
"5","Acar","cheating permaa",0.105555555555556,0.515835993426112,3.75,3.64444444444444,44,45,"English",0.325153374233129,163,2.52147239263804,3.19018404907975,1.96319018404908,2.55828220858896
"6","Acar","commandments condition",-0.0294117647058822,0.629119777060442,3.97058823529412,4,34,40,"English",0.325153374233129,163,2.52147239263804,3.19018404907975,1.96319018404908,2.55828220858896
"7","Acar","commandments condition permaa",0.420588235294118,0.606236309634576,3.97058823529412,3.55,34,40,"English",0.325153374233129,163,2.52147239263804,3.19018404907975,1.96319018404908,2.55828220858896
"8","Acar","difference",-0.309477124183006,0.816451021627316,-0.338888888888889,-0.0294117647058822,89,74,"English",0.325153374233129,163,2.52147239263804,3.19018404907975,1.96319018404908,2.55828220858896
"9","Acar","difference permaa",-0.315032679738562,0.795995750763315,0.105555555555556,0.420588235294118,89,74,"English",0.325153374233129,163,2.52147239263804,3.19018404907975,1.96319018404908,2.55828220858896
"10","Acar","self report vs external check",0.447058823529412,0.357827980186269,4.04705882352941,3.6,85,85,"English",0.325153374233129,163,2.52147239263804,3.19018404907975,1.96319018404908,2.55828220858896
"11","Aczel","10 commandments effect",-0.262626262626263,0.486479215558989,3.18181818181818,3.44444444444444,55,54,"Hungarian",0.2,215,2.47441860465116,3.28372093023256,2.09767441860465,2.61860465116279
"12","Aczel","control condition",-0.186452762923351,0.398881043113069,3.12727272727273,3.31372549019608,55,51,"Hungarian",0.2,215,2.47441860465116,3.28372093023256,2.09767441860465,2.61860465116279
"13","Aczel","control condition permaa",0.171836007130125,0.387128240849924,2.30909090909091,2.13725490196078,55,51,"Hungarian",0.2,215,2.47441860465116,3.28372093023256,2.09767441860465,2.61860465116279
"14","Aczel","cheating",0.130718954248366,0.466067576737347,3.44444444444444,3.31372549019608,54,51,"Hungarian",0.2,215,2.47441860465116,3.28372093023256,2.09767441860465,2.61860465116279
"15","Aczel","cheating permaa",1.30718954248366,0.460590940988732,3.44444444444444,2.13725490196078,54,51,"Hungarian",0.2,215,2.47441860465116,3.28372093023256,2.09767441860465,2.61860465116279
"16","Aczel","commandments condition",0.0545454545454542,0.422550739722506,3.18181818181818,3.12727272727273,55,55,"Hungarian",0.2,215,2.47441860465116,3.28372093023256,2.09767441860465,2.61860465116279
"17","Aczel","commandments condition permaa",0.872727272727273,0.417595841829825,3.18181818181818,2.30909090909091,55,55,"Hungarian",0.2,215,2.47441860465116,3.28372093023256,2.09767441860465,2.61860465116279
"18","Aczel","difference",0.0761734997029118,0.629101036182471,0.130718954248366,0.0545454545454542,105,110,"Hungarian",0.2,215,2.47441860465116,3.28372093023256,2.09767441860465,2.61860465116279
"19","Aczel","difference permaa",0.434462269756388,0.62171561186321,1.30718954248366,0.872727272727273,105,110,"Hungarian",0.2,215,2.47441860465116,3.28372093023256,2.09767441860465,2.61860465116279
"20","Aczel","self report vs external check",0.990566037735849,0.277742062608724,3.21698113207547,2.22641509433962,106,106,"Hungarian",0.2,215,2.47441860465116,3.28372093023256,2.09767441860465,2.61860465116279
"21","Baskin","10 commandments effect",0.256775067750677,0.620437216640913,3.30555555555556,3.04878048780488,36,41,"English",0.479768786127168,173,2.84971098265896,3.82658959537572,2.05780346820809,2.91136801541426
"22","Baskin","control condition",0.303267973856209,0.715970093786603,3.24444444444444,2.94117647058824,45,51,"English",0.479768786127168,173,2.84971098265896,3.82658959537572,2.05780346820809,2.91136801541426
"23","Baskin","control condition permaa",0.335947712418301,0.446676180006157,2.35555555555556,2.01960784313725,45,51,"English",0.479768786127168,173,2.84971098265896,3.82658959537572,2.05780346820809,2.91136801541426
"24","Baskin","cheating",0.107604017216643,0.664819621089962,3.04878048780488,2.94117647058824,41,51,"English",0.479768786127168,173,2.84971098265896,3.82658959537572,2.05780346820809,2.91136801541426
"25","Baskin","cheating permaa",1.02917264466762,0.568182151350858,3.04878048780488,2.01960784313725,41,51,"English",0.479768786127168,173,2.84971098265896,3.82658959537572,2.05780346820809,2.91136801541426
"26","Baskin","commandments condition",0.0611111111111109,0.674959544271892,3.30555555555556,3.24444444444444,36,45,"English",0.479768786127168,173,2.84971098265896,3.82658959537572,2.05780346820809,2.91136801541426
"27","Baskin","commandments condition permaa",0.95,0.511498770735889,3.30555555555556,2.35555555555556,36,45,"English",0.479768786127168,173,2.84971098265896,3.82658959537572,2.05780346820809,2.91136801541426
"28","Baskin","difference",0.0464929061055317,0.947394065312803,0.107604017216643,0.0611111111111109,92,81,"English",0.479768786127168,173,2.84971098265896,3.82658959537572,2.05780346820809,2.91136801541426
"29","Baskin","difference permaa",0.0791726446676235,0.764501111561007,1.02917264466762,0.95,92,81,"English",0.479768786127168,173,2.84971098265896,3.82658959537572,2.05780346820809,2.91136801541426
"30","Baskin","self report vs external check",0.90625,0.414554680311097,3.08333333333333,2.17708333333333,96,96,"English",0.479768786127168,173,2.84971098265896,3.82658959537572,2.05780346820809,2.91136801541426
"31","Birt","10 commandments effect",0.405082787832114,0.503680181951943,3.0377358490566,2.63265306122449,53,49,"english",0.180487804878049,205,2.18627450980392,2.95098039215686,1.95588235294118,2.36437908496732
"32","Birt","control condition",-0.866892911010558,0.630720219175507,2.21153846153846,3.07843137254902,52,51,"english",0.180487804878049,205,2.18627450980392,2.95098039215686,1.95588235294118,2.36437908496732
"33","Birt","control condition permaa",0.0418552036199096,0.354632097299542,1.86538461538462,1.82352941176471,52,51,"english",0.180487804878049,205,2.18627450980392,2.95098039215686,1.95588235294118,2.36437908496732
"34","Birt","cheating",-0.44577831132453,0.654568712669688,2.63265306122449,3.07843137254902,49,51,"english",0.180487804878049,205,2.18627450980392,2.95098039215686,1.95588235294118,2.36437908496732
"35","Birt","cheating permaa",0.809123649459784,0.409829710782185,2.63265306122449,1.82352941176471,49,51,"english",0.180487804878049,205,2.18627450980392,2.95098039215686,1.95588235294118,2.36437908496732
"36","Birt","commandments condition",0.826197387518142,0.472272718841444,3.0377358490566,2.21153846153846,53,52,"english",0.180487804878049,205,2.18627450980392,2.95098039215686,1.95588235294118,2.36437908496732
"37","Birt","commandments condition permaa",1.17235123367199,0.459888310665106,3.0377358490566,1.86538461538462,53,52,"english",0.180487804878049,205,2.18627450980392,2.95098039215686,1.95588235294118,2.36437908496732
"38","Birt","difference",-1.27197569884267,0.807156565090034,-0.44577831132453,0.826197387518142,100,105,"english",0.180487804878049,205,2.18627450980392,2.95098039215686,1.95588235294118,2.36437908496732
"39","Birt","difference permaa",-0.363227584212204,0.616001339386705,0.809123649459784,1.17235123367199,100,105,"english",0.180487804878049,205,2.18627450980392,2.95098039215686,1.95588235294118,2.36437908496732
"40","Birt","self report vs external check",0.796116504854369,0.361009343566462,2.64077669902913,1.84466019417476,103,103,"english",0.180487804878049,205,2.18627450980392,2.95098039215686,1.95588235294118,2.36437908496732
"41","Blatz","10 commandments effect",1.06562137049942,0.761522107600156,4.30952380952381,3.24390243902439,42,41,"German",0.122448979591837,196,2.20512820512821,2.67179487179487,1.62886597938144,2.16859635210151
"42","Blatz","control condition",-0.893416927899687,0.430987179904235,2.72727272727273,3.62068965517241,55,58,"German",0.122448979591837,196,2.20512820512821,2.67179487179487,1.62886597938144,2.16859635210151
"43","Blatz","control condition permaa",-0.428520499108734,0.346772160428285,2.6078431372549,3.03636363636364,51,55,"German",0.122448979591837,196,2.20512820512821,2.67179487179487,1.62886597938144,2.16859635210151
"44","Blatz","cheating",-0.376787216148023,0.653625846643347,3.24390243902439,3.62068965517241,41,58,"German",0.122448979591837,196,2.20512820512821,2.67179487179487,1.62886597938144,2.16859635210151
"45","Blatz","cheating permaa",0.207538802660754,0.59516074680233,3.24390243902439,3.03636363636364,41,55,"German",0.122448979591837,196,2.20512820512821,2.67179487179487,1.62886597938144,2.16859635210151
"46","Blatz","commandments condition",1.58225108225108,0.58175520814631,4.30952380952381,2.72727272727273,42,55,"German",0.122448979591837,196,2.20512820512821,2.67179487179487,1.62886597938144,2.16859635210151
"47","Blatz","commandments condition permaa",1.70168067226891,0.588175600545939,4.30952380952381,2.6078431372549,42,51,"German",0.122448979591837,196,2.20512820512821,2.67179487179487,1.62886597938144,2.16859635210151
"48","Blatz","difference",-1.95903829839911,0.87502335374868,-0.376787216148023,1.58225108225108,99,97,"German",0.122448979591837,196,2.20512820512821,2.67179487179487,1.62886597938144,2.16859635210151
"49","Blatz","difference permaa",-1.49414186960815,0.836759733502923,0.207538802660754,1.70168067226891,99,97,"German",0.122448979591837,196,2.20512820512821,2.67179487179487,1.62886597938144,2.16859635210151
"50","Blatz","self report vs external check",0.355652028719319,0.281408494045994,3.1858407079646,2.83018867924528,113,113,"German",0.122448979591837,196,2.20512820512821,2.67179487179487,1.62886597938144,2.16859635210151
"51","Evans","10 commandments effect",0.847401522674611,0.500634925111887,3.07547169811321,2.2280701754386,53,57,"English",0.277056277056277,231,2.63203463203463,3.7012987012987,2.18777292576419,2.84036875303251
"52","Evans","control condition",0.215151515151515,0.383207779543615,2.47272727272727,2.25757575757576,55,66,"English",0.277056277056277,231,2.63203463203463,3.7012987012987,2.18777292576419,2.84036875303251
"53","Evans","control condition permaa",-0.103030303030303,0.293760308793397,1.56363636363636,1.66666666666667,55,66,"English",0.277056277056277,231,2.63203463203463,3.7012987012987,2.18777292576419,2.84036875303251
"54","Evans","cheating",-0.0295055821371615,0.377658056943562,2.2280701754386,2.25757575757576,57,66,"English",0.277056277056277,231,2.63203463203463,3.7012987012987,2.18777292576419,2.84036875303251
"55","Evans","cheating permaa",0.56140350877193,0.365119424456599,2.2280701754386,1.66666666666667,57,66,"English",0.277056277056277,231,2.63203463203463,3.7012987012987,2.18777292576419,2.84036875303251
"56","Evans","commandments condition",0.602744425385935,0.504834549699351,3.07547169811321,2.47272727272727,53,55,"English",0.277056277056277,231,2.63203463203463,3.7012987012987,2.18777292576419,2.84036875303251
"57","Evans","commandments condition permaa",1.51183533447684,0.451240792868573,3.07547169811321,1.56363636363636,53,55,"English",0.277056277056277,231,2.63203463203463,3.7012987012987,2.18777292576419,2.84036875303251
"58","Evans","difference",-0.632250007523096,0.630462949382859,-0.0295055821371615,0.602744425385935,123,108,"English",0.277056277056277,231,2.63203463203463,3.7012987012987,2.18777292576419,2.84036875303251
"59","Evans","difference permaa",-0.950431825704914,0.58045710200167,0.56140350877193,1.51183533447684,123,108,"English",0.277056277056277,231,2.63203463203463,3.7012987012987,2.18777292576419,2.84036875303251
"60","Evans","self report vs external check",0.735537190082645,0.236222481884276,2.35537190082645,1.6198347107438,121,121,"English",0.277056277056277,231,2.63203463203463,3.7012987012987,2.18777292576419,2.84036875303251
"61","Ferreira-Santos","10 commandments effect",-0.185185185185185,0.486073826983443,2.66666666666667,2.85185185185185,51,54,"Portuguese",0.270142180094787,211,2.36538461538462,2.83653846153846,1.51923076923077,2.24038461538462
"62","Ferreira-Santos","control condition",0.857142857142857,0.487296886948485,3,2.14285714285714,50,56,"Portuguese",0.270142180094787,211,2.36538461538462,2.83653846153846,1.51923076923077,2.24038461538462
"63","Ferreira-Santos","control condition permaa",0.4,0.390637175134936,2.4,2,50,56,"Portuguese",0.270142180094787,211,2.36538461538462,2.83653846153846,1.51923076923077,2.24038461538462
"64","Ferreira-Santos","cheating",0.708994708994709,0.416071039940219,2.85185185185185,2.14285714285714,54,56,"Portuguese",0.270142180094787,211,2.36538461538462,2.83653846153846,1.51923076923077,2.24038461538462
"65","Ferreira-Santos","cheating permaa",0.851851851851852,0.418072803575587,2.85185185185185,2,54,56,"Portuguese",0.270142180094787,211,2.36538461538462,2.83653846153846,1.51923076923077,2.24038461538462
"66","Ferreira-Santos","commandments condition",-0.333333333333333,0.548279956802252,2.66666666666667,3,51,50,"Portuguese",0.270142180094787,211,2.36538461538462,2.83653846153846,1.51923076923077,2.24038461538462
"67","Ferreira-Santos","commandments condition permaa",0.266666666666667,0.462688122590348,2.66666666666667,2.4,51,50,"Portuguese",0.270142180094787,211,2.36538461538462,2.83653846153846,1.51923076923077,2.24038461538462
"68","Ferreira-Santos","difference",1.04232804232804,0.688277575770135,0.708994708994709,-0.333333333333333,110,101,"Portuguese",0.270142180094787,211,2.36538461538462,2.83653846153846,1.51923076923077,2.24038461538462
"69","Ferreira-Santos","difference permaa",0.585185185185185,0.623590545049981,0.851851851851852,0.266666666666667,110,101,"Portuguese",0.270142180094787,211,2.36538461538462,2.83653846153846,1.51923076923077,2.24038461538462
"70","Ferreira-Santos","self report vs external check",0.358490566037736,0.308969036914032,2.54716981132075,2.18867924528302,106,106,"Portuguese",0.270142180094787,211,2.36538461538462,2.83653846153846,1.51923076923077,2.24038461538462
"71","González-Iraizoz","10 commandments effect",0.258934169278997,0.523201068328029,3.67272727272727,3.41379310344828,55,58,"English",0.168224299065421,214,2.15492957746479,2.63380281690141,1.88732394366197,2.22535211267606
"72","González-Iraizoz","control condition",-0.0674509803921568,0.393041483236794,2.56,2.62745098039216,50,51,"English",0.168224299065421,214,2.15492957746479,2.63380281690141,1.88732394366197,2.22535211267606
"73","González-Iraizoz","control condition permaa",-0.00775510204081664,0.37013364764348,2.38,2.38775510204082,50,49,"English",0.168224299065421,214,2.15492957746479,2.63380281690141,1.88732394366197,2.22535211267606
"74","González-Iraizoz","cheating",0.786342123056119,0.426960606324202,3.41379310344828,2.62745098039216,58,51,"English",0.168224299065421,214,2.15492957746479,2.63380281690141,1.88732394366197,2.22535211267606
"75","González-Iraizoz","cheating permaa",1.02603800140746,0.410241859408975,3.41379310344828,2.38775510204082,58,49,"English",0.168224299065421,214,2.15492957746479,2.63380281690141,1.88732394366197,2.22535211267606
"76","González-Iraizoz","commandments condition",1.11272727272727,0.495908868736827,3.67272727272727,2.56,55,50,"English",0.168224299065421,214,2.15492957746479,2.63380281690141,1.88732394366197,2.22535211267606
"77","González-Iraizoz","commandments condition permaa",1.29272727272727,0.492381855683295,3.67272727272727,2.38,55,50,"English",0.168224299065421,214,2.15492957746479,2.63380281690141,1.88732394366197,2.22535211267606
"78","González-Iraizoz","difference",-0.326385149671154,0.654385945329337,0.786342123056119,1.11272727272727,109,105,"English",0.168224299065421,214,2.15492957746479,2.63380281690141,1.88732394366197,2.22535211267606
"79","González-Iraizoz","difference permaa",-0.266689271319814,0.640888660390757,1.02603800140746,1.29272727272727,109,105,"English",0.168224299065421,214,2.15492957746479,2.63380281690141,1.88732394366197,2.22535211267606
"80","González-Iraizoz","self report vs external check",0.21022102210221,0.268712360229974,2.59405940594059,2.38383838383838,101,101,"English",0.168224299065421,214,2.15492957746479,2.63380281690141,1.88732394366197,2.22535211267606
"81","Holzmeister","10 commandments effect",1.11041666666667,0.719622019001671,7.01666666666667,5.90625,60,64,"German",0.475609756097561,246,2.32520325203252,2.80081300813008,1.80081300813008,2.30894308943089
"82","Holzmeister","control condition",0.124562819478074,0.656190930800831,5.71186440677966,5.58730158730159,59,63,"German",0.475609756097561,246,2.32520325203252,2.80081300813008,1.80081300813008,2.30894308943089
"83","Holzmeister","control condition permaa",-0.146892655367231,0.532487665008279,4.1864406779661,4.33333333333333,59,63,"German",0.475609756097561,246,2.32520325203252,2.80081300813008,1.80081300813008,2.30894308943089
"84","Holzmeister","cheating",0.318948412698413,0.61903320129033,5.90625,5.58730158730159,64,63,"German",0.475609756097561,246,2.32520325203252,2.80081300813008,1.80081300813008,2.30894308943089
"85","Holzmeister","cheating permaa",1.57291666666667,0.586046483506874,5.90625,4.33333333333333,64,63,"German",0.475609756097561,246,2.32520325203252,2.80081300813008,1.80081300813008,2.30894308943089
"86","Holzmeister","commandments condition",1.30480225988701,0.75182463620019,7.01666666666667,5.71186440677966,60,59,"German",0.475609756097561,246,2.32520325203252,2.80081300813008,1.80081300813008,2.30894308943089
"87","Holzmeister","commandments condition permaa",2.83022598870056,0.676718909730797,7.01666666666667,4.1864406779661,60,59,"German",0.475609756097561,246,2.32520325203252,2.80081300813008,1.80081300813008,2.30894308943089
"88","Holzmeister","difference",-0.985853847188593,0.973880068538885,0.318948412698413,1.30480225988701,127,119,"German",0.475609756097561,246,2.32520325203252,2.80081300813008,1.80081300813008,2.30894308943089
"89","Holzmeister","difference permaa",-1.2573093220339,0.895208893844342,1.57291666666667,2.83022598870056,127,119,"German",0.475609756097561,246,2.32520325203252,2.80081300813008,1.80081300813008,2.30894308943089
"90","Holzmeister","self report vs external check",1.38524590163934,0.419470154664012,5.64754098360656,4.26229508196721,122,122,"German",0.475609756097561,246,2.32520325203252,2.80081300813008,1.80081300813008,2.30894308943089
"91","klein Selle & Rozmann","10 commandments effect",-0.265424430641822,0.430728990971671,3.31428571428571,3.57971014492754,70,69,"Hebrew",0.215547703180212,283,2.38928571428571,3.4626334519573,2.55871886120996,2.80354600915099
"92","klein Selle & Rozmann","control condition",-0.082574142275635,0.436955829535506,3.16417910447761,3.24675324675325,67,77,"Hebrew",0.215547703180212,283,2.38928571428571,3.4626334519573,2.55871886120996,2.80354600915099
"93","klein Selle & Rozmann","control condition permaa",-0.568327195192867,0.30748407260755,2.22388059701493,2.79220779220779,67,77,"Hebrew",0.215547703180212,283,2.38928571428571,3.4626334519573,2.55871886120996,2.80354600915099
"94","klein Selle & Rozmann","cheating",0.332956898174289,0.379878489895286,3.57971014492754,3.24675324675325,69,77,"Hebrew",0.215547703180212,283,2.38928571428571,3.4626334519573,2.55871886120996,2.80354600915099
"95","klein Selle & Rozmann","cheating permaa",0.787502352719744,0.382649169476679,3.57971014492754,2.79220779220779,69,77,"Hebrew",0.215547703180212,283,2.38928571428571,3.4626334519573,2.55871886120996,2.80354600915099
"96","klein Selle & Rozmann","commandments condition",0.150106609808103,0.481819669112224,3.31428571428571,3.16417910447761,70,67,"Hebrew",0.215547703180212,283,2.38928571428571,3.4626334519573,2.55871886120996,2.80354600915099
"97","klein Selle & Rozmann","commandments condition permaa",1.09040511727079,0.365586558382016,3.31428571428571,2.22388059701493,70,67,"Hebrew",0.215547703180212,283,2.38928571428571,3.4626334519573,2.55871886120996,2.80354600915099
"98","klein Selle & Rozmann","difference",0.182850288366187,0.61356161925966,0.332956898174289,0.150106609808103,146,137,"Hebrew",0.215547703180212,283,2.38928571428571,3.4626334519573,2.55871886120996,2.80354600915099
"99","klein Selle & Rozmann","difference permaa",-0.302902764551045,0.529220104087892,0.787502352719744,1.09040511727079,146,137,"Hebrew",0.215547703180212,283,2.38928571428571,3.4626334519573,2.55871886120996,2.80354600915099
"100","klein Selle & Rozmann","self report vs external check",0.680555555555556,0.260337821527046,3.20833333333333,2.52777777777778,144,144,"Hebrew",0.215547703180212,283,2.38928571428571,3.4626334519573,2.55871886120996,2.80354600915099
"101","Koppel","10 commandments effect",0.387096774193548,0.399811029892479,3.11290322580645,2.7258064516129,62,62,"Swedish",0.444915254237288,236,1.59051724137931,1.73390557939914,1.2274678111588,1.51729687731242
"102","Koppel","control condition",-0.347368421052631,0.439649968956501,2.6,2.94736842105263,55,57,"Swedish",0.444915254237288,236,1.59051724137931,1.73390557939914,1.2274678111588,1.51729687731242
"103","Koppel","control condition permaa",-0.365231259968102,0.325062242222854,2.09090909090909,2.45614035087719,55,57,"Swedish",0.444915254237288,236,1.59051724137931,1.73390557939914,1.2274678111588,1.51729687731242
"104","Koppel","cheating",-0.221561969439728,0.470385941742827,2.7258064516129,2.94736842105263,62,57,"Swedish",0.444915254237288,236,1.59051724137931,1.73390557939914,1.2274678111588,1.51729687731242
"105","Koppel","cheating permaa",0.26966610073571,0.367700268325324,2.7258064516129,2.45614035087719,62,57,"Swedish",0.444915254237288,236,1.59051724137931,1.73390557939914,1.2274678111588,1.51729687731242
"106","Koppel","commandments condition",0.512903225806451,0.363150135120243,3.11290322580645,2.6,62,55,"Swedish",0.444915254237288,236,1.59051724137931,1.73390557939914,1.2274678111588,1.51729687731242
"107","Koppel","commandments condition permaa",1.02199413489736,0.360985918861274,3.11290322580645,2.09090909090909,62,55,"Swedish",0.444915254237288,236,1.59051724137931,1.73390557939914,1.2274678111588,1.51729687731242
"108","Koppel","difference",-0.73446519524618,0.594256640541052,-0.221561969439728,0.512903225806451,119,117,"Swedish",0.444915254237288,236,1.59051724137931,1.73390557939914,1.2274678111588,1.51729687731242
"109","Koppel","difference permaa",-0.752328034161651,0.515280817557411,0.26966610073571,1.02199413489736,119,117,"Swedish",0.444915254237288,236,1.59051724137931,1.73390557939914,1.2274678111588,1.51729687731242
"110","Koppel","self report vs external check",0.5,0.274365901345795,2.77678571428571,2.27678571428571,112,112,"Swedish",0.444915254237288,236,1.59051724137931,1.73390557939914,1.2274678111588,1.51729687731242
"111","Laine","10 commandments effect",-0.368697803897309,0.413563141841236,2.18867924528302,2.55737704918033,53,61,"french",0.120535714285714,224,1.90045248868778,2.23076923076923,1.7737556561086,1.9683257918552
"112","Laine","control condition",-0.246693121693122,0.342507368615362,2.09259259259259,2.33928571428571,54,56,"french",0.120535714285714,224,1.90045248868778,2.23076923076923,1.7737556561086,1.9683257918552
"113","Laine","control condition permaa",0.163979416809606,0.32156763599846,1.50943396226415,1.34545454545455,53,55,"french",0.120535714285714,224,1.90045248868778,2.23076923076923,1.7737556561086,1.9683257918552
"114","Laine","cheating",0.218091334894614,0.38663095503404,2.55737704918033,2.33928571428571,61,56,"french",0.120535714285714,224,1.90045248868778,2.23076923076923,1.7737556561086,1.9683257918552
"115","Laine","cheating permaa",1.21192250372578,0.371810942527526,2.55737704918033,1.34545454545455,61,55,"french",0.120535714285714,224,1.90045248868778,2.23076923076923,1.7737556561086,1.9683257918552
"116","Laine","commandments condition",0.0960866526904263,0.372642287529046,2.18867924528302,2.09259259259259,53,54,"french",0.120535714285714,224,1.90045248868778,2.23076923076923,1.7737556561086,1.9683257918552
"117","Laine","commandments condition permaa",0.679245283018868,0.369048560257353,2.18867924528302,1.50943396226415,53,53,"french",0.120535714285714,224,1.90045248868778,2.23076923076923,1.7737556561086,1.9683257918552
"118","Laine","difference",0.122004682204187,0.536978369997725,0.218091334894614,0.0960866526904263,117,107,"french",0.120535714285714,224,1.90045248868778,2.23076923076923,1.7737556561086,1.9683257918552
"119","Laine","difference permaa",0.532677220706915,0.523870419866624,1.21192250372578,0.679245283018868,117,107,"french",0.120535714285714,224,1.90045248868778,2.23076923076923,1.7737556561086,1.9683257918552
"120","Laine","self report vs external check",0.792255892255892,0.234316743815675,2.21818181818182,1.42592592592593,110,110,"french",0.120535714285714,224,1.90045248868778,2.23076923076923,1.7737556561086,1.9683257918552
"121","Loschelder","10 commandments effect",-0.107858243451464,0.384504027820965,3.98305084745763,4.09090909090909,59,55,"German",0.330188679245283,212,1.95754716981132,2.38388625592417,1.34597156398104,1.89580166323884
"122","Loschelder","control condition",-0.405,0.706112686419604,4.22,4.625,50,48,"German",0.330188679245283,212,1.95754716981132,2.38388625592417,1.34597156398104,1.89580166323884
"123","Loschelder","control condition permaa",-0.700425531914893,0.461517974374517,3.64,4.34042553191489,50,47,"German",0.330188679245283,212,1.95754716981132,2.38388625592417,1.34597156398104,1.89580166323884
"124","Loschelder","cheating",-0.534090909090909,0.555769226782291,4.09090909090909,4.625,55,48,"German",0.330188679245283,212,1.95754716981132,2.38388625592417,1.34597156398104,1.89580166323884
"125","Loschelder","cheating permaa",-0.249516441005802,0.466906324152043,4.09090909090909,4.34042553191489,55,47,"German",0.330188679245283,212,1.95754716981132,2.38388625592417,1.34597156398104,1.89580166323884
"126","Loschelder","commandments condition",-0.236949152542373,0.580998313160262,3.98305084745763,4.22,59,50,"German",0.330188679245283,212,1.95754716981132,2.38388625592417,1.34597156398104,1.89580166323884
"127","Loschelder","commandments condition permaa",0.343050847457627,0.377942684210358,3.98305084745763,3.64,59,50,"German",0.330188679245283,212,1.95754716981132,2.38388625592417,1.34597156398104,1.89580166323884
"128","Loschelder","difference",-0.297141756548537,0.804013975832047,-0.534090909090909,-0.236949152542373,103,109,"German",0.330188679245283,212,1.95754716981132,2.38388625592417,1.34597156398104,1.89580166323884
"129","Loschelder","difference permaa",-0.592567288463429,0.600701413417101,-0.249516441005802,0.343050847457627,103,109,"German",0.330188679245283,212,1.95754716981132,2.38388625592417,1.34597156398104,1.89580166323884
"130","Loschelder","self report vs external check",0.438985903639806,0.421914405383087,4.41836734693878,3.97938144329897,98,98,"German",0.330188679245283,212,1.95754716981132,2.38388625592417,1.34597156398104,1.89580166323884
"131","McCarthy","10 commandments effect",0.573913043478261,0.737199256399229,3.4,2.82608695652174,50,46,"English",0.389908256880734,218,2.74883720930233,3.7906976744186,2.41860465116279,2.98604651162791
"132","McCarthy","control condition",-0.691724941724942,0.577255243392093,2.29545454545455,2.98717948717949,44,78,"English",0.389908256880734,218,2.74883720930233,3.7906976744186,2.41860465116279,2.98604651162791
"133","McCarthy","control condition permaa",-0.738643844634628,0.414893135147245,1.32258064516129,2.06122448979592,31,49,"English",0.389908256880734,218,2.74883720930233,3.7906976744186,2.41860465116279,2.98604651162791
"134","McCarthy","cheating",-0.161092530657748,0.658170932121194,2.82608695652174,2.98717948717949,46,78,"English",0.389908256880734,218,2.74883720930233,3.7906976744186,2.41860465116279,2.98604651162791
"135","McCarthy","cheating permaa",0.764862466725821,0.595047838484997,2.82608695652174,2.06122448979592,46,49,"English",0.389908256880734,218,2.74883720930233,3.7906976744186,2.41860465116279,2.98604651162791
"136","McCarthy","commandments condition",1.10454545454545,0.665955992367334,3.4,2.29545454545455,50,44,"English",0.389908256880734,218,2.74883720930233,3.7906976744186,2.41860465116279,2.98604651162791
"137","McCarthy","commandments condition permaa",2.07741935483871,0.601262943430094,3.4,1.32258064516129,50,31,"English",0.389908256880734,218,2.74883720930233,3.7906976744186,2.41860465116279,2.98604651162791
"138","McCarthy","difference",-1.2656379852032,0.936315309956663,-0.161092530657748,1.10454545454545,124,94,"English",0.389908256880734,218,2.74883720930233,3.7906976744186,2.41860465116279,2.98604651162791
"139","McCarthy","difference permaa",-1.31255688811289,0.845930882063001,0.764862466725821,2.07741935483871,124,94,"English",0.389908256880734,218,2.74883720930233,3.7906976744186,2.41860465116279,2.98604651162791
"140","McCarthy","self report vs external check",0.962704918032787,0.374064398098547,2.73770491803279,1.775,122,122,"English",0.389908256880734,218,2.74883720930233,3.7906976744186,2.41860465116279,2.98604651162791
"141","Meijer","10 commandments effect",-0.154761904761905,0.303515879182966,3.02380952380952,3.17857142857143,84,84,"English",0.25,336,1.8963963963964,2.3033033033033,1.35735735735736,1.85235235235235
"142","Meijer","control condition",-0.134865134865135,0.330652833795149,3.33766233766234,3.47252747252747,77,91,"English",0.25,336,1.8963963963964,2.3033033033033,1.35735735735736,1.85235235235235
"143","Meijer","control condition permaa",-0.0429570429570432,0.316508770988593,3.07792207792208,3.12087912087912,77,91,"English",0.25,336,1.8963963963964,2.3033033033033,1.35735735735736,1.85235235235235
"144","Meijer","cheating",-0.293956043956044,0.338002708998586,3.17857142857143,3.47252747252747,84,91,"English",0.25,336,1.8963963963964,2.3033033033033,1.35735735735736,1.85235235235235
"145","Meijer","cheating permaa",0.0576923076923075,0.328288262140901,3.17857142857143,3.12087912087912,84,91,"English",0.25,336,1.8963963963964,2.3033033033033,1.35735735735736,1.85235235235235
"146","Meijer","commandments condition",-0.313852813852814,0.295308913042916,3.02380952380952,3.33766233766234,84,77,"English",0.25,336,1.8963963963964,2.3033033033033,1.35735735735736,1.85235235235235
"147","Meijer","commandments condition permaa",-0.054112554112554,0.290734428593218,3.02380952380952,3.07792207792208,84,77,"English",0.25,336,1.8963963963964,2.3033033033033,1.35735735735736,1.85235235235235
"148","Meijer","difference",0.0198967698967696,0.44883536559965,-0.293956043956044,-0.313852813852814,175,161,"English",0.25,336,1.8963963963964,2.3033033033033,1.35735735735736,1.85235235235235
"149","Meijer","difference permaa",0.111804861804861,0.438519886697192,0.0576923076923075,-0.054112554112554,175,161,"English",0.25,336,1.8963963963964,2.3033033033033,1.35735735735736,1.85235235235235
"150","Meijer","self report vs external check",0.309523809523809,0.226862006473376,3.41071428571429,3.10119047619048,168,168,"English",0.25,336,1.8963963963964,2.3033033033033,1.35735735735736,1.85235235235235
"151","Özdoğru","10 commandments effect",1.18979266347687,0.600804982855035,4.44736842105263,3.25757575757576,38,66,"Turkish",0.105485232067511,237,3.41991341991342,4.70689655172414,4.14718614718615,4.0913320396079
"152","Özdoğru","control condition",-0.475855602437881,0.552130775262104,3.2962962962963,3.77215189873418,54,79,"Turkish",0.105485232067511,237,3.41991341991342,4.70689655172414,4.14718614718615,4.0913320396079
"153","Özdoğru","control condition permaa",-0.315049226441631,0.418679446005501,2.44444444444444,2.75949367088608,54,79,"Turkish",0.105485232067511,237,3.41991341991342,4.70689655172414,4.14718614718615,4.0913320396079
"154","Özdoğru","cheating",-0.51457614115842,0.505242371301721,3.25757575757576,3.77215189873418,66,79,"Turkish",0.105485232067511,237,3.41991341991342,4.70689655172414,4.14718614718615,4.0913320396079
"155","Özdoğru","cheating permaa",0.498082086689682,0.468325600378433,3.25757575757576,2.75949367088608,66,79,"Turkish",0.105485232067511,237,3.41991341991342,4.70689655172414,4.14718614718615,4.0913320396079
"156","Özdoğru","commandments condition",1.15107212475634,0.640737985963361,4.44736842105263,3.2962962962963,38,54,"Turkish",0.105485232067511,237,3.41991341991342,4.70689655172414,4.14718614718615,4.0913320396079
"157","Özdoğru","commandments condition permaa",2.00292397660819,0.562965574401395,4.44736842105263,2.44444444444444,38,54,"Turkish",0.105485232067511,237,3.41991341991342,4.70689655172414,4.14718614718615,4.0913320396079
"158","Özdoğru","difference",-1.66564826591476,0.815974889573797,-0.51457614115842,1.15107212475634,145,92,"Turkish",0.105485232067511,237,3.41991341991342,4.70689655172414,4.14718614718615,4.0913320396079
"159","Özdoğru","difference permaa",-1.50484188991851,0.732297143194559,0.498082086689682,2.00292397660819,145,92,"Turkish",0.105485232067511,237,3.41991341991342,4.70689655172414,4.14718614718615,4.0913320396079
"160","Özdoğru","self report vs external check",0.947368421052631,0.338480011886721,3.57894736842105,2.63157894736842,133,133,"Turkish",0.105485232067511,237,3.41991341991342,4.70689655172414,4.14718614718615,4.0913320396079
"161","Pennington","10 commandments effect",0.757504690431519,0.383022637205305,2.85365853658537,2.09615384615385,41,52,"English",0.177664974619289,197,1.94416243654822,2.36548223350254,1.66836734693878,1.99267067232985
"162","Pennington","control condition",-0.325925925925926,0.384748989756617,3.1,3.42592592592593,50,54,"English",0.177664974619289,197,1.94416243654822,2.36548223350254,1.66836734693878,1.99267067232985
"163","Pennington","control condition permaa",0.0125925925925925,0.374487656249939,2.92,2.90740740740741,50,54,"English",0.177664974619289,197,1.94416243654822,2.36548223350254,1.66836734693878,1.99267067232985
"164","Pennington","cheating",-1.32977207977208,0.371927100676063,2.09615384615385,3.42592592592593,52,54,"English",0.177664974619289,197,1.94416243654822,2.36548223350254,1.66836734693878,1.99267067232985
"165","Pennington","cheating permaa",-0.811253561253561,0.364014195768397,2.09615384615385,2.90740740740741,52,54,"English",0.177664974619289,197,1.94416243654822,2.36548223350254,1.66836734693878,1.99267067232985
"166","Pennington","commandments condition",-0.246341463414634,0.395484964964715,2.85365853658537,3.1,41,50,"English",0.177664974619289,197,1.94416243654822,2.36548223350254,1.66836734693878,1.99267067232985
"167","Pennington","commandments condition permaa",-0.0663414634146342,0.39298983520489,2.85365853658537,2.92,41,50,"English",0.177664974619289,197,1.94416243654822,2.36548223350254,1.66836734693878,1.99267067232985
"168","Pennington","difference",-1.08343061635745,0.542897896229525,-1.32977207977208,-0.246341463414634,106,91,"English",0.177664974619289,197,1.94416243654822,2.36548223350254,1.66836734693878,1.99267067232985
"169","Pennington","difference permaa",-0.744912097838927,0.535674663667491,-0.811253561253561,-0.0663414634146342,106,91,"English",0.177664974619289,197,1.94416243654822,2.36548223350254,1.66836734693878,1.99267067232985
"170","Pennington","self report vs external check",0.355769230769231,0.269961600094094,3.26923076923077,2.91346153846154,104,104,"English",0.177664974619289,197,1.94416243654822,2.36548223350254,1.66836734693878,1.99267067232985
"171","Roets","10 commandments effect",0.359329140461216,0.468367665933548,3.75555555555556,3.39622641509434,45,53,"Dutch",0.109375,192,2.06806282722513,2.078125,1.75,1.96539594240838
"172","Roets","control condition",-0.148936170212766,0.393448222425519,3.06382978723404,3.21276595744681,47,47,"Dutch",0.109375,192,2.06806282722513,2.078125,1.75,1.96539594240838
"173","Roets","control condition permaa",-0.25531914893617,0.388565479997332,2.85106382978723,3.1063829787234,47,47,"Dutch",0.109375,192,2.06806282722513,2.078125,1.75,1.96539594240838
"174","Roets","cheating",0.183460457647531,0.438408191160477,3.39622641509434,3.21276595744681,53,47,"Dutch",0.109375,192,2.06806282722513,2.078125,1.75,1.96539594240838
"175","Roets","cheating permaa",0.289843436370936,0.433418905629324,3.39622641509434,3.1063829787234,53,47,"Dutch",0.109375,192,2.06806282722513,2.078125,1.75,1.96539594240838
"176","Roets","commandments condition",0.691725768321513,0.42657711160497,3.75555555555556,3.06382978723404,45,47,"Dutch",0.109375,192,2.06806282722513,2.078125,1.75,1.96539594240838
"177","Roets","commandments condition permaa",0.904491725768322,0.42719954936853,3.75555555555556,2.85106382978723,45,47,"Dutch",0.109375,192,2.06806282722513,2.078125,1.75,1.96539594240838
"178","Roets","difference",-0.508265310673982,0.611694183576925,0.183460457647531,0.691725768321513,100,92,"Dutch",0.109375,192,2.06806282722513,2.078125,1.75,1.96539594240838
"179","Roets","difference permaa",-0.614648289397386,0.608565035750162,0.289843436370936,0.904491725768322,100,92,"Dutch",0.109375,192,2.06806282722513,2.078125,1.75,1.96539594240838
"180","Roets","self report vs external check",0.159574468085106,0.27542516674052,3.13829787234043,2.97872340425532,94,94,"Dutch",0.109375,192,2.06806282722513,2.078125,1.75,1.96539594240838
"181","Suchotzki","10 commandments effect",0,0.472601487222636,3.83333333333333,3.83333333333333,60,60,"German",0.175,240,2.3875,2.78242677824268,1.36401673640167,2.17798117154812
"182","Suchotzki","control condition",-0.00945494994438256,0.443338489726331,3.88709677419355,3.89655172413793,62,58,"German",0.175,240,2.3875,2.78242677824268,1.36401673640167,2.17798117154812
"183","Suchotzki","control condition permaa",-0.0772727272727272,0.367083632146671,3.65,3.72727272727273,60,55,"German",0.175,240,2.3875,2.78242677824268,1.36401673640167,2.17798117154812
"184","Suchotzki","cheating",-0.0632183908045976,0.502013060678523,3.83333333333333,3.89655172413793,60,58,"German",0.175,240,2.3875,2.78242677824268,1.36401673640167,2.17798117154812
"185","Suchotzki","cheating permaa",0.106060606060606,0.477073151871594,3.83333333333333,3.72727272727273,60,55,"German",0.175,240,2.3875,2.78242677824268,1.36401673640167,2.17798117154812
"186","Suchotzki","commandments condition",-0.053763440860215,0.409736585022686,3.83333333333333,3.88709677419355,60,62,"German",0.175,240,2.3875,2.78242677824268,1.36401673640167,2.17798117154812
"187","Suchotzki","commandments condition permaa",0.183333333333334,0.361253050476176,3.83333333333333,3.65,60,60,"German",0.175,240,2.3875,2.78242677824268,1.36401673640167,2.17798117154812
"188","Suchotzki","difference",-0.00945494994438256,0.647997825766314,-0.0632183908045976,-0.053763440860215,118,122,"German",0.175,240,2.3875,2.78242677824268,1.36401673640167,2.17798117154812
"189","Suchotzki","difference permaa",-0.0772727272727272,0.598416709922976,0.106060606060606,0.183333333333334,118,122,"German",0.175,240,2.3875,2.78242677824268,1.36401673640167,2.17798117154812
"190","Suchotzki","self report vs external check",0.204710144927536,0.284325039321586,3.89166666666667,3.68695652173913,120,120,"German",0.175,240,2.3875,2.78242677824268,1.36401673640167,2.17798117154812
"191","Sutan","10 commandments effect",0.0212981744421912,0.411802242345741,4.67647058823529,4.6551724137931,34,87,"english",0.51,300,2.23745819397993,2.56333333333333,2.00333333333333,2.26804162021553
"192","Sutan","control condition",-0.27790375409423,0.350210545526727,4.26530612244898,4.54320987654321,98,81,"english",0.51,300,2.23745819397993,2.56333333333333,2.00333333333333,2.26804162021553
"193","Sutan","control condition permaa",-0.502963917525773,0.315277334897893,3.48453608247423,3.9875,97,80,"english",0.51,300,2.23745819397993,2.56333333333333,2.00333333333333,2.26804162021553
"194","Sutan","cheating",0.111962537249894,0.343527972450975,4.6551724137931,4.54320987654321,87,81,"english",0.51,300,2.23745819397993,2.56333333333333,2.00333333333333,2.26804162021553
"195","Sutan","cheating permaa",0.667672413793103,0.327344870311267,4.6551724137931,3.9875,87,80,"english",0.51,300,2.23745819397993,2.56333333333333,2.00333333333333,2.26804162021553
"196","Sutan","commandments condition",0.411164465786315,0.417393154163829,4.67647058823529,4.26530612244898,34,98,"english",0.51,300,2.23745819397993,2.56333333333333,2.00333333333333,2.26804162021553
"197","Sutan","commandments condition permaa",1.19193450576107,0.402276298807422,4.67647058823529,3.48453608247423,34,97,"english",0.51,300,2.23745819397993,2.56333333333333,2.00333333333333,2.26804162021553
"198","Sutan","difference",-0.299201928536421,0.540581643231721,0.111962537249894,0.411164465786315,168,132,"english",0.51,300,2.23745819397993,2.56333333333333,2.00333333333333,2.26804162021553
"199","Sutan","difference permaa",-0.524262091967964,0.518633671006134,0.667672413793103,1.19193450576107,168,132,"english",0.51,300,2.23745819397993,2.56333333333333,2.00333333333333,2.26804162021553
"200","Sutan","self report vs external check",0.679197045734306,0.240140384213169,4.39106145251397,3.71186440677966,179,179,"english",0.51,300,2.23745819397993,2.56333333333333,2.00333333333333,2.26804162021553
"201","Tran","10 commandments effect",0.0968553459119494,0.548789278741802,3.83018867924528,3.73333333333333,53,45,"German",0.198952879581152,191,1.86772486772487,2.31914893617021,1.43085106382979,1.87257495590829
"202","Tran","control condition",-0.98968105065666,0.609105287146011,3.96153846153846,4.95121951219512,52,41,"German",0.198952879581152,191,1.86772486772487,2.31914893617021,1.43085106382979,1.87257495590829
"203","Tran","control condition permaa",0.122420262664165,0.490268166338376,3.63461538461538,3.51219512195122,52,41,"German",0.198952879581152,191,1.86772486772487,2.31914893617021,1.43085106382979,1.87257495590829
"204","Tran","cheating",-1.21788617886179,0.622314093041425,3.73333333333333,4.95121951219512,45,41,"German",0.198952879581152,191,1.86772486772487,2.31914893617021,1.43085106382979,1.87257495590829
"205","Tran","cheating permaa",0.221138211382114,0.496003654384715,3.73333333333333,3.51219512195122,45,41,"German",0.198952879581152,191,1.86772486772487,2.31914893617021,1.43085106382979,1.87257495590829
"206","Tran","commandments condition",-0.131349782293179,0.533764079807924,3.83018867924528,3.96153846153846,53,52,"German",0.198952879581152,191,1.86772486772487,2.31914893617021,1.43085106382979,1.87257495590829
"207","Tran","commandments condition permaa",0.195573294629898,0.543611002669877,3.83018867924528,3.63461538461538,53,52,"German",0.198952879581152,191,1.86772486772487,2.31914893617021,1.43085106382979,1.87257495590829
"208","Tran","difference",-1.08653639656861,0.819865186046567,-1.21788617886179,-0.131349782293179,86,105,"German",0.198952879581152,191,1.86772486772487,2.31914893617021,1.43085106382979,1.87257495590829
"209","Tran","difference permaa",0.0255649167522156,0.735888950444795,0.221138211382114,0.195573294629898,86,105,"German",0.198952879581152,191,1.86772486772487,2.31914893617021,1.43085106382979,1.87257495590829
"210","Tran","self report vs external check",0.817204301075269,0.378681049757437,4.39784946236559,3.58064516129032,93,93,"German",0.198952879581152,191,1.86772486772487,2.31914893617021,1.43085106382979,1.87257495590829
"211","Vanpaemel","10 commandments effect",0.166464891041162,0.363631586037094,3.60714285714286,3.4406779661017,56,59,"Dutch",0.215859030837004,227,1.94690265486726,1.92,1.49115044247788,1.78601769911504
"212","Vanpaemel","control condition",0.516469459545891,0.403402306822772,3.24528301886792,2.72881355932203,53,59,"Dutch",0.215859030837004,227,1.94690265486726,1.92,1.49115044247788,1.78601769911504
"213","Vanpaemel","control condition permaa",0.461464662615926,0.404819546303748,3.0377358490566,2.57627118644068,53,59,"Dutch",0.215859030837004,227,1.94690265486726,1.92,1.49115044247788,1.78601769911504
"214","Vanpaemel","cheating",0.711864406779661,0.39658219466047,3.4406779661017,2.72881355932203,59,59,"Dutch",0.215859030837004,227,1.94690265486726,1.92,1.49115044247788,1.78601769911504
"215","Vanpaemel","cheating permaa",0.864406779661017,0.399791424485884,3.4406779661017,2.57627118644068,59,59,"Dutch",0.215859030837004,227,1.94690265486726,1.92,1.49115044247788,1.78601769911504
"216","Vanpaemel","commandments condition",0.361859838274933,0.371057831600509,3.60714285714286,3.24528301886792,56,53,"Dutch",0.215859030837004,227,1.94690265486726,1.92,1.49115044247788,1.78601769911504
"217","Vanpaemel","commandments condition permaa",0.569407008086253,0.369152559710714,3.60714285714286,3.0377358490566,56,53,"Dutch",0.215859030837004,227,1.94690265486726,1.92,1.49115044247788,1.78601769911504
"218","Vanpaemel","difference",0.350004568504729,0.543103444579195,0.711864406779661,0.361859838274933,118,109,"Dutch",0.215859030837004,227,1.94690265486726,1.92,1.49115044247788,1.78601769911504
"219","Vanpaemel","difference permaa",0.294999771574764,0.544156958453556,0.864406779661017,0.569407008086253,118,109,"Dutch",0.215859030837004,227,1.94690265486726,1.92,1.49115044247788,1.78601769911504
"220","Vanpaemel","self report vs external check",0.178571428571428,0.285480418281681,2.97321428571429,2.79464285714286,112,112,"Dutch",0.215859030837004,227,1.94690265486726,1.92,1.49115044247788,1.78601769911504
"221","Verschuere","10 commandments effect",0.183650362318841,0.372767970760764,3.734375,3.55072463768116,64,69,"Dutch",0.309433962264151,265,1.62264150943396,1.84528301886792,1.37358490566038,1.61383647798742
"222","Verschuere","control condition",0.318181818181818,0.338407031642036,3.60606060606061,3.28787878787879,66,66,"Dutch",0.309433962264151,265,1.62264150943396,1.84528301886792,1.37358490566038,1.61383647798742
"223","Verschuere","control condition permaa",0.348484848484849,0.343091949619784,3.5,3.15151515151515,66,66,"Dutch",0.309433962264151,265,1.62264150943396,1.84528301886792,1.37358490566038,1.61383647798742
"224","Verschuere","cheating",0.262845849802371,0.334459155204441,3.55072463768116,3.28787878787879,69,66,"Dutch",0.309433962264151,265,1.62264150943396,1.84528301886792,1.37358490566038,1.61383647798742
"225","Verschuere","cheating permaa",0.399209486166008,0.337565153907849,3.55072463768116,3.15151515151515,69,66,"Dutch",0.309433962264151,265,1.62264150943396,1.84528301886792,1.37358490566038,1.61383647798742
"226","Verschuere","commandments condition",0.128314393939394,0.376314167405112,3.734375,3.60606060606061,64,66,"Dutch",0.309433962264151,265,1.62264150943396,1.84528301886792,1.37358490566038,1.61383647798742
"227","Verschuere","commandments condition permaa",0.234375,0.377780111686907,3.734375,3.5,64,66,"Dutch",0.309433962264151,265,1.62264150943396,1.84528301886792,1.37358490566038,1.61383647798742
"228","Verschuere","difference",0.134531455862977,0.503463284748621,0.262845849802371,0.128314393939394,135,130,"Dutch",0.309433962264151,265,1.62264150943396,1.84528301886792,1.37358490566038,1.61383647798742
"229","Verschuere","difference permaa",0.164834486166008,0.506624166339311,0.399209486166008,0.234375,135,130,"Dutch",0.309433962264151,265,1.62264150943396,1.84528301886792,1.37358490566038,1.61383647798742
"230","Verschuere","self report vs external check",0.121212121212121,0.240914146453064,3.4469696969697,3.32575757575758,132,132,"Dutch",0.309433962264151,265,1.62264150943396,1.84528301886792,1.37358490566038,1.61383647798742
"231","Wick","10 commandments effect",-0.0932958274730429,0.491001086673005,3.18518518518519,3.27848101265823,81,79,"English",0.586826347305389,334,3.90577507598784,4.70694864048338,3.1566265060241,3.92311674083177
"232","Wick","control condition",0.510317460317461,0.422026680137959,3.32142857142857,2.81111111111111,84,90,"English",0.586826347305389,334,3.90577507598784,4.70694864048338,3.1566265060241,3.92311674083177
"233","Wick","control condition permaa",0.32904953145917,0.290780910793589,2.37349397590361,2.04444444444444,83,90,"English",0.586826347305389,334,3.90577507598784,4.70694864048338,3.1566265060241,3.92311674083177
"234","Wick","cheating",0.467369901547117,0.499003501317345,3.27848101265823,2.81111111111111,79,90,"English",0.586826347305389,334,3.90577507598784,4.70694864048338,3.1566265060241,3.92311674083177
"235","Wick","cheating permaa",1.23403656821378,0.451182291082896,3.27848101265823,2.04444444444444,79,90,"English",0.586826347305389,334,3.90577507598784,4.70694864048338,3.1566265060241,3.92311674083177
"236","Wick","commandments condition",-0.136243386243386,0.41253374593525,3.18518518518519,3.32142857142857,81,84,"English",0.586826347305389,334,3.90577507598784,4.70694864048338,3.1566265060241,3.92311674083177
"237","Wick","commandments condition permaa",0.81169120928157,0.349385382363386,3.18518518518519,2.37349397590361,81,83,"English",0.586826347305389,334,3.90577507598784,4.70694864048338,3.1566265060241,3.92311674083177
"238","Wick","difference",0.603613287790504,0.647447747592297,0.467369901547117,-0.136243386243386,169,165,"English",0.586826347305389,334,3.90577507598784,4.70694864048338,3.1566265060241,3.92311674083177
"239","Wick","difference permaa",0.422345358932213,0.570644902891475,1.23403656821378,0.81169120928157,169,165,"English",0.586826347305389,334,3.90577507598784,4.70694864048338,3.1566265060241,3.92311674083177
"240","Wick","self report vs external check",0.855159125639493,0.25625169424828,3.05747126436782,2.20231213872832,174,174,"English",0.586826347305389,334,3.90577507598784,4.70694864048338,3.1566265060241,3.92311674083177
"241","Wiggins","10 commandments effect",0.191168693812798,0.359926948843003,2.33870967741935,2.14754098360656,62,61,"English",0.379166666666667,240,4.41176470588235,4.85654008438819,2.9535864978903,4.07396376272028
"242","Wiggins","control condition",0.481589713617767,0.430352332512965,2.41379310344828,1.93220338983051,58,59,"English",0.379166666666667,240,4.41176470588235,4.85654008438819,2.9535864978903,4.07396376272028
"243","Wiggins","control condition permaa",0.137931034482759,0.259375788166179,1.55172413793103,1.41379310344828,58,58,"English",0.379166666666667,240,4.41176470588235,4.85654008438819,2.9535864978903,4.07396376272028
"244","Wiggins","cheating",0.215337593776049,0.287544380351574,2.14754098360656,1.93220338983051,61,59,"English",0.379166666666667,240,4.41176470588235,4.85654008438819,2.9535864978903,4.07396376272028
"245","Wiggins","cheating permaa",0.733747880158282,0.281084622961212,2.14754098360656,1.41379310344828,61,58,"English",0.379166666666667,240,4.41176470588235,4.85654008438819,2.9535864978903,4.07396376272028
"246","Wiggins","commandments condition",-0.0750834260289208,0.481735163685414,2.33870967741935,2.41379310344828,62,58,"English",0.379166666666667,240,4.41176470588235,4.85654008438819,2.9535864978903,4.07396376272028
"247","Wiggins","commandments condition permaa",0.786985539488321,0.343241376767157,2.33870967741935,1.55172413793103,62,58,"English",0.379166666666667,240,4.41176470588235,4.85654008438819,2.9535864978903,4.07396376272028
"248","Wiggins","difference",0.29042101980497,0.561026326122744,0.215337593776049,-0.0750834260289208,120,120,"English",0.379166666666667,240,4.41176470588235,4.85654008438819,2.9535864978903,4.07396376272028
"249","Wiggins","difference permaa",-0.053237659330039,0.443647616910381,0.733747880158282,0.786985539488321,120,120,"English",0.379166666666667,240,4.41176470588235,4.85654008438819,2.9535864978903,4.07396376272028
"250","Wiggins","self report vs external check",0.688181550250516,0.250172998644558,2.17094017094017,1.48275862068966,117,117,"English",0.379166666666667,240,4.41176470588235,4.85654008438819,2.9535864978903,4.07396376272028
