datetime,subjID,sex,prime_code,prime_condition,prime_response,triv1_raw,triv1_correct,triv2_raw,triv2_correct,triv3_raw,triv3_correct,triv4_raw,triv4_correct,triv5_raw,triv5_correct,triv6_raw,triv6_correct,triv7_raw,triv7_correct,triv8_raw,triv8_correct,triv9_raw,triv9_correct,triv10_raw,triv10_correct,triv11_raw,triv11_correct,triv12_raw,triv12_correct,triv13_raw,triv13_correct,triv14_raw,triv14_correct,triv15_raw,triv15_correct,triv16_raw,triv16_correct,triv17_raw,triv17_correct,triv18_raw,triv18_correct,triv19_raw,triv19_correct,triv20_raw,triv20_correct,triv21_raw,triv21_correct,triv22_raw,triv22_correct,triv23_raw,triv23_correct,triv24_raw,triv24_correct,triv25_raw,triv25_correct,triv26_raw,triv26_correct,triv27_raw,triv27_correct,triv28_raw,triv28_correct,triv29_raw,triv29_correct,triv30_raw,triv30_correct,age,major,language,sex_r,year,area_writing,area_trivia,purpose,link_yn,link_text,thinking_yn,thinking_text,comments,prior_hool,soccer hooligan_int_rating,soccer hooligan_acc_rating,professor_int_rating,professor_acc_rating
20170307-103219,026,Male,1,professor,"In my daily liife as a professor, my main goal will to be focused on my students because whatever knowledge i transfer to them is what they are going to transfer to the world. So they will be seen as a ""Reflction"" of me 

I believe the number 1 attribute a professor must have is patience and understanding because every student is different 

hobbies will be to learn more about the world",Zaire,False,ASCII,True,Capybara,True,Pluto,False,6,False,Pakistan,False,12,True,Sweeney Todd,False,Brass,False,Iceberg,False,Fronts,False,21,True,General Motors,True,90,False,Mercury,False,Mikhail Gorbachev,True,Underground,False,Blue Knight,False,Continental Shelf,True,Republic,False,Penicillin,True,Copper,False,Colorado River,False,In the throat,True,Belarus,False,Neptune,False,Handel,False,Air pressure,True,Collagen,False,Greece,False,19,Economics,English,male,1st year,Reserch to see how students view professors,STudents general Knowledge,"to for lack of a better word ""estimate"" what every student expects of their professor based on their major",yes,your idea of what a professor should be could be based on what course you do or what you have experience dso far in said course,no,,.,yes,60,5,81,8
