datetime,subjID,sex,prime_code,prime_condition,prime_response,triv1_raw,triv1_correct,triv2_raw,triv2_correct,triv3_raw,triv3_correct,triv4_raw,triv4_correct,triv5_raw,triv5_correct,triv6_raw,triv6_correct,triv7_raw,triv7_correct,triv8_raw,triv8_correct,triv9_raw,triv9_correct,triv10_raw,triv10_correct,triv11_raw,triv11_correct,triv12_raw,triv12_correct,triv13_raw,triv13_correct,triv14_raw,triv14_correct,triv15_raw,triv15_correct,triv16_raw,triv16_correct,triv17_raw,triv17_correct,triv18_raw,triv18_correct,triv19_raw,triv19_correct,triv20_raw,triv20_correct,triv21_raw,triv21_correct,triv22_raw,triv22_correct,triv23_raw,triv23_correct,triv24_raw,triv24_correct,triv25_raw,triv25_correct,triv26_raw,triv26_correct,triv27_raw,triv27_correct,triv28_raw,triv28_correct,triv29_raw,triv29_correct,triv30_raw,triv30_correct,age,major,language,sex_r,year,area_writing,area_trivia,purpose,link_yn,link_text,thinking_yn,thinking_text,comments,prior_hool,professor_int_rating,professor_acc_rating,soccer hooligan_int_rating,soccer hooligan_acc_rating
20170307-165227,032,female,0,soccer hooligan,"if i am a soccer hooligan, i will watch the soccer game, and drink beer with my friends talk with them when we watch the soccer game together, and i may buy some soccer start poster stick on my room wall, i will practice my soccer skills and paly soccer with friends.
the typical soccer hooligan may watch soccer games.
characteristic, if i am a soccer hooligan, i may be kind of lazy, out of real life, cost much time in waitching soccer games.
hobbies: i guess ",Botswana,True,ASCII,True,Capybara,True,Earth,True,12,True,Pakistan,False,9,False,Guy Fawkes,True,Pewter,False,Iceberg,False,Isotherms,False,21,True,General Motors,True,180,True,Mars,False,Nikita Krushchev,False,In trees,True,Deep Blue,True,Continental Rise,False,Communist,False,X Rays,False,Iron,True,Rio Grande,True,In the throat,True,Siberia,True,Mars,False,Mozart,False,Air pressure,True,Keratin,True,Spain,False,21,"management
",chinese,female,3rd year,not complete,test people normal knowleage,"test the normal knowleage and how people feeling about one role which already had been told how the roles looks like in the question, test people will think independently or just follow the question",yes,"maybe, the more knowleage you have, the less independent the way you think",no,,there are some difficult word to understand,no,51,13,50.0,12
