datetime,subjID,sex,prime_code,prime_condition,prime_response,triv1_raw,triv1_correct,triv2_raw,triv2_correct,triv3_raw,triv3_correct,triv4_raw,triv4_correct,triv5_raw,triv5_correct,triv6_raw,triv6_correct,triv7_raw,triv7_correct,triv8_raw,triv8_correct,triv9_raw,triv9_correct,triv10_raw,triv10_correct,triv11_raw,triv11_correct,triv12_raw,triv12_correct,triv13_raw,triv13_correct,triv14_raw,triv14_correct,triv15_raw,triv15_correct,triv16_raw,triv16_correct,triv17_raw,triv17_correct,triv18_raw,triv18_correct,triv19_raw,triv19_correct,triv20_raw,triv20_correct,triv21_raw,triv21_correct,triv22_raw,triv22_correct,triv23_raw,triv23_correct,triv24_raw,triv24_correct,triv25_raw,triv25_correct,triv26_raw,triv26_correct,triv27_raw,triv27_correct,triv28_raw,triv28_correct,triv29_raw,triv29_correct,triv30_raw,triv30_correct,age,major,language,sex_r,year,area_writing,area_trivia,purpose,link_yn,link_text,thinking_yn,thinking_text,comments,prior_hool,professor_int_rating,professor_acc_rating,soccer-hooligan_int_rating,soccer-hooligan_acc_rating
20170119-153254,75,male,0,soccer-hooligan,"As a soccer hooligan in my daily life I am drinking from dawn to dusk. As one I go to all of the games that my team plays no matter what. My personality traits  is that of rude self center and I do not care about anyone else. My passions is very simple, the game of soccer. I enjoy watching it even though I tend to get very loud and angry when my team looses. My team is everything if they win i am happy if they lose it is the end of the wo",Uganda,False,HTML,False,Capybara,True,Earth,True,12,True,India,True,Foot,False,Guy Fawkes,True,0,False,Wave,True,Isobars,True,21,True,General Motors,True,180,True,Venus,True,Mikhail Gorbachev,True,Radiation,True,Deep Thought,False,Continental Shelf,True,Fascist,True,Penicillin,True,Salvador Dali,False,Colorado River,False,In the throat,True,Siberia,True,Jupiter,True,Tchaikovsky,True,Air pressure,True,Keratin,True,France,True,22,Intergrated Social Studies ,English,male,1st year,Yes ,Yes,the first was to see how fast someone can form an answer without given any much time and to role play. the second was to see random knowlege and what area of knowlege was most known ,yes,No Idea ,no,,"nope
",no,90,18,30,10
