datetime,subjID,sex,prime_code,prime_condition,prime_response,triv1_raw,triv1_correct,triv2_raw,triv2_correct,triv3_raw,triv3_correct,triv4_raw,triv4_correct,triv5_raw,triv5_correct,triv6_raw,triv6_correct,triv7_raw,triv7_correct,triv8_raw,triv8_correct,triv9_raw,triv9_correct,triv10_raw,triv10_correct,triv11_raw,triv11_correct,triv12_raw,triv12_correct,triv13_raw,triv13_correct,triv14_raw,triv14_correct,triv15_raw,triv15_correct,triv16_raw,triv16_correct,triv17_raw,triv17_correct,triv18_raw,triv18_correct,triv19_raw,triv19_correct,triv20_raw,triv20_correct,triv21_raw,triv21_correct,triv22_raw,triv22_correct,triv23_raw,triv23_correct,triv24_raw,triv24_correct,triv25_raw,triv25_correct,triv26_raw,triv26_correct,triv27_raw,triv27_correct,triv28_raw,triv28_correct,triv29_raw,triv29_correct,triv30_raw,triv30_correct,age,major,language,sex_r,year,area_writing,area_trivia,purpose,link_yn,link_text,thinking_yn,thinking_text,comments,prior_hool,professor_int_rating,professor_acc_rating,soccer-hooligan_int_rating,soccer-hooligan_acc_rating
20161018-103335,8,male,0,soccer-hooligan,As i soccer hooligan I would have an average day job that doesn't pay extremely well but pays well enough to get by. Since I have an average job I would work average hours something like a 9-5. After work I would spend my time at a bar or a buddies or in the comfort of my own home while drinking some type of alcohol. When I am not watching live soccer I am playing Fifa on an Xbox one. I am on a recreational soccer team that plays every sunday after one. Sunday at one is usually football time but since I am a soccer fan I don't care. I am very arrogant and often don't understand my place in society. I wear preppy clothes because i went to a private school. I have friends from soccer but other than that my relationships are very thin.,Botswana,True,ASCII,True,Muskrat,False,Earth,True,12,True,India,True,Arm,True,Sweeney Todd,False,Solder,False,Wave,True,0,False,21,True,Ford,False,180,True,Venus,True,Nikita Krushchev,False,Radiation,True,Blue Knight,False,Continental Slope,False,Fascist,True,X Rays,False,Salvador Dali,False,Rio Grande,True,In the spine,False,Ukraine,False,Jupiter,True,Beethoven,False,Air pressure,True,Keratin,True,France,True,18,Marketing,English,male,1st year,yes,yes,"To observe what others obsereve of a ""type of person"".
",yes,Someone who answered better on the general knowledge may have a higher or lower sense of what a soccer hooligan is.,no,,"No
",no,70,21,40,10
