datetime,subjID,sex,prime_code,prime_condition,prime_response,triv1_raw,triv1_correct,triv2_raw,triv2_correct,triv3_raw,triv3_correct,triv4_raw,triv4_correct,triv5_raw,triv5_correct,triv6_raw,triv6_correct,triv7_raw,triv7_correct,triv8_raw,triv8_correct,triv9_raw,triv9_correct,triv10_raw,triv10_correct,triv11_raw,triv11_correct,triv12_raw,triv12_correct,triv13_raw,triv13_correct,triv14_raw,triv14_correct,triv15_raw,triv15_correct,triv16_raw,triv16_correct,triv17_raw,triv17_correct,triv18_raw,triv18_correct,triv19_raw,triv19_correct,triv20_raw,triv20_correct,triv21_raw,triv21_correct,triv22_raw,triv22_correct,triv23_raw,triv23_correct,triv24_raw,triv24_correct,triv25_raw,triv25_correct,triv26_raw,triv26_correct,triv27_raw,triv27_correct,triv28_raw,triv28_correct,triv29_raw,triv29_correct,triv30_raw,triv30_correct,age,major,language,sex_r,year,area_writing,area_trivia,purpose,link_yn,link_text,thinking_yn,thinking_text,comments,prior_hool,professor_int_rating,professor_acc_rating,soccer-hooligan_int_rating,soccer-hooligan_acc_rating
20170202-151324,99,female,0,soccer-hooligan,"In my daily life, I play alot of soccer and drink alot of beer.I personally think that my modest reputation excedes  me just as much as my big muscles and short frat boy shorts do. If you haven't been to one of my soccer games yet you are missing out, my bicycle kick is unlike any other. My typical passions and hobbies are playing soccer, getting drunk and scoring obviously.In my free time you can usually find me on the feild or with some friends at a kegger about to ",Botswana,True,HTML,False,Muskrat,False,Pluto,False,12,True,Bangladesh,False,Arm,True,Sweeney Todd,False,Brass,False,Wave,True,Fronts,False,21,True,General Motors,True,360,False,Mercury,False,Alexander Popov,False,Temperature,False,Blue Knight,False,Continental Shelf,True,Fascist,True,Penicillin,True,Pablo Picasso,True,Rio Grande,True,In the throat,True,Siberia,True,Saturn,False,Tchaikovsky,True,Air pressure,True,Keratin,True,France,True,18,Nursing,English,female,1st year,yes,yes,A basic knowleadge quiz.,yes,"You would think that the hooligan doesn't know the information.
",no,,no,no,88,22,50.0,15.0
