"means","se","ci_l","ci_u","authors","class","class_n","n1","n2","mean1","mean2","group_priority","shape"
-1.45214285714286,0.591693389172426,-2.61184058981125,-0.292445124474459,"Original result","10 commandments effect",1,56,50,2.76785714285714,4.22,1.5,17
0.220588235294118,0.625994384420755,-1.00633821269488,1.44751468328312,"Acar","10 commandments effect",1,34,44,3.97058823529412,3.75,2,15
-0.262626262626263,0.486479215558989,-1.21610800434918,0.690855479096653,"Aczel","10 commandments effect",1,55,54,3.18181818181818,3.44444444444444,2,15
0.256775067750677,0.620437216640913,-0.959259531533787,1.47280966703514,"Baskin","10 commandments effect",1,36,41,3.30555555555556,3.04878048780488,2,15
0.405082787832114,0.503680181951943,-0.582112228520276,1.3922778041845,"Birt","10 commandments effect",1,53,49,3.0377358490566,2.63265306122449,2,15
1.06562137049942,0.761522107600156,-0.426934533827922,2.55817727482676,"Blatz","10 commandments effect",1,42,41,4.30952380952381,3.24390243902439,2,15
0.847401522674611,0.500634925111887,-0.133824899947595,1.82862794529682,"Evans","10 commandments effect",1,53,57,3.07547169811321,2.2280701754386,2,15
-0.185185185185185,0.486073826983443,-1.13787237990029,0.767502009529917,"Ferreira-Santos","10 commandments effect",1,51,54,2.66666666666667,2.85185185185185,2,15
0.258934169278997,0.523201068328029,-0.76652108131682,1.28438941987481,"González-Iraizoz","10 commandments effect",1,55,58,3.67272727272727,3.41379310344828,2,15
1.11041666666667,0.719622019001671,-0.300016573058604,2.52084990639194,"Holzmeister","10 commandments effect",1,60,64,7.01666666666667,5.90625,2,15
-0.265424430641822,0.430728990971671,-1.10963774004358,0.578788878759931,"klein Selle & Rozmann","10 commandments effect",1,70,69,3.31428571428571,3.57971014492754,2,15
0.387096774193548,0.399811029892479,-0.396518445017578,1.17071199340467,"Koppel","10 commandments effect",1,62,62,3.11290322580645,2.7258064516129,2,15
-0.368697803897309,0.413563141841236,-1.17926666723936,0.441871059444743,"Laine","10 commandments effect",1,53,61,2.18867924528302,2.55737704918033,2,15
-0.107858243451464,0.384504027820965,-0.861472289891142,0.645755802988214,"Loschelder","10 commandments effect",1,59,55,3.98305084745763,4.09090909090909,2,15
0.573913043478261,0.737199256399229,-0.870970948493937,2.01879703545046,"McCarthy","10 commandments effect",1,50,46,3.4,2.82608695652174,2,15
-0.154761904761905,0.303515879182966,-0.749642096696529,0.440118287172719,"Meijer","10 commandments effect",1,84,84,3.02380952380952,3.17857142857143,2,15
1.18979266347687,0.600804982855035,0.012236535348797,2.36734879160494,"Özdoğru","10 commandments effect",1,38,66,4.44736842105263,3.25757575757576,2,15
0.757504690431519,0.383022637205305,0.00679411624557003,1.50821526461747,"Pennington","10 commandments effect",1,41,52,2.85365853658537,2.09615384615385,2,15
0.359329140461216,0.468367665933548,-0.558654616291626,1.27731289721406,"Roets","10 commandments effect",1,45,53,3.75555555555556,3.39622641509434,2,15
0,0.472601487222636,-0.926281893996433,0.926281893996433,"Suchotzki","10 commandments effect",1,60,60,3.83333333333333,3.83333333333333,2,15
0.0212981744421912,0.411802242345741,-0.785819389308296,0.828415738192679,"Sutan","10 commandments effect",1,34,87,4.67647058823529,4.6551724137931,2,15
0.0968553459119494,0.548789278741802,-0.978751875523695,1.17246256734759,"Tran","10 commandments effect",1,53,45,3.83018867924528,3.73333333333333,2,15
0.166464891041162,0.363631586037094,-0.54623992123272,0.879169703315044,"Vanpaemel","10 commandments effect",1,56,59,3.60714285714286,3.4406779661017,2,15
0.183650362318841,0.372767970760764,-0.546961434962336,0.914262159600018,"Verschuere","10 commandments effect",1,64,69,3.734375,3.55072463768116,2,15
-0.0932958274730429,0.491001086673005,-1.05564027372216,0.869048618776076,"Wick","10 commandments effect",1,81,79,3.18518518518519,3.27848101265823,2,15
0.191168693812798,0.359926948843003,-0.514275162984878,0.896612550610474,"Wiggins","10 commandments effect",1,62,61,2.33870967741935,2.14754098360656,2,15
0.174095659528349,0.0911861919189844,-0.00462599252021745,0.352817311576916,"Meta-analytic average for 
10 commandments effect","summary",0,1351,1470,3.58085881303277,3.31469705537165,3,18
