"means","se","ci_l","ci_u","authors","class","class_n","n1","n2","mean1","mean2","group_priority","shape"
0.053174603174603,0.426221391292083,-0.782203973198433,0.888553179547639,"Original result","control condition",1,60,63,3.11666666666667,3.06349206349206,1.5,17
-0.0944444444444446,0.491670891864601,-1.05810168474575,0.869212795856861,"Acar","control condition",1,40,45,3.55,3.64444444444444,2,15
0.171836007130125,0.387128240849924,-0.586921402334074,0.930593416594324,"Aczel","control condition",1,55,51,2.30909090909091,2.13725490196078,2,15
0.335947712418301,0.446676180006157,-0.539521513145697,1.2114169379823,"Baskin","control condition",1,45,51,2.35555555555556,2.01960784313725,2,15
0.0418552036199096,0.354632097299542,-0.653210934849097,0.736921342088916,"Birt","control condition",1,52,51,1.86538461538462,1.82352941176471,2,15
-0.428520499108734,0.346772160428285,-1.10818144438932,0.25114044617185,"Blatz","control condition",1,51,55,2.6078431372549,3.03636363636364,2,15
-0.103030303030303,0.293760308793397,-0.678789928352726,0.47272932229212,"Evans","control condition",1,55,66,1.56363636363636,1.66666666666667,2,15
0.4,0.390637175134936,-0.36563479428694,1.16563479428694,"Ferreira-Santos","control condition",1,50,56,2.4,2,2,15
-0.00775510204081664,0.37013364764348,-0.733203720888476,0.717693516806843,"González-Iraizoz","control condition",1,50,49,2.38,2.38775510204082,2,15
-0.146892655367231,0.532487665008279,-1.19054930099529,0.896763990260825,"Holzmeister","control condition",1,59,63,4.1864406779661,4.33333333333333,2,15
-0.568327195192867,0.30748407260755,-1.17098490332336,0.0343305129376299,"klein Selle & Rozmann","control condition",1,67,77,2.22388059701493,2.79220779220779,2,15
-0.365231259968102,0.325062242222854,-1.00234154745873,0.271879027522527,"Koppel","control condition",1,55,57,2.09090909090909,2.45614035087719,2,15
0.163979416809606,0.32156763599846,-0.466281568341061,0.794240401960273,"Laine","control condition",1,53,55,1.50943396226415,1.34545454545455,2,15
-0.700425531914893,0.461517974374517,-1.60498413990683,0.20413307607704,"Loschelder","control condition",1,50,47,3.64,4.34042553191489,2,15
-0.738643844634628,0.414893135147245,-1.55181944695614,0.0745317576868815,"McCarthy","control condition",1,31,49,1.32258064516129,2.06122448979592,2,15
-0.0429570429570432,0.316508770988593,-0.663302834885721,0.577388748971635,"Meijer","control condition",1,77,91,3.07792207792208,3.12087912087912,2,15
-0.315049226441631,0.418679446005501,-1.1356458616796,0.505547408796333,"Özdoğru","control condition",1,54,79,2.44444444444444,2.75949367088608,2,15
0.0125925925925925,0.374487656249939,-0.721389726312104,0.746574911497289,"Pennington","control condition",1,50,54,2.92,2.90740740740741,2,15
-0.25531914893617,0.388565479997332,-1.01689349536646,0.506255197494119,"Roets","control condition",1,47,47,2.85106382978723,3.1063829787234,2,15
-0.0772727272727272,0.367083632146671,-0.796743425594352,0.642197971048898,"Suchotzki","control condition",1,60,55,3.65,3.72727272727273,2,15
-0.502963917525773,0.315277334897893,-1.12089613906742,0.11496830401587,"Sutan","control condition",1,97,80,3.48453608247423,3.9875,2,15
0.122420262664165,0.490268166338376,-0.838487686125544,1.08332821145387,"Tran","control condition",1,52,41,3.63461538461538,3.51219512195122,2,15
0.461464662615926,0.404819546303748,-0.331967068377265,1.25489639360912,"Vanpaemel","control condition",1,53,59,3.0377358490566,2.57627118644068,2,15
0.348484848484849,0.343091949619784,-0.323963016155558,1.02093271312526,"Verschuere","control condition",1,66,66,3.5,3.15151515151515,2,15
0.32904953145917,0.290780910793589,-0.240870581088019,0.898969644006359,"Wick","control condition",1,83,90,2.37349397590361,2.04444444444444,2,15
0.137931034482759,0.259375788166179,-0.370436168784642,0.64629823775016,"Wiggins","control condition",1,58,58,1.55172413793103,1.41379310344828,2,15
-0.0652381278555605,0.0718620307559494,-0.206085119993131,0.0756088642820098,"Meta-analytic average for 
control condition","summary",0,1410,1492,2.6612116534549,2.73406251851722,3,18
