datetime,subjID,sex,prime_code,prime_condition,prime_response,triv1_raw,triv1_correct,triv2_raw,triv2_correct,triv3_raw,triv3_correct,triv4_raw,triv4_correct,triv5_raw,triv5_correct,triv6_raw,triv6_correct,triv7_raw,triv7_correct,triv8_raw,triv8_correct,triv9_raw,triv9_correct,triv10_raw,triv10_correct,triv11_raw,triv11_correct,triv12_raw,triv12_correct,triv13_raw,triv13_correct,triv14_raw,triv14_correct,triv15_raw,triv15_correct,triv16_raw,triv16_correct,triv17_raw,triv17_correct,triv18_raw,triv18_correct,triv19_raw,triv19_correct,triv20_raw,triv20_correct,triv21_raw,triv21_correct,triv22_raw,triv22_correct,triv23_raw,triv23_correct,triv24_raw,triv24_correct,triv25_raw,triv25_correct,triv26_raw,triv26_correct,triv27_raw,triv27_correct,triv28_raw,triv28_correct,triv29_raw,triv29_correct,triv30_raw,triv30_correct,age,major,language,sex_r,year,area_writing,area_trivia,purpose,link_yn,link_text,thinking_yn,thinking_text,comments,prior_hool,profesor universitario_int_rating,profesor universitario_acc_rating,barrista de fútbol_int_rating,barrista de fútbol_acc_rating
20161123-104808,340, Male,0,barrista de fútbol,"En mi vida diaria, no estaria comprometido totalmente con el hogar y sus quehaceres, ademas de querer estar siempre entretenido ya sea con los amigos o viendo un partido.

Mis actividades tipicas serian salir con mis amigos, tomar con ellos y estar pendiente del progreso de mi equipo de futbol favorito.

Como barrista soy recochero, pero un poco maleducado y no tengo en cuenta la opinion de los demas en muchas ocasiones.

Mis hobbies son mirar los partidos de futbol y pasar el rato con mis amigos.",Uganda,False,ASCII,True,Castor,False,La Tierra,True,12,True,Pakistan,False,Brazo,True,Guy Fawkes,True,Soldadura,False,Iceberg,False,Isobaras,True,21,True,Chrysler,False,180,True,Venus,True,Alexander Popov,False,Presión,False,Blue Knight,False,Plataforma continental,True,Fascista,True,Penicilina,True,Pablo Picasso,True,Río Grande,True,En la garganta,True,Bielorrusia,False,Júpiter,True,Beethoven,False,Presión atmosférica,True,Queratina,True,España,False,Español,masculino,primer año,Psicologia,17,Psicologia social.,Psicologia cognitiva.,El proposito es evaluar el desarrollo del ser social.,sí,El conocimiento general de un barrista no es tan amplio.,no,,Es interesante los metodos de evaluacion que se usan.,sí,70,23,40,8
