datetime,subjID,sex,prime_code,prime_condition,prime_response,triv1_raw,triv1_correct,triv2_raw,triv2_correct,triv3_raw,triv3_correct,triv4_raw,triv4_correct,triv5_raw,triv5_correct,triv6_raw,triv6_correct,triv7_raw,triv7_correct,triv8_raw,triv8_correct,triv9_raw,triv9_correct,triv10_raw,triv10_correct,triv11_raw,triv11_correct,triv12_raw,triv12_correct,triv13_raw,triv13_correct,triv14_raw,triv14_correct,triv15_raw,triv15_correct,triv16_raw,triv16_correct,triv17_raw,triv17_correct,triv18_raw,triv18_correct,triv19_raw,triv19_correct,triv20_raw,triv20_correct,triv21_raw,triv21_correct,triv22_raw,triv22_correct,triv23_raw,triv23_correct,triv24_raw,triv24_correct,triv25_raw,triv25_correct,triv26_raw,triv26_correct,triv27_raw,triv27_correct,triv28_raw,triv28_correct,triv29_raw,triv29_correct,triv30_raw,triv30_correct,age,major,language,sex_r,year,area_writing,area_trivia,purpose,link_yn,link_text,thinking_yn,thinking_text,comments,prior_hool,professor_int_rating,professor_acc_rating,fotbollshuligan_int_rating,fotbollshuligan_acc_rating
20161213-153554,76,M,0,fotbollshuligan,"Aktiviteter: Jag  gillar uppenbarligen fotboll. Men än mer är det nog allt runtom som lockar mig mest - att dricka, provocera och få känna att man ändå är en del av en grupp som ändå är likasinnade. Livet handlar dock inte bara om fotboll. Vid sidan om kan jag ha helt normala aktiviteter - det är endast de personer jag är med vid en fotbollsmatch som får mig att bli en huligan. Hemma är jag en helt annan person, jag har en familj jag älskar som vilken annan papppa som helst. Dock är jag ung, och har inte insett att huliganismen kan skada mitt andra liv som ""vanlig"" människa. ",Zimbabwe,False,HTML,False,Bäver,False,Mars,False,6,False,Filippinerna,False,Arm,True,Guy Fawkes,True,Brons,True,Våg,True,Fronter,False,21,True,Ford,False,180,True,Mars,False,Nikita Krushchev,False,Strålning,True,Blue Knight,False,Kontinentalsockel,True,Fascistisk,True,Penicillin,True,Pablo Picasso,True,Coloradofloden,False,I halsen,True,Sibirien,True,Saturnus,False,Beethoven,False,Lufttryck,True,Keratin,True,Frankrike,True,20,man,"Ekonomi
",svenska,1a året,Hur man är och beter sig som huligan	,nivå 5,"Skulle gissa att syftet med skrivuppgiften var att ta reda på hur samhället trot att vissa grupper av människor beter sig, samt vade de tycker om dem. Gällande kunskapstestet gissar jag på att mäta en generell kunskapsnivå. ",ja,Olika typer av svar i fotbollshuligansfrågan tror jag är sammankopplade med olika nivåer av rätta svar på kunskapsfrågorna. ,nej,,nej.,ja,80,23,35,8
