datetime,subjID,sex,prime_code,prime_condition,prime_response,triv1_raw,triv1_correct,triv2_raw,triv2_correct,triv3_raw,triv3_correct,triv4_raw,triv4_correct,triv5_raw,triv5_correct,triv6_raw,triv6_correct,triv7_raw,triv7_correct,triv8_raw,triv8_correct,triv9_raw,triv9_correct,triv10_raw,triv10_correct,triv11_raw,triv11_correct,triv12_raw,triv12_correct,triv13_raw,triv13_correct,triv14_raw,triv14_correct,triv15_raw,triv15_correct,triv16_raw,triv16_correct,triv17_raw,triv17_correct,triv18_raw,triv18_correct,triv19_raw,triv19_correct,triv20_raw,triv20_correct,triv21_raw,triv21_correct,triv22_raw,triv22_correct,triv23_raw,triv23_correct,triv24_raw,triv24_correct,triv25_raw,triv25_correct,triv26_raw,triv26_correct,triv27_raw,triv27_correct,triv28_raw,triv28_correct,triv29_raw,triv29_correct,triv30_raw,triv30_correct,age,major,language,sex_r,year,area_writing,area_trivia,purpose,link_yn,link_text,thinking_yn,thinking_text,comments,prior_hool,soccer hooligan_int_rating,soccer hooligan_acc_rating,professor_int_rating,professor_acc_rating
20170316-154849,106,male,1,professor,"My daily life is quite routined - as a professor, I am constantly teaching during the daytime. My breaks can quite often be limited, either strictly towards food or answering student enquiries. Outside of teaching hours, I try to balance spending time with family and friends, as well as time within the laboratory to examine the work of my pHD students. I aim to support them, as i was supported in my university days. As a university professor, i aim to be engaging, entertaining and enjoyable to listen to within my lectures. However, I also maintain a high teaching standard, which will often reflect through the detail of my slides (pre-prepared and revised) and my explanations. I care for my students, and will attempt to stay behind to answer any questions. My hobbies have been quite limited to work, but when i have free time i may indulge in sports, obviously family, and typically activities",Zaire,False,ASCII,True,Capybara,True,Earth,True,6,False,India,True,Arm,True,Guy Fawkes,True,Brass,False,Wave,True,Isobars,True,21,True,Ford,False,180,True,Venus,True,Alexander Popov,False,Pressure,False,Deep Blue,True,Continental Abyss,False,Fascist,True,Penicillin,True,Salvador Dali,False,Colorado River,False,In the throat,True,Belarus,False,Jupiter,True,Tchaikovsky,True,Air pressure,True,Keratin,True,France,True,19,Advanced Science (Neuroscience),English,male,2nd year,N/A (Cannot recall),Cognitive Psychology,"1) To discover what student's perceptions of professor's lives are, measuring with their expectations?

2) To link general knowledge ability towards alignment of degree?

if there is a singular purpose to both tasks, then, no idea",yes,no idea,no,,"not especially - the questions were very obscure general knowledge questions, which are always interesting. it sort of hurt my pride to not know a lot of them",no,50,18,80,18
