datetime,subjID,sex,prime_code,prime_condition,prime_response,triv1_raw,triv1_correct,triv2_raw,triv2_correct,triv3_raw,triv3_correct,triv4_raw,triv4_correct,triv5_raw,triv5_correct,triv6_raw,triv6_correct,triv7_raw,triv7_correct,triv8_raw,triv8_correct,triv9_raw,triv9_correct,triv10_raw,triv10_correct,triv11_raw,triv11_correct,triv12_raw,triv12_correct,triv13_raw,triv13_correct,triv14_raw,triv14_correct,triv15_raw,triv15_correct,triv16_raw,triv16_correct,triv17_raw,triv17_correct,triv18_raw,triv18_correct,triv19_raw,triv19_correct,triv20_raw,triv20_correct,triv21_raw,triv21_correct,triv22_raw,triv22_correct,triv23_raw,triv23_correct,triv24_raw,triv24_correct,triv25_raw,triv25_correct,triv26_raw,triv26_correct,triv27_raw,triv27_correct,triv28_raw,triv28_correct,triv29_raw,triv29_correct,triv30_raw,triv30_correct,age,major,language,sex_r,year,area_writing,area_trivia,purpose,link_yn,link_text,thinking_yn,thinking_text,comments,prior_hool,professor_int_rating,professor_acc_rating,soccer hooligan_int_rating,soccer hooligan_acc_rating
20170317-151507,121,male,0,soccer hooligan,"When I wake up, the first thing I do is check stats for the latest games that would have played out while i slept. I reckon i have the best head in the field when it comes to soccer. I really know my stats and can call if a team will win or not. It is my business to know the ins and outs of every pro and to keep an eye out for any upcoming talent. I do a bit of gambling on the side, earns me a fair bit of money. 

I really enjoy hanging out with my mates, having a bit of fun, kicking a ball around. Work is just earning money so I can enjoy a beer with my mates over a solid game of soccer. Ofcourse there's more to it than just the game itself. There's the thrill in that, but its more about getting really into it. I get a real kick out of working up the idiots who side against me. 

",Zimbabwe,False,ASCII,True,Beaver,False,Earth,True,15,False,Pakistan,False,Foot,False,Guy Fawkes,True,Brass,False,Wave,True,Isobars,True,21,True,Chrysler,False,360,False,Mars,False,Alexander Popov,False,Radiation,True,Deep Blue,True,Continental Shelf,True,Fascist,True,Stethoscope,False,Pablo Picasso,True,Colorado River,False,In the throat,True,Siberia,True,Jupiter,True,Tchaikovsky,True,Air pressure,True,Keratin,True,France,True,19,Electrical Engineering,English,male,2nd year,Social Psychology,Social Psychology,"2. Gain an understanding of the general knowledge of the public / of uni students.
1. Consider the capacity of individuals to empathise - and also a literary test. 
Some kind of Cross-sectional design test?",yes,A broader general knowledge likely links to a better capacity to empathise and write about the life of a soccer hooligan.,yes,I felt like I performed poorly in the soccer hooligan task and that played on my mind.,This keyboard won't let me hold down backspace... I couldn't write fast enough on the soccer hooligan task. The general knowledge questions (5) were really tough.,no,65,20,50.0,15.0
