datetime,subjID,sex,prime_code,prime_condition,prime_response,triv1_raw,triv1_correct,triv2_raw,triv2_correct,triv3_raw,triv3_correct,triv4_raw,triv4_correct,triv5_raw,triv5_correct,triv6_raw,triv6_correct,triv7_raw,triv7_correct,triv8_raw,triv8_correct,triv9_raw,triv9_correct,triv10_raw,triv10_correct,triv11_raw,triv11_correct,triv12_raw,triv12_correct,triv13_raw,triv13_correct,triv14_raw,triv14_correct,triv15_raw,triv15_correct,triv16_raw,triv16_correct,triv17_raw,triv17_correct,triv18_raw,triv18_correct,triv19_raw,triv19_correct,triv20_raw,triv20_correct,triv21_raw,triv21_correct,triv22_raw,triv22_correct,triv23_raw,triv23_correct,triv24_raw,triv24_correct,triv25_raw,triv25_correct,triv26_raw,triv26_correct,triv27_raw,triv27_correct,triv28_raw,triv28_correct,triv29_raw,triv29_correct,triv30_raw,triv30_correct,age,major,language,sex_r,year,area_writing,area_trivia,purpose,link_yn,link_text,thinking_yn,thinking_text,comments,prior_hool,soccer hooligan_int_rating,soccer hooligan_acc_rating,professor_int_rating,professor_acc_rating
20170308-155044,33,female,1,professor,"i am a university professor, attending to university on monday to friday. Normally i  am in charge of lecturer of japanese studies, so i do have consultation on wednesday 3-4pm. in my s",Uganda,False,HTML,False,Beaver,False,Mars,False,12,True,Bangledesh,False,Leg,False,Robin Hood,False,Bronze,True,Iceberg,False,Cyclones,False,21,True,General Motors,True,120,False,Venus,True,Nikita Krushchev,False,Pressure,False,Blue Knight,False,Continental Rise,False,Republic,False,X Rays,False,Pablo Picasso,True,Rio Grande,True,In the spine,False,Kazakhstan,False,Jupiter,True,Handel,False,Wind speed,False,Collagen,False,Germany,False,20,linguistics,chinese,female,1st year,that one was easy to make up but not enough time for me to done this,"some of the questions might be common sense but i did not know the answer so far, also i feel like some of the questions were not that relevant to the theme of pilot or something, so i think the questions can be made some changes like area restriction, or some human factors questions like perception and whatever.","to develop?maybe, no idea
",yes,"like professor may only know some specific thing, but not the other area maybe",yes,no idea,i just typed,no,29,8,62,20
