datetime,subjID,sex,prime_code,prime_condition,prime_response,triv1_raw,triv1_correct,triv2_raw,triv2_correct,triv3_raw,triv3_correct,triv4_raw,triv4_correct,triv5_raw,triv5_correct,triv6_raw,triv6_correct,triv7_raw,triv7_correct,triv8_raw,triv8_correct,triv9_raw,triv9_correct,triv10_raw,triv10_correct,triv11_raw,triv11_correct,triv12_raw,triv12_correct,triv13_raw,triv13_correct,triv14_raw,triv14_correct,triv15_raw,triv15_correct,triv16_raw,triv16_correct,triv17_raw,triv17_correct,triv18_raw,triv18_correct,triv19_raw,triv19_correct,triv20_raw,triv20_correct,triv21_raw,triv21_correct,triv22_raw,triv22_correct,triv23_raw,triv23_correct,triv24_raw,triv24_correct,triv25_raw,triv25_correct,triv26_raw,triv26_correct,triv27_raw,triv27_correct,triv28_raw,triv28_correct,triv29_raw,triv29_correct,triv30_raw,triv30_correct,age,major,language,sex_r,year,area_writing,area_trivia,purpose,link_yn,link_text,thinking_yn,thinking_text,comments,prior_hool,soccer hooligan_int_rating,soccer hooligan_acc_rating,professor_int_rating,professor_acc_rating
20170309-135700,39,male,1,professor,"My daily routine would consist of teaching periods and furthering my research studies. I am passionate about what I am researching and becuase I am passionate about it, I want to teach the subject that my research falls in. I enjoy teaching, as well as other typical activities like spending time with family and enjoying hobbies, whatever they may be. I may enjoy cycling or hiking around Sydney and the surrounding areas. I also spend my free time reading research/academic journals that other people ahve published that are related to my field of study/research. I hope that the students I teach also enjoy my researc",Botswana,True,HTML,False,Muskrat,False,Mars,False,12,True,India,True,Leg,False,Guy Fawkes,True,Brass,False,Iceberg,False,Isobars,True,21,True,Chrysler,False,180,True,Venus,True,Mikhail Gorbachev,True,Radiation,True,Deep Thought,False,Continental Shelf,True,Fascist,True,Penicillin,True,Salvador Dali,False,Colorado River,False,In the throat,True,Siberia,True,Jupiter,True,Handel,False,Air pressure,True,Keratin,True,France,True,19,Construction Engineering,English,male,2nd year,Unknown student project,Testing different levels of general knowledge,"To understand how much a student remmebers about their surroundings?
",yes,"Being, in general, aware of what's around you and taking in information you normally don't think about",yes,Maybe becuase it caused me to think about school I was ready for the academic questions,No,no,39,13,75,23
