datetime,subjID,sex,prime_code,prime_condition,prime_response,triv1_raw,triv1_correct,triv2_raw,triv2_correct,triv3_raw,triv3_correct,triv4_raw,triv4_correct,triv5_raw,triv5_correct,triv6_raw,triv6_correct,triv7_raw,triv7_correct,triv8_raw,triv8_correct,triv9_raw,triv9_correct,triv10_raw,triv10_correct,triv11_raw,triv11_correct,triv12_raw,triv12_correct,triv13_raw,triv13_correct,triv14_raw,triv14_correct,triv15_raw,triv15_correct,triv16_raw,triv16_correct,triv17_raw,triv17_correct,triv18_raw,triv18_correct,triv19_raw,triv19_correct,triv20_raw,triv20_correct,triv21_raw,triv21_correct,triv22_raw,triv22_correct,triv23_raw,triv23_correct,triv24_raw,triv24_correct,triv25_raw,triv25_correct,triv26_raw,triv26_correct,triv27_raw,triv27_correct,triv28_raw,triv28_correct,triv29_raw,triv29_correct,triv30_raw,triv30_correct,age,major,language,sex_r,year,area_writing,area_trivia,purpose,link_yn,link_text,thinking_yn,thinking_text,comments,prior_hool,professor_int_rating,professor_acc_rating,voetbalhooligan_int_rating,voetbalhooligan_acc_rating
20170116-133533,15,2,0,voetbalhooligan,"Ik ga graag naar voetbalwedstrijden, en dan natuurlijk vooral die van mijn eigen cluppie ADO Den Haag. Daar heb ik een seizoenskaart voor. In mijn dagelijks leven werk ik als automonteur, en bij dat werk heb ik veel sociaal contact. Ik heb een kort lontje, dus ik word snel boos. In sommige gevallen kan dat uit de hand lopen. Als ADO een wedstrijd verliest, heb ik het gevoel dat de wereld vergaat. Deze woede of onmacht reageer ik af op de supporters van de tegenstander. Dit is wel eens op een vechtpartij uitgelopen. Ik hou van Nederlandstalige muziek zoals Palingsound of Andre Hazes. Met mijn zoontje trap ik vaak een balletje in onze achtertuin, en ik leer hem alles over voetbal. Ik hoop dat hij later net zo fanatiek wordt als ik. Ik ga graag na een wedstrijd met vrienden naar de ",Botswana,True,HTML,False,Muskusrat,False,Aarde,True,8,False,Pakistan,False,Arm,True,Robin Hood,False,Messing,False,Golf,True,Isothermen,False,21,True,Mitsubishi,False,90,False,Venus,True,Alexander Popov,False,Straling,True,Blue Knight,False,Tektonische afgrond,False,Communisme,False,Penicilline,True,Pablo Picasso,True,Colorado Rivier,False,In de keel,True,Siberië,True,Jupiter,True,Tsjaikovski,True,Luchtdruk,True,Keratine,True,Frankrijk,True,1e jaar,vrouw,18,Nederlands,Pedagogische wetenschappen,sociale psychologie,"cognitieve psychologie
",Geen idee,ja,iets met vooroordelen?,nee,,Nee,ja,65,20,50,15.0
