datetime,subjID,sex,prime_code,prime_condition,prime_response,triv1_raw,triv1_correct,triv2_raw,triv2_correct,triv3_raw,triv3_correct,triv4_raw,triv4_correct,triv5_raw,triv5_correct,triv6_raw,triv6_correct,triv7_raw,triv7_correct,triv8_raw,triv8_correct,triv9_raw,triv9_correct,triv10_raw,triv10_correct,triv11_raw,triv11_correct,triv12_raw,triv12_correct,triv13_raw,triv13_correct,triv14_raw,triv14_correct,triv15_raw,triv15_correct,triv16_raw,triv16_correct,triv17_raw,triv17_correct,triv18_raw,triv18_correct,triv19_raw,triv19_correct,triv20_raw,triv20_correct,triv21_raw,triv21_correct,triv22_raw,triv22_correct,triv23_raw,triv23_correct,triv24_raw,triv24_correct,triv25_raw,triv25_correct,triv26_raw,triv26_correct,triv27_raw,triv27_correct,triv28_raw,triv28_correct,triv29_raw,triv29_correct,triv30_raw,triv30_correct,age,major,language,sex_r,year,area_writing,area_trivia,purpose,link_yn,link_text,thinking_yn,thinking_text,comments,prior_hool,voetbalhooligan_int_rating,voetbalhooligan_acc_rating,professor_int_rating,professor_acc_rating
20170119-122518,63,2,1,professor,"In het dagelijks leven werk ik 5 dagen in de week. Ik hou van onderzoek doen en daarmee het onderwijs verbeteren. Mijn passie is leerlingen mijn kennis overdragen en zien dat ze daarvan leren en wijzer worden. Ik ben een beetje chaotisch maar meestal komt alles toch op zijn pootjes terecht. Mijn hobby's zijn boeken lezen en naar musea gaan. De universiteit is mijn tweede thuis en ik voel me hier helemaal op mijn gemak. De activiteiten die ik uitvoer op de universiteit zijn o.a college's geven, onderzoek doen en werkgroepen voorbereiden. Ik hou van mijn werk! ",Zaire,False,HTML,False,Bever,False,Uranus,False,6,False,India,True,Arm,True,Guy Fawkes,True,Messing,False,Golf,True,Isobaren,True,21,True,Chrysler,False,360,False,Venus,True,Mikhail Gorbachov,True,Straling,True,Blue Knight,False,Tektonische plaat,True,Fascisme,True,Röntgenstraling,False,Salvador Dali,False,Rio Lobos,False,In de keel,True,Wit-Rusland,False,Jupiter,True,Beethoven,False,Luchtdruk,True,Collageen,False,Frankrijk,True,1e jaar,vrouw,18,Nederlands,pedagogiek,nederlands,natuurkunde,kennis vragen en vooroordelen testen,ja,"geen idee
",nee,,nee,ja,30,3,58,22
