datetime,subjID,sex,prime_code,prime_condition,prime_response,triv1_raw,triv1_correct,triv2_raw,triv2_correct,triv3_raw,triv3_correct,triv4_raw,triv4_correct,triv5_raw,triv5_correct,triv6_raw,triv6_correct,triv7_raw,triv7_correct,triv8_raw,triv8_correct,triv9_raw,triv9_correct,triv10_raw,triv10_correct,triv11_raw,triv11_correct,triv12_raw,triv12_correct,triv13_raw,triv13_correct,triv14_raw,triv14_correct,triv15_raw,triv15_correct,triv16_raw,triv16_correct,triv17_raw,triv17_correct,triv18_raw,triv18_correct,triv19_raw,triv19_correct,triv20_raw,triv20_correct,triv21_raw,triv21_correct,triv22_raw,triv22_correct,triv23_raw,triv23_correct,triv24_raw,triv24_correct,triv25_raw,triv25_correct,triv26_raw,triv26_correct,triv27_raw,triv27_correct,triv28_raw,triv28_correct,triv29_raw,triv29_correct,triv30_raw,triv30_correct,age,major,language,sex_r,year,area_writing,area_trivia,purpose,link_yn,link_text,thinking_yn,thinking_text,comments,prior_hool,professor_int_rating,professor_acc_rating,fotbollshuligan_int_rating,fotbollshuligan_acc_rating
20170124-170938,120,f,0,fotbollshuligan,"Jag som fotbollshuligan förnekar att jag är just en fotbollshuligan. Jag förnekar när folk i min omgivning antyder att jag beter mig på vissa sätt, exempelvis att jag dricker för mycket eller beter mig olämpligt. Jag jobbar på ett lågavlönat jobb där arbetsplatsen domineras av män. Jag har en sambo, hon gör majoriteten av hushållsarbetet, dock tar jag hand om allt bil-relaterat som måste göras samt lagara fantastiska middagar ibland på helgerna. Jag har många manliga vänner som jag prioriterar högt att umgås med på, oftast går vi till en lokal pub eller går och kollar på fotboll. Jag motionerar i form av att jogga ca 5 km två gånger i veckan, trots det är jag något överviktig. Jag kan ibland bara väldigt charmig och snäll.",Zaire,False,ASCII,True,Bäver,False,Jorden,True,12,True,Pakistan,False,Arm,True,Guy Fawkes,True,Mässing,False,Isberg,False,Isotermer,False,21,True,General Motors,True,360,False,Mars,False,Alexander Popov,False,Strålning,True,King Blue,False,Djuphavsslätt,False,Fascistisk,True,Penicillin,True,Salvador Dali,False,Coloradofloden,False,I halsen,True,Sibirien,True,Jupiter,True,Tchaikovsky,True,Relativ luftfuktighet,False,Elastin,False,Frankrike,True,0,kvinna,"ämneslärarprogrammet samhällskunskap och religion 
",svenska,1a året,ingen aning,kognitionsstuderande ,"till uppgift 1, studera fördomar. till uppgift 2, kolla allmänbildning",ja,en mer allmänbildad person kanske påverkar hur fördomsfull personen är,nej,,nej,ja,70,18,50.0,13
