datetime,subjID,sex,prime_code,prime_condition,prime_response,triv1_raw,triv1_correct,triv2_raw,triv2_correct,triv3_raw,triv3_correct,triv4_raw,triv4_correct,triv5_raw,triv5_correct,triv6_raw,triv6_correct,triv7_raw,triv7_correct,triv8_raw,triv8_correct,triv9_raw,triv9_correct,triv10_raw,triv10_correct,triv11_raw,triv11_correct,triv12_raw,triv12_correct,triv13_raw,triv13_correct,triv14_raw,triv14_correct,triv15_raw,triv15_correct,triv16_raw,triv16_correct,triv17_raw,triv17_correct,triv18_raw,triv18_correct,triv19_raw,triv19_correct,triv20_raw,triv20_correct,triv21_raw,triv21_correct,triv22_raw,triv22_correct,triv23_raw,triv23_correct,triv24_raw,triv24_correct,triv25_raw,triv25_correct,triv26_raw,triv26_correct,triv27_raw,triv27_correct,triv28_raw,triv28_correct,triv29_raw,triv29_correct,triv30_raw,triv30_correct,age,major,language,sex_r,year,area_writing,area_trivia,purpose,link_yn,link_text,thinking_yn,thinking_text,comments,prior_hool,soccer hooligan_int_rating,soccer hooligan_acc_rating,professor_int_rating,professor_acc_rating
20170313-092623,074,Male,1,professor,"Q 1: Bening a professor is good thing and my daily life will be very busy chicking students assignments and do some work for  teaching 


Q2: My typical ativites will be teaching student and marking the assignment 

	
Q3:my characteristics will be more focused on kol",Uganda,False,HTML,False,Coypu,False,Mars,False,12,True,Phillipines,False,9,False,Dick Turpin,False,Solder,False,Mountain,False,Fronts,False,21,True,General Motors,True,90,False,Mercury,False,Nikita Krushchev,False,In rivers,False,Deep Thought,False,Continental Slope,False,Republic,False,X Rays,False,Iron,True,Rio Rojo,False,In the spine,False,Ukraine,False,Saturn,False,Tchaikovsky,True,Relative humidity,False,Collagen,False,Germany,False,31,Accouting ,Arabic,male,4th year or higher,Professor,student,Genral information ,yes,professor will have more knowledge ,no,,no,no,64,19,50,17
