datetime,subjID,sex,prime_code,prime_condition,prime_response,triv1_raw,triv1_correct,triv2_raw,triv2_correct,triv3_raw,triv3_correct,triv4_raw,triv4_correct,triv5_raw,triv5_correct,triv6_raw,triv6_correct,triv7_raw,triv7_correct,triv8_raw,triv8_correct,triv9_raw,triv9_correct,triv10_raw,triv10_correct,triv11_raw,triv11_correct,triv12_raw,triv12_correct,triv13_raw,triv13_correct,triv14_raw,triv14_correct,triv15_raw,triv15_correct,triv16_raw,triv16_correct,triv17_raw,triv17_correct,triv18_raw,triv18_correct,triv19_raw,triv19_correct,triv20_raw,triv20_correct,triv21_raw,triv21_correct,triv22_raw,triv22_correct,triv23_raw,triv23_correct,triv24_raw,triv24_correct,triv25_raw,triv25_correct,triv26_raw,triv26_correct,triv27_raw,triv27_correct,triv28_raw,triv28_correct,triv29_raw,triv29_correct,triv30_raw,triv30_correct,age,major,language,sex_r,year,area_writing,area_trivia,purpose,link_yn,link_text,thinking_yn,thinking_text,comments,prior_hool,futbalový chuligán_int_rating,futbalový chuligán_acc_rating,vysokoškolský profesor_int_rating,vysokoškolský profesor_acc_rating
20161125-095447,101,2,1,vysokoškolský profesor,"svoj bezny cas travim studiom roznej naucnej literaturi,bezne sa venujem svojim studentom a praci v ramci mojho studijneho zamerania.Ako profesor som vazny no zaroven ustretový a priatelský.Mojou vasnou je sport a robim ho vzdy vo volnom case. ",Zimbabwe,False,Morseova abeceda,False,Bobor,False,Zem,True,15,False,India,True,Paža,True,Robin Hood,False,Bronz,True,Vlna,True,Izobary,True,21,True,Ford,False,180,True,Venuša,True,Michail Gorbačov,True,Zrážky,False,Blue Knight,False,Kontinentálny svah,False,Fašistické,True,Penicilín,True,Pablo Picasso,True,Rio Grande,True,V hrdle,True,Sibír,True,Jupiter,True,Čajkovskij,True,Tlak vzduchu,True,Kolagén,False,Francúzko,True,muž,Slovenčina,geografia a dejepis,"21
",2. ročník,psychologia,vseobecny prehlad,neviem,áno,každy profesor by mal mat všeobecny prehlad a tak by mal zvladnut vedomostní test,áno,neviem,nie,áno,20,5,90,27
