datetime,subjID,sex,prime_code,prime_condition,prime_response,triv1_raw,triv1_correct,triv2_raw,triv2_correct,triv3_raw,triv3_correct,triv4_raw,triv4_correct,triv5_raw,triv5_correct,triv6_raw,triv6_correct,triv7_raw,triv7_correct,triv8_raw,triv8_correct,triv9_raw,triv9_correct,triv10_raw,triv10_correct,triv11_raw,triv11_correct,triv12_raw,triv12_correct,triv13_raw,triv13_correct,triv14_raw,triv14_correct,triv15_raw,triv15_correct,triv16_raw,triv16_correct,triv17_raw,triv17_correct,triv18_raw,triv18_correct,triv19_raw,triv19_correct,triv20_raw,triv20_correct,triv21_raw,triv21_correct,triv22_raw,triv22_correct,triv23_raw,triv23_correct,triv24_raw,triv24_correct,triv25_raw,triv25_correct,triv26_raw,triv26_correct,triv27_raw,triv27_correct,triv28_raw,triv28_correct,triv29_raw,triv29_correct,triv30_raw,triv30_correct,age,major,language,sex_r,year,area_writing,area_trivia,purpose,link_yn,link_text,thinking_yn,thinking_text,comments,prior_hool,vysokoškolský profesor_int_rating,vysokoškolský profesor_acc_rating,futbalový chuligán_int_rating,futbalový chuligán_acc_rating
20161125-105650,112,1,0,futbalový chuligán,"bezny den - jedlo,telka,stavkovacia kancelaria,pc hry, porno,zeny, alkohol,kamosi,futbal
konicky - futbal,alkohol,kamosi
osobnostne crty - agresivita,lenivost,nenavist,frustracia,fanatizmus
",Botswana,True,HTML,False,Nutria,False,Urán,False,6,False,Pakistan,False,Noha,False,Guy Fawkes,True,Bronz,True,Ľadovec,False,Izobary,True,21,True,Mitsubishi,False,180,True,Venuša,True,Michail Gorbačov,True,Radiácia,True,Deep Blue,True,Kontinentálna hlbočina,False,Fašistické,True,Penicilín,True,Pablo Picasso,True,Rio Grande,True,V hrdle,True,Sibír,True,Jupiter,True,Čajkovskij,True,Rýchlosť vetra,False,Lecitín,False,Francúzko,True,žena,Slovenčina,"anglicky jazyk,dejepis",22,2. ročník,socialna psychologia,vseobecna psychologia,"1. miera empatie
2. iq",áno,pretoze futbalovi chuligani maju priemerne alebo podpriemerne iq,áno,prisla som si hlupa,nie,áno,80,25,0,0
