datetime,subjID,sex,prime_code,prime_condition,prime_response,triv1_raw,triv1_correct,triv2_raw,triv2_correct,triv3_raw,triv3_correct,triv4_raw,triv4_correct,triv5_raw,triv5_correct,triv6_raw,triv6_correct,triv7_raw,triv7_correct,triv8_raw,triv8_correct,triv9_raw,triv9_correct,triv10_raw,triv10_correct,triv11_raw,triv11_correct,triv12_raw,triv12_correct,triv13_raw,triv13_correct,triv14_raw,triv14_correct,triv15_raw,triv15_correct,triv16_raw,triv16_correct,triv17_raw,triv17_correct,triv18_raw,triv18_correct,triv19_raw,triv19_correct,triv20_raw,triv20_correct,triv21_raw,triv21_correct,triv22_raw,triv22_correct,triv23_raw,triv23_correct,triv24_raw,triv24_correct,triv25_raw,triv25_correct,triv26_raw,triv26_correct,triv27_raw,triv27_correct,triv28_raw,triv28_correct,triv29_raw,triv29_correct,triv30_raw,triv30_correct,age,major,language,sex_r,year,area_writing,area_trivia,purpose,link_yn,link_text,thinking_yn,thinking_text,comments,prior_hool,futbalový chuligán_int_rating,futbalový chuligán_acc_rating,vysokoškolský profesor_int_rating,vysokoškolský profesor_acc_rating
20170220-174914,148,2,1,vysokoškolský profesor,rano vstanem dam si kavu pobozkam manzelku. idem do prace medzi prestavkami opravujem pisomku pripravujem ucivo ...ked priem domov navarim veceru aby manzelka mala radost pozriem telku skocim na internet idem spat dobru noc. cez vikendy chodim na turistiku stretavam sa s priatelmi pri pive  venujem sa hlavne manzelke a detom ked dajake mam :D konickov mam mnoho ale ziadnym sa ned,Uganda,False,HTML,False,Ondatra,False,Zem,True,12,True,Bangladéš,False,Paža,True,Sweeney Todd,False,Bronz,True,Vlna,True,Izobary,True,21,True,Mitsubishi,False,180,True,Merkúr,False,Alexander Popov,False,Zrážky,False,Deep Blue,True,Kontinentálne úpätie,False,Republika,False,Penicilín,True,Paul Cézanne,False,Colorado,False,V plúcach,False,Ukraina,False,Jupiter,True,Čajkovskij,True,Tlak vzduchu,True,Lecitín,False,Nemecko,False,muž,Slovenčina,sport a zdravie,"22
",1. ročník,netusim,neviem,"neviem
",nie,,nie,,nie,nie,34,15.0,50.0,16
