datetime,subjID,sex,prime_code,prime_condition,prime_response,triv1_raw,triv1_correct,triv2_raw,triv2_correct,triv3_raw,triv3_correct,triv4_raw,triv4_correct,triv5_raw,triv5_correct,triv6_raw,triv6_correct,triv7_raw,triv7_correct,triv8_raw,triv8_correct,triv9_raw,triv9_correct,triv10_raw,triv10_correct,triv11_raw,triv11_correct,triv12_raw,triv12_correct,triv13_raw,triv13_correct,triv14_raw,triv14_correct,triv15_raw,triv15_correct,triv16_raw,triv16_correct,triv17_raw,triv17_correct,triv18_raw,triv18_correct,triv19_raw,triv19_correct,triv20_raw,triv20_correct,triv21_raw,triv21_correct,triv22_raw,triv22_correct,triv23_raw,triv23_correct,triv24_raw,triv24_correct,triv25_raw,triv25_correct,triv26_raw,triv26_correct,triv27_raw,triv27_correct,triv28_raw,triv28_correct,triv29_raw,triv29_correct,triv30_raw,triv30_correct,age,major,language,sex_r,year,area_writing,area_trivia,purpose,link_yn,link_text,thinking_yn,thinking_text,comments,prior_hool,futbalový chuligán_int_rating,futbalový chuligán_acc_rating,vysokoškolský profesor_int_rating,vysokoškolský profesor_acc_rating
20170223-132945,187,1,1,vysokoškolský profesor,"Prichadzam do skoly, pripravujem si podklady na prednasky a seminare, mam cas venovat sa svojmu vyskumu( zhanam materialy, prezeram databazy). Nie som odmerana, naopak snazim sa byt  priatelska, pomahat studentom s otazkami, s problemami ked sa na mna obracaju, ale snazim sa ich podporovat v praci aj saich samotnych.vasnou je tema, ktorej sa venujem, ktora ma zaujima a aj samotny proces ucenia. vasnou je cas ked dava poznatky dalej a diskutujem so studentmi, ked pocuvam ich nazory a udivuje ma ako dokazu mysliet. este k beznemu dnu patri stretavanie sa s vedenim nie len katedry ale aj skoly ( dekan ...) ",Zair,False,HTML,False,Bobor,False,Mars,False,12,True,Pakistan,False,Noha,False,Guy Fawkes,True,Bronz,True,Vlna,True,Fronty,False,20,False,Mitsubishi,False,180,True,Venuša,True,Michail Gorbačov,True,Radiácia,True,Blue Knight,False,Kontinentálny šelf,True,Komunistické,False,Penicilín,True,Paul Cézanne,False,Colorado,False,V chrbtici,False,Sibír,True,Jupiter,True,Händel,False,Tlak vzduchu,True,Keratín,True,Francúzko,True,žena,Slovenčina,"psychologia
",23,4. alebo vyšší ročník,socialna psychologia,kognitivna psychologia,neviem,áno,mozeme tak vidiet isty sposob myslenia,nie,,nemam,áno,72,14,80,20
