datetime,subjID,sex,prime_code,prime_condition,prime_response,triv1_raw,triv1_correct,triv2_raw,triv2_correct,triv3_raw,triv3_correct,triv4_raw,triv4_correct,triv5_raw,triv5_correct,triv6_raw,triv6_correct,triv7_raw,triv7_correct,triv8_raw,triv8_correct,triv9_raw,triv9_correct,triv10_raw,triv10_correct,triv11_raw,triv11_correct,triv12_raw,triv12_correct,triv13_raw,triv13_correct,triv14_raw,triv14_correct,triv15_raw,triv15_correct,triv16_raw,triv16_correct,triv17_raw,triv17_correct,triv18_raw,triv18_correct,triv19_raw,triv19_correct,triv20_raw,triv20_correct,triv21_raw,triv21_correct,triv22_raw,triv22_correct,triv23_raw,triv23_correct,triv24_raw,triv24_correct,triv25_raw,triv25_correct,triv26_raw,triv26_correct,triv27_raw,triv27_correct,triv28_raw,triv28_correct,triv29_raw,triv29_correct,triv30_raw,triv30_correct,age,major,language,sex_r,year,area_writing,area_trivia,purpose,link_yn,link_text,thinking_yn,thinking_text,comments,prior_hool,soccer hooligan_int_rating,soccer hooligan_acc_rating,professor_int_rating,professor_acc_rating
20170130-094601,244,male,1,professor,"In my daily life as a professor i imagine i am spending most day, preparing lectures and or improving upon the lectures i already have set. I do this until the semester has commenced andthen i can continue all other daily hobbies aside from family and teaching. 

Typical activities may include office hour availibility and meetings among other faculty.


I am fun, enthusiastic, exuberant and want to teach all i can to the future generation of leaders.

Reading, expressing life long passions and how to attain goals that seem impossible.",Uganda,False,HTML,False,Muskrat,False,Uranus,False,8,False,India,True,Arm,True,Dick Turpin,False,Brass,False,Wave,True,Isotherms,False,21,True,General Motors,True,90,False,Mars,False,Alexander Popov,False,Temperature,False,Blue Knight,False,Continental Shelf,True,Republic,False,Penicillin,True,Salvador Dali,False,Rio Grande,True,In the throat,True,Siberia,True,Jupiter,True,Handel,False,Air pressure,True,Collagen,False,Greece,False,29,Nursing,English,male,4th year or higher,Did this task to see if i could answer the questions i n a clear and consise manor within the time alotted.,To gauge the strengths and weaknesses of each students acacemic ability.,I want to say the purpose of these tasks was to gauge the relative interest within a small sample of studnts. And to see how a student would think be as a professor.,no,,no,,None as this time.,yes,35,10,70,20
