datetime,subjID,sex,prime_code,prime_condition,prime_response,triv1_raw,triv1_correct,triv2_raw,triv2_correct,triv3_raw,triv3_correct,triv4_raw,triv4_correct,triv5_raw,triv5_correct,triv6_raw,triv6_correct,triv7_raw,triv7_correct,triv8_raw,triv8_correct,triv9_raw,triv9_correct,triv10_raw,triv10_correct,triv11_raw,triv11_correct,triv12_raw,triv12_correct,triv13_raw,triv13_correct,triv14_raw,triv14_correct,triv15_raw,triv15_correct,triv16_raw,triv16_correct,triv17_raw,triv17_correct,triv18_raw,triv18_correct,triv19_raw,triv19_correct,triv20_raw,triv20_correct,triv21_raw,triv21_correct,triv22_raw,triv22_correct,triv23_raw,triv23_correct,triv24_raw,triv24_correct,triv25_raw,triv25_correct,triv26_raw,triv26_correct,triv27_raw,triv27_correct,triv28_raw,triv28_correct,triv29_raw,triv29_correct,triv30_raw,triv30_correct,age,major,language,sex_r,year,area_writing,area_trivia,purpose,link_yn,link_text,thinking_yn,thinking_text,comments,prior_hool,professor_int_rating,professor_acc_rating,soccer hooligan_int_rating,soccer hooligan_acc_rating
,,,,,,,,,,,,,,,,,,,,,,,,,,,,,,,,,,,,,,,,,,,,,,,,,,,,,,,,,,,,,,,,,,,,,,,,,,,,,,,,,,,
20161026-131843,21,male,0,soccer hooligan,"Most of the time I hang around the bars. Not like there's much else to do. We just sit there, my friends and I, shooting the shit and waiting for the bar to kick us out. Best part has to be when the football games come on. We get a lot of new guys in the bar, some new, some old regulars. It's always fun to rile them up. It's so easy, because they're so sensitive. Just things like ""your mum's a whore"" or ""your dad's a wanker"" are enough to annoy those guys. What a bunch of losers.",Zimbabwe,FALSE,ASCII,TRUE,Capybara,TRUE,Earth,TRUE,12,TRUE,Bangledesh,FALSE,Arm,TRUE,Guy Fawkes,TRUE,Bronze,TRUE,Wave,TRUE,Isobars,TRUE,20,FALSE,Mitsubishi,FALSE,180,TRUE,Venus,TRUE,Mikhail Gorbachev,TRUE,Radiation,TRUE,Deep Blue,TRUE,Continental Shelf,TRUE,Fascist,TRUE,Penicillin,TRUE,Pablo Picasso,TRUE,Rio Grande,TRUE,In the throat,TRUE,Siberia,TRUE,Jupiter,TRUE,Tchaikovsky,TRUE,Air pressure,TRUE,Keratin,TRUE,France,TRUE,19,Game Design and Development - Computer Science Concentration,English,male,2nd year,Hooligan,Multiple,The first one may have been to gauge how a student might be able to project themselves into another viewpoint. The second may be just to gauge general knowledge of trivia.,yes,"Trying to get into the mindset of someone like a ""soccer hooligan"" could alter how we think, possibly making us less able to answer questions correctly. Something about altering how we think in order to ""emulate"" a ""soccer hooligan.""",no,,"Interesting. I can see where the idea is going, and it's an interesting topic. I just wonder if there's any merit to it.",no,68,13,38,8
