datetime,subjID,sex,prime_code,prime_condition,prime_response,triv1_raw,triv1_correct,triv2_raw,triv2_correct,triv3_raw,triv3_correct,triv4_raw,triv4_correct,triv5_raw,triv5_correct,triv6_raw,triv6_correct,triv7_raw,triv7_correct,triv8_raw,triv8_correct,triv9_raw,triv9_correct,triv10_raw,triv10_correct,triv11_raw,triv11_correct,triv12_raw,triv12_correct,triv13_raw,triv13_correct,triv14_raw,triv14_correct,triv15_raw,triv15_correct,triv16_raw,triv16_correct,triv17_raw,triv17_correct,triv18_raw,triv18_correct,triv19_raw,triv19_correct,triv20_raw,triv20_correct,triv21_raw,triv21_correct,triv22_raw,triv22_correct,triv23_raw,triv23_correct,triv24_raw,triv24_correct,triv25_raw,triv25_correct,triv26_raw,triv26_correct,triv27_raw,triv27_correct,triv28_raw,triv28_correct,triv29_raw,triv29_correct,triv30_raw,triv30_correct,age,major,language,sex_r,year,area_writing,area_trivia,purpose,link_yn,link_text,thinking_yn,thinking_text,comments,prior_hool,professor_int_rating,professor_acc_rating,soccer hooligan_int_rating,soccer hooligan_acc_rating
20161026-154611,23,male,0,soccer hooligan,"I am a soccer hooligan. My experience is done towards playing soccer, and that is exactly what I focus on. After practice, my teammates and I go out to a nearby pub and get many drinks as we possibly can. We drink up until we no longer seem sober and head off to somewhere else late at night. Certain teammates we cannot stand being with and cannot trust them, so late at night, we head over to their place and just wreck their home. We don't invade, but this shows them. Aside from soccer, my teammates and I stay late, party, wreck, and stuff.",Uganda,False,HTML,False,Beaver,False,Mars,False,8,False,India,True,Leg,False,Guy Fawkes,True,Bronze,True,Iceberg,False,Isotherms,False,21,True,Mitsubishi,False,360,False,Venus,True,Alexander Popov,False,Temperature,False,King Blue,False,Continental Slope,False,Republic,False,X Rays,False,Pablo Picasso,True,Rio Grande,True,In the throat,True,Ukraine,False,Jupiter,True,Handel,False,Wind speed,False,Collagen,False,Greece,False,19,"entertainment design
",English,male,2nd year,The writing task was for me to write about what it was like to be a soccer hoolagin. ,"The trivia knowledge test was to answer questions going from very easy (1) to very difficult (5), and I was told that mine would mainly get questions in the (5) range. ",To see how males in these tasks answer questions or see what spot they see themselves as. ,yes,"There might be a link in intelligence. If a soccer hooligan is not very school focused and more on sports and doing wrong, it might show that their head isn't in the right place or they do not know much.",yes,Not entirely sure.,None that come to mind. ,yes,58,29,35,9
