datetime,subjID,sex,prime_code,prime_condition,prime_response,triv1_raw,triv1_correct,triv2_raw,triv2_correct,triv3_raw,triv3_correct,triv4_raw,triv4_correct,triv5_raw,triv5_correct,triv6_raw,triv6_correct,triv7_raw,triv7_correct,triv8_raw,triv8_correct,triv9_raw,triv9_correct,triv10_raw,triv10_correct,triv11_raw,triv11_correct,triv12_raw,triv12_correct,triv13_raw,triv13_correct,triv14_raw,triv14_correct,triv15_raw,triv15_correct,triv16_raw,triv16_correct,triv17_raw,triv17_correct,triv18_raw,triv18_correct,triv19_raw,triv19_correct,triv20_raw,triv20_correct,triv21_raw,triv21_correct,triv22_raw,triv22_correct,triv23_raw,triv23_correct,triv24_raw,triv24_correct,triv25_raw,triv25_correct,triv26_raw,triv26_correct,triv27_raw,triv27_correct,triv28_raw,triv28_correct,triv29_raw,triv29_correct,triv30_raw,triv30_correct,age,major,language,sex_r,year,area_writing,area_trivia,purpose,link_yn,link_text,thinking_yn,thinking_text,comments,prior_hool,professor_int_rating,professor_acc_rating,soccer hooligan_int_rating,soccer hooligan_acc_rating
,,,,,,,,,,,,,,,,,,,,,,,,,,,,,,,,,,,,,,,,,,,,,,,,,,,,,,,,,,,,,,,,,,,,,,,,,,,,,,,,,,,
20161115-120219,1107,,0,soccer hooligan," I went to the bar today to watch the Manchester United vs. Liverpool game and got bloody drunk when Man U crushed Liverpool. My friends and I went outside the bar after the game and Liverpool fans followed us out trying to start something. They couldn't get over the fact there team lost and all of us were drunk, so we thought the only way to really settle this was to fight it out. This is what usually happens on a typical day at the bar for me when Manchester United is playing. After a long day at the office, I need the time to relax and kick back with my friends to cheer on our team. The connection I feel to soccer is unlike anything else and all of my friends will tell you the same thing. It tends to make my work suffer because I may be a little to invested in my team, but they are what I really care about. I live and breath Manchester United soccer.  ",Uganda,FALSE,HTML,FALSE,Coypu,FALSE,Earth,TRUE,6,FALSE,India,TRUE,Arm,TRUE,Sweeney Todd,FALSE,Bronze,TRUE,Wave,TRUE,Isobars,TRUE,21,TRUE,Chrysler,FALSE,90,FALSE,Mercury,FALSE,Alexander Popov,FALSE,Pressure,FALSE,Blue Knight,FALSE,Continental Shelf,TRUE,Fascist,TRUE,Penicillin,TRUE,Pablo Picasso,TRUE,Rio Grande,TRUE,In the throat,TRUE,Siberia,TRUE,Mars,FALSE,Mozart,FALSE,Air pressure,TRUE,Keratin,TRUE,France,TRUE,21,Journalism,English,female,4th year or higher,"social psychology	",cognitive psychology,for the first one to see how people see a certain group. no idea for second,yes,the level of knowledge someone has may make them see soccer hooligans differently,no,,no,,,,,
