"means","se","ci_l","ci_u","authors","class","class_n","n1","n2","mean1","mean2","group_priority","shape"
-1.45214285714286,0.591693389172426,-2.61184058981125,-0.292445124474459,"Original result","10 commandments effect",1,56,50,2.76785714285714,4.22,1.5,17
0.847401522674611,0.500634925111887,-0.133824899947595,1.82862794529682,"Evans","10 commandments effect",1,53,57,3.07547169811321,2.2280701754386,2,15
-0.185185185185185,0.486073826983443,-1.13787237990029,0.767502009529917,"Ferreira-Santos","10 commandments effect",1,51,54,2.66666666666667,2.85185185185185,2,15
-0.265424430641822,0.430728990971671,-1.10963774004358,0.578788878759931,"klein Selle & Rozmann","10 commandments effect",1,70,69,3.31428571428571,3.57971014492754,2,15
0.573913043478261,0.737199256399229,-0.870970948493937,2.01879703545046,"McCarthy","10 commandments effect",1,50,46,3.4,2.82608695652174,2,15
-0.154761904761905,0.303515879182966,-0.749642096696529,0.440118287172719,"Meijer","10 commandments effect",1,84,84,3.02380952380952,3.17857142857143,2,15
0.0212981744421912,0.411802242345741,-0.785819389308296,0.828415738192679,"Sutan","10 commandments effect",1,34,87,4.67647058823529,4.6551724137931,2,15
0.166464891041162,0.363631586037094,-0.54623992123272,0.879169703315044,"Vanpaemel","10 commandments effect",1,56,59,3.60714285714286,3.4406779661017,2,15
0.183650362318841,0.372767970760764,-0.546961434962336,0.914262159600018,"Verschuere","10 commandments effect",1,64,69,3.734375,3.55072463768116,2,15
-0.0932958274730429,0.491001086673005,-1.05564027372216,0.869048618776076,"Wick","10 commandments effect",1,81,79,3.18518518518519,3.27848101265823,2,15
0.191168693812798,0.359926948843003,-0.514275162984878,0.896612550610474,"Wiggins","10 commandments effect",1,62,61,2.33870967741935,2.14754098360656,2,15
0.0737278340057882,0.130375908725551,-0.181804251547973,0.329259919559549,"Meta-analytic average for 
10 commandments effect","summary",0,605,665,3.30221169108578,3.17368875711519,3,18
