"means","se","ci_l","ci_u","authors","class","class_n","n1","n2","mean1","mean2","group_priority","shape"
-0.348809523809524,0.467391982863459,-1.26488097688466,0.567261929265617,"Original result","commandments condition",1,56,60,2.76785714285714,3.11666666666667,1.5,17
0.602744425385935,0.504834549699351,-0.386713110176289,1.59220196094816,"Evans","commandments condition",1,53,55,3.07547169811321,2.47272727272727,2,15
-0.333333333333333,0.548279956802252,-1.40794230211092,0.741275635444258,"Ferreira-Santos","commandments condition",1,51,50,2.66666666666667,3,2,15
0.150106609808103,0.481819669112224,-0.794242588694862,1.09445580831107,"klein Selle & Rozmann","commandments condition",1,70,67,3.31428571428571,3.16417910447761,2,15
1.10454545454545,0.665955992367334,-0.200704305783156,2.40979521487406,"McCarthy","commandments condition",1,50,44,3.4,2.29545454545455,2,15
-0.313852813852814,0.295308913042916,-0.8926476477306,0.264942020024972,"Meijer","commandments condition",1,84,77,3.02380952380952,3.33766233766234,2,15
0.411164465786315,0.417393154163829,-0.406911083768364,1.22924001534099,"Sutan","commandments condition",1,34,98,4.67647058823529,4.26530612244898,2,15
0.361859838274933,0.371057831600509,-0.365400147843593,1.08911982439346,"Vanpaemel","commandments condition",1,56,53,3.60714285714286,3.24528301886792,2,15
0.128314393939394,0.376314167405112,-0.609247821046802,0.86587660892559,"Verschuere","commandments condition",1,64,66,3.734375,3.60606060606061,2,15
-0.136243386243386,0.41253374593525,-0.944794670683873,0.672307898197101,"Wick","commandments condition",1,81,84,3.18518518518519,3.32142857142857,2,15
-0.0750834260289208,0.481735163685414,-1.01926699693884,0.869100144880998,"Wiggins","commandments condition",1,62,58,2.33870967741935,2.41379310344828,2,15
0.100210831001219,0.13419595581364,-0.162808409264444,0.363230071266881,"Meta-analytic average for 
commandments condition","summary",0,605,652,3.30221169108578,3.11218946825761,3,18
