"means","se","ci_l","ci_u","authors","class","class_n","n1","n2","mean1","mean2","group_priority","shape"
1.50531746031746,0.72922269656485,0.0760672383411738,2.93456768229375,"Original result","difference",1,113,116,1.15650793650794,-0.348809523809524,1.5,17
-0.632250007523096,0.630462949382859,-1.8679346819004,0.603434666854206,"Evans","difference",1,123,108,-0.0295055821371615,0.602744425385935,2,15
1.04232804232804,0.688277575770135,-0.306671217547963,2.39132730220404,"Ferreira-Santos","difference",1,110,101,0.708994708994709,-0.333333333333333,2,15
0.182850288366187,0.61356161925966,-1.01970838767882,1.3854089644112,"klein Selle & Rozmann","difference",1,146,137,0.332956898174289,0.150106609808103,2,15
-1.2656379852032,0.936315309956663,-3.10078227089172,0.569506300485317,"McCarthy","difference",1,124,94,-0.161092530657748,1.10454545454545,2,15
0.0198967698967696,0.44883536559965,-0.859804381666412,0.899597921459951,"Meijer","difference",1,175,161,-0.293956043956044,-0.313852813852814,2,15
-0.299201928536421,0.540581643231721,-1.35872247997407,0.760318622901233,"Sutan","difference",1,168,132,0.111962537249894,0.411164465786315,2,15
0.350004568504729,0.543103444579195,-0.714458622750138,1.4144677597596,"Vanpaemel","difference",1,118,109,0.711864406779661,0.361859838274933,2,15
0.134531455862977,0.503463284748621,-0.852238449782554,1.12130136150851,"Verschuere","difference",1,135,130,0.262845849802371,0.128314393939394,2,15
0.603613287790504,0.647447747592297,-0.665360979361977,1.87258755494299,"Wick","difference",1,169,165,0.467369901547117,-0.136243386243386,2,15
0.29042101980497,0.561026326122744,-0.809170373774431,1.39001241338437,"Wiggins","difference",1,120,120,0.215337593776049,-0.0750834260289208,2,15
0.0944741516889233,0.183469971631228,-0.265120384952869,0.454068688330716,"Meta-analytic average for 
difference","summary",0,1388,1257,0.232677773957314,0.190022222828168,3,18
