"means","se","ci_l","ci_u","authors","class","class_n","n1","n2","mean1","mean2","group_priority","shape"
0.053174603174603,0.426221391292083,-0.782203973198433,0.888553179547639,"Original result","control condition",1,60,63,3.11666666666667,3.06349206349206,1.5,17
-0.0888888888888886,0.524140535915672,-1.11618546212113,0.938407684343351,"Acar","control condition",1,40,45,4,4.08888888888889,2,15
-0.186452762923351,0.398881043113069,-0.968245241540735,0.595339715694033,"Aczel","control condition",1,55,51,3.12727272727273,3.31372549019608,2,15
0.303267973856209,0.715970093786603,-1.1000076239733,1.70654357168572,"Baskin","control condition",1,45,51,3.24444444444444,2.94117647058824,2,15
-0.866892911010558,0.630720219175507,-2.10308182491576,0.369296002894645,"Birt","control condition",1,52,51,2.21153846153846,3.07843137254902,2,15
-0.893416927899687,0.430987179904235,-1.73813627831047,-0.0486975774889015,"Blatz","control condition",1,55,58,2.72727272727273,3.62068965517241,2,15
0.215151515151515,0.383207779543615,-0.535921931349535,0.966224961652565,"Evans","control condition",1,55,66,2.47272727272727,2.25757575757576,2,15
0.857142857142857,0.487296886948485,-0.0979414910546598,1.81222720534037,"Ferreira-Santos","control condition",1,50,56,3,2.14285714285714,2,15
-0.0674509803921568,0.393041483236794,-0.837798131966476,0.702896171182163,"González-Iraizoz","control condition",1,50,51,2.56,2.62745098039216,2,15
0.124562819478074,0.656190930800831,-1.16154777187337,1.41067341082952,"Holzmeister","control condition",1,59,63,5.71186440677966,5.58730158730159,2,15
-0.082574142275635,0.436955829535506,-0.93899183100005,0.77384354644878,"klein Selle & Rozmann","control condition",1,67,77,3.16417910447761,3.24675324675325,2,15
-0.347368421052631,0.439649968956501,-1.20906652601153,0.514329683906264,"Koppel","control condition",1,55,57,2.6,2.94736842105263,2,15
-0.246693121693122,0.342507368615362,-0.917995228618816,0.424608985232572,"Laine","control condition",1,54,56,2.09259259259259,2.33928571428571,2,15
-0.405,0.706112686419604,-1.78895543440925,0.978955434409249,"Loschelder","control condition",1,50,48,4.22,4.625,2,15
-0.691724941724942,0.577255243392093,-1.82312442866035,0.439674545210463,"McCarthy","control condition",1,44,78,2.29545454545455,2.98717948717949,2,15
-0.134865134865135,0.330652833795149,-0.782932780489735,0.513202510759465,"Meijer","control condition",1,77,91,3.33766233766234,3.47252747252747,2,15
-0.475855602437881,0.552130775262104,-1.55801203670778,0.606300831832021,"Özdoğru","control condition",1,54,79,3.2962962962963,3.77215189873418,2,15
-0.325925925925926,0.384748989756617,-1.08002008893707,0.428168237085213,"Pennington","control condition",1,50,54,3.1,3.42592592592593,2,15
-0.148936170212766,0.393448222425519,-0.920080515948088,0.622208175522556,"Roets","control condition",1,47,47,3.06382978723404,3.21276595744681,2,15
-0.00945494994438256,0.443338489726331,-0.878382422768372,0.859472522879607,"Suchotzki","control condition",1,62,58,3.88709677419355,3.89655172413793,2,15
-0.27790375409423,0.350210545526727,-0.96430381033274,0.40849630214428,"Sutan","control condition",1,98,81,4.26530612244898,4.54320987654321,2,15
-0.98968105065666,0.609105287146011,-2.18350547625577,0.204143374942449,"Tran","control condition",1,52,41,3.96153846153846,4.95121951219512,2,15
0.516469459545891,0.403402306822772,-0.274184533107119,1.3071234521989,"Vanpaemel","control condition",1,53,59,3.24528301886792,2.72881355932203,2,15
0.318181818181818,0.338407031642036,-0.345083775951679,0.981447412315315,"Verschuere","control condition",1,66,66,3.60606060606061,3.28787878787879,2,15
0.510317460317461,0.422026680137959,-0.316839633267944,1.33747455390287,"Wick","control condition",1,84,90,3.32142857142857,2.81111111111111,2,15
0.481589713617767,0.430352332512965,-0.36188535877045,1.32506478600598,"Wiggins","control condition",1,58,59,2.41379310344828,1.93220338983051,2,15
-0.0741068495915002,0.0873697915612256,-0.245348494388274,0.0971347952052735,"Meta-analytic average for 
control condition","summary",0,1432,1533,3.23702565446956,3.35352173721782,3,18
