datetime,subjID,sex,prime_code,prime_condition,prime_response,triv1_raw,triv1_correct,triv2_raw,triv2_correct,triv3_raw,triv3_correct,triv4_raw,triv4_correct,triv5_raw,triv5_correct,triv6_raw,triv6_correct,triv7_raw,triv7_correct,triv8_raw,triv8_correct,triv9_raw,triv9_correct,triv10_raw,triv10_correct,triv11_raw,triv11_correct,triv12_raw,triv12_correct,triv13_raw,triv13_correct,triv14_raw,triv14_correct,triv15_raw,triv15_correct,triv16_raw,triv16_correct,triv17_raw,triv17_correct,triv18_raw,triv18_correct,triv19_raw,triv19_correct,triv20_raw,triv20_correct,triv21_raw,triv21_correct,triv22_raw,triv22_correct,triv23_raw,triv23_correct,triv24_raw,triv24_correct,triv25_raw,triv25_correct,triv26_raw,triv26_correct,triv27_raw,triv27_correct,triv28_raw,triv28_correct,triv29_raw,triv29_correct,triv30_raw,triv30_correct,year,sex_r,age,major,language,area_writing,area_trivia,purpose,link_yn,link_text,thinking_yn,thinking_text,comments,prior_hool,hooligan de foot_int_rating,hooligan de foot_acc_rating,professeur d'université_int_rating,professeur d'université_acc_rating
20170220-124213,258,M,1,professeur d'université,"Dans ma vie j'aime beaucoup ce que je fais. Je suis professeur à l'ULB. Je fais beaucoup de recherche dans ma branche pour pouvoir faire des progrès dans ce domaine. Je suis quelqu'un de calme et j'aime apprendre de nouvelle chose, c'est ce qui me motive le plus.  Mis à part ma vie universitaire, j'ai beaucoup d'occupation. J'aime le sport. Je cours beaucoup avec mes enfants et ma femme. Dès que l'on a du temps libre nous partons faire une course. Lorsque je suis à l'université je passe beaucoup de temps à lire de nouvelle publications.",Le Botswana,True,Le HTML,False,Le castor,False,Uranus,False,6,False,Les Philippines,False,Le pied,False,Robin des bois,False,Le bronze,True,Une vague,True,Isothermes,False,21,True,Chrysler,False,360,False,Mercure,False,Nikita Khrouchtchev,False,La radiation,True,Blue Knight,False,Le plateau continental,True,Fasciste,True,Les rayons X,False,Henri Matisse,False,Le Rio Grande,True,Dans la gorge,True,La Sibérie,True,Jupiter,True,Handel,False,La vitesse du vent,False,La kératine,True,France,True,1ère année,homme,18,"Ingénieur de géstion
",Français,psychologie cognitive,psychologie cognitive,de voir si les étudiant font attention au détail lorsqu'il font quelque chose,oui,len s'imaginant etre un professeur les étudiant se mettront en situation pour répondre aux questions,oui,"aucune idée
",non,oui,50.0,15.0,50.0,15.0
