datetime,subjID,sex,prime_code,prime_condition,prime_response,triv1_raw,triv1_correct,triv2_raw,triv2_correct,triv3_raw,triv3_correct,triv4_raw,triv4_correct,triv5_raw,triv5_correct,triv6_raw,triv6_correct,triv7_raw,triv7_correct,triv8_raw,triv8_correct,triv9_raw,triv9_correct,triv10_raw,triv10_correct,triv11_raw,triv11_correct,triv12_raw,triv12_correct,triv13_raw,triv13_correct,triv14_raw,triv14_correct,triv15_raw,triv15_correct,triv16_raw,triv16_correct,triv17_raw,triv17_correct,triv18_raw,triv18_correct,triv19_raw,triv19_correct,triv20_raw,triv20_correct,triv21_raw,triv21_correct,triv22_raw,triv22_correct,triv23_raw,triv23_correct,triv24_raw,triv24_correct,triv25_raw,triv25_correct,triv26_raw,triv26_correct,triv27_raw,triv27_correct,triv28_raw,triv28_correct,triv29_raw,triv29_correct,triv30_raw,triv30_correct,age,major,language,sex_r,year,area_writing,area_trivia,purpose,link_yn,link_text,thinking_yn,thinking_text,comments,prior_hool,professor_int_rating,professor_acc_rating,soccer hooligan_int_rating,soccer hooligan_acc_rating
20170222-143458,100,M,0,soccer hooligan,"In my daily life I attend work, afterwards i will regularly meet up with other friends at the pub where we will discuss the weekend ahead, football news and look ahead to our next outing while unwinding and having a laugh.

My typical activities include spending time with friends, usually at the pub where i will play pool, drink, and generally socialise. When I am home I spend my time watching T.V., typically I eat a lot of takeaway food.

My attributes are that i am easily provoked, very outgoing, tribalistic.

My hobbies include attending football matches with my friends, getting into fights with rival football fans, drinking and havi",Uganda,False,HTML,False,Capybara,True,Uranus,False,12,True,Pakistan,False,Neck,False,Guy Fawkes,True,Brass,False,Wave,True,Isotherms,False,21,True,Mitsubishi,False,360,False,Mars,False,Mikhail Gorbachev,True,Radiation,True,Blue Knight,False,Continental Slope,False,Communist,False,Penicillin,True,Paul Cezanne,False,Colorado River,False,In the throat,True,Siberia,True,Jupiter,True,Handel,False,Wind speed,False,Keratin,True,France,True,23,Psychology,English,male,1st year,Cognitive,Cognitive,no idea,no,,no,,no,yes,68,25,55,18
