datetime,subjID,sex,prime_code,prime_condition,prime_response,triv1_raw,triv1_correct,triv2_raw,triv2_correct,triv3_raw,triv3_correct,triv4_raw,triv4_correct,triv5_raw,triv5_correct,triv6_raw,triv6_correct,triv7_raw,triv7_correct,triv8_raw,triv8_correct,triv9_raw,triv9_correct,triv10_raw,triv10_correct,triv11_raw,triv11_correct,triv12_raw,triv12_correct,triv13_raw,triv13_correct,triv14_raw,triv14_correct,triv15_raw,triv15_correct,triv16_raw,triv16_correct,triv17_raw,triv17_correct,triv18_raw,triv18_correct,triv19_raw,triv19_correct,triv20_raw,triv20_correct,triv21_raw,triv21_correct,triv22_raw,triv22_correct,triv23_raw,triv23_correct,triv24_raw,triv24_correct,triv25_raw,triv25_correct,triv26_raw,triv26_correct,triv27_raw,triv27_correct,triv28_raw,triv28_correct,triv29_raw,triv29_correct,triv30_raw,triv30_correct,age,major,language,sex_r,year,area_writing,area_trivia,purpose,link_yn,link_text,thinking_yn,thinking_text,comments,prior_hool,soccer hooligan_int_rating,soccer hooligan_acc_rating,professor_int_rating,professor_acc_rating
20170301-132550,111,M,1,professor,"As a professor in the university, I prepare my materials for psychology lectures on the weekends and teach my students on the weekdays. I also spend my free time reading academic journels and listen psychology related podcast. I spend most of my time in the University researching, trying to expand the about understanding of human behavior. I am calm and patient man. I enjoy reading ",Uganda,False,ASCII,True,Capybara,True,Pluto,False,12,True,Bangledesh,False,Foot,False,Sweeney Todd,False,Brass,False,Wave,True,Isobars,True,21,True,Mitsubishi,False,360,False,Venus,True,Nikita Krushchev,False,Pressure,False,Deep Blue,True,Continental Shelf,True,Democracy,False,X Rays,False,Salvador Dali,False,Colorado River,False,In the nose,False,Ukraine,False,Jupiter,True,Tchaikovsky,True,Wind speed,False,Collagen,False,Greece,False,19,"Psychology
",Chinese,male,2nd year,Writing skills,Intelligence,no idea,yes,relation between english level and intelligence,no,,no,yes,26,15,57,19
