datetime,subjID,sex,prime_code,prime_condition,prime_response,triv1_raw,triv1_correct,triv2_raw,triv2_correct,triv3_raw,triv3_correct,triv4_raw,triv4_correct,triv5_raw,triv5_correct,triv6_raw,triv6_correct,triv7_raw,triv7_correct,triv8_raw,triv8_correct,triv9_raw,triv9_correct,triv10_raw,triv10_correct,triv11_raw,triv11_correct,triv12_raw,triv12_correct,triv13_raw,triv13_correct,triv14_raw,triv14_correct,triv15_raw,triv15_correct,triv16_raw,triv16_correct,triv17_raw,triv17_correct,triv18_raw,triv18_correct,triv19_raw,triv19_correct,triv20_raw,triv20_correct,triv21_raw,triv21_correct,triv22_raw,triv22_correct,triv23_raw,triv23_correct,triv24_raw,triv24_correct,triv25_raw,triv25_correct,triv26_raw,triv26_correct,triv27_raw,triv27_correct,triv28_raw,triv28_correct,triv29_raw,triv29_correct,triv30_raw,triv30_correct,age,major,language,sex_r,year,area_writing,area_trivia,purpose,link_yn,link_text,thinking_yn,thinking_text,comments,prior_hool,professor_int_rating,professor_acc_rating,soccer hooligan_int_rating,soccer hooligan_acc_rating
20161201-115511,41,F,0,soccer hooligan,"As a soccer hooligan I spend my daily life in a working class job, one that shows off my particularly male attributes such as a builder or a plumber. I tend to text my mates about the next pub visit and what the football score is, and who has the better team. Fantasy football is a really important thing and we have a league running with a prize money at the end, not really a substantial amount but for the important stuff, like you know... beer. My personality is quite thick and I am easily led by people, particularly when in a large crowd. I can do things I might regret later or think are ridiculous to do when I would be sober or in a usual scenario, but somehow seem ok because 'everyone else is doing it too'. As a soccer hooligan my passion is of course soccer, but I also enjoy going to the pub and having bbqs, moaning about women and generally displaying what a man I am. I don't really have many ambitions because I can't see past my beer belly. The only time I show emotions are when my team loses. ",Uganda,False,HTML,False,Capybara,True,Uranus,False,6,False,Bangledesh,False,Leg,False,Guy Fawkes,True,Brass,False,Wave,True,Isobars,True,21,True,Ford,False,180,True,Mercury,False,Nikita Krushchev,False,Pressure,False,Blue Knight,False,Continental Shelf,True,Fascist,True,Penicillin,True,Pablo Picasso,True,Rio Lobos,False,In the throat,True,Siberia,True,Saturn,False,Tchaikovsky,True,Wind speed,False,Keratin,True,France,True,19,"Film and Creative Writing
",English,female,2nd year,Gender stereotypes,IQ,No idea,yes,No idea,yes,I was too irritated by it to focus,n/a,yes,77,17,32,13
