datetime,subjID,sex,prime_code,prime_condition,prime_response,triv1_raw,triv1_correct,triv2_raw,triv2_correct,triv3_raw,triv3_correct,triv4_raw,triv4_correct,triv5_raw,triv5_correct,triv6_raw,triv6_correct,triv7_raw,triv7_correct,triv8_raw,triv8_correct,triv9_raw,triv9_correct,triv10_raw,triv10_correct,triv11_raw,triv11_correct,triv12_raw,triv12_correct,triv13_raw,triv13_correct,triv14_raw,triv14_correct,triv15_raw,triv15_correct,triv16_raw,triv16_correct,triv17_raw,triv17_correct,triv18_raw,triv18_correct,triv19_raw,triv19_correct,triv20_raw,triv20_correct,triv21_raw,triv21_correct,triv22_raw,triv22_correct,triv23_raw,triv23_correct,triv24_raw,triv24_correct,triv25_raw,triv25_correct,triv26_raw,triv26_correct,triv27_raw,triv27_correct,triv28_raw,triv28_correct,triv29_raw,triv29_correct,triv30_raw,triv30_correct,age,major,language,sex_r,year,area_writing,area_trivia,purpose,link_yn,link_text,thinking_yn,thinking_text,comments,prior_hool,profesor universitario_int_rating,profesor universitario_acc_rating,ultra de fútbol_int_rating,ultra de fútbol_acc_rating
20170224-004949,174,muj,0,ultra de fútbol,"Me dedico a seguir este deporte y a investigar sobre las ultimas noticias de el para poder comentar al respecto.
Reunirme en un parque con amigos para practicar el deporte.
Soy exigente, manipulador y egoista.
Jugar al futbol los fines de semana y los dias entre semana que me sea posible.
",Botsuana,True,Código Morse,False,Castor,False,Plutón,False,6,False,Filipinas,False,Pierna,False,Sweeney Todd,False,Bronce,True,Iceberg,False,Isotermas,False,21,True,Ford,False,360,False,Marte,False,Alexander Popov,False,Radiación,True,Deep Blue,True,Plataforma continental,True,Fascista,True,Penicilina,True,Salvador Dali,False,Río Rojo,False,En los pulmones,False,Ucrania,False,Marte,False,Tchaikovsky,True,Temperatura ambiental,False,Queratina,True,España,False,Español,femenino,primer año,RRLL y RRHH,18,social,cultural,Observar el pensamiento del individuo,no,,no,,no,no,70,23,35,8
