datetime,subjID,sex,prime_code,prime_condition,prime_response,triv1_raw,triv1_correct,triv2_raw,triv2_correct,triv3_raw,triv3_correct,triv4_raw,triv4_correct,triv5_raw,triv5_correct,triv6_raw,triv6_correct,triv7_raw,triv7_correct,triv8_raw,triv8_correct,triv9_raw,triv9_correct,triv10_raw,triv10_correct,triv11_raw,triv11_correct,triv12_raw,triv12_correct,triv13_raw,triv13_correct,triv14_raw,triv14_correct,triv15_raw,triv15_correct,triv16_raw,triv16_correct,triv17_raw,triv17_correct,triv18_raw,triv18_correct,triv19_raw,triv19_correct,triv20_raw,triv20_correct,triv21_raw,triv21_correct,triv22_raw,triv22_correct,triv23_raw,triv23_correct,triv24_raw,triv24_correct,triv25_raw,triv25_correct,triv26_raw,triv26_correct,triv27_raw,triv27_correct,triv28_raw,triv28_correct,triv29_raw,triv29_correct,triv30_raw,triv30_correct,age,major,language,sex_r,year,area_writing,area_trivia,purpose,link_yn,link_text,thinking_yn,thinking_text,comments,prior_hool,profesor universitario_int_rating,profesor universitario_acc_rating,ultra de fútbol_int_rating,ultra de fútbol_acc_rating
20170302-222659,212,muj,0,ultra de fútbol,"En mi vida diaria como ultra del futbol yo me dedico a estar pendiente de cuando se realizan los partidos previstos para asi quedar con mi grupo de amigos e ir al campo a animar a nuestra aficion.

Mis actividades tipicas son dedicarme a animar a los jugadores de mi equipo para que noten mi apoyo.

En cuanto a mi personalidad como ultra del futbol, a veces, me pongo un poco nerviosa cuando hacen las cosas mal, pero al rato se me pasa y vuelvo a animar a los jugadores para que no se vengan abajo. No suelo ser una persona que critique a voces al equipo contrario cuando hacen algo que afecte al equipo que apoyo, pero alguna que otra vez si les digo cosas feas",Botsuana,True,Wordpad,False,Castor,False,Marte,False,12,True,India,True,Brazo,True,Sweeney Todd,False,Bronce,True,Iceberg,False,Frentes,False,15,False,Mitsubishi,False,120,False,Marte,False,Mijaíl Gorbachov,True,Presión,False,Blue Knight,False,Abismo continental,False,Fascista,True,Penicilina,True,Salvador Dali,False,Río Lobos,False,En la médula espinal,False,Ucrania,False,Neptuno,False,Tchaikovsky,True,Presión atmosférica,True,Queratina,True,España,False,Español,femenino,primer año,relaciones laborales y recursos humanos,19,informativo,cultura general,"saber el conocimiento general de una persona a traves de una redaccion
",sí,la conexion de saber si hablan con argumentos,no,,no,sí,65,18,50.0,22
