datetime,subjID,sex,prime_code,prime_condition,prime_response,triv1_raw,triv1_correct,triv2_raw,triv2_correct,triv3_raw,triv3_correct,triv4_raw,triv4_correct,triv5_raw,triv5_correct,triv6_raw,triv6_correct,triv7_raw,triv7_correct,triv8_raw,triv8_correct,triv9_raw,triv9_correct,triv10_raw,triv10_correct,triv11_raw,triv11_correct,triv12_raw,triv12_correct,triv13_raw,triv13_correct,triv14_raw,triv14_correct,triv15_raw,triv15_correct,triv16_raw,triv16_correct,triv17_raw,triv17_correct,triv18_raw,triv18_correct,triv19_raw,triv19_correct,triv20_raw,triv20_correct,triv21_raw,triv21_correct,triv22_raw,triv22_correct,triv23_raw,triv23_correct,triv24_raw,triv24_correct,triv25_raw,triv25_correct,triv26_raw,triv26_correct,triv27_raw,triv27_correct,triv28_raw,triv28_correct,triv29_raw,triv29_correct,triv30_raw,triv30_correct,age,major,language,sex_r,year,area_writing,area_trivia,purpose,link_yn,link_text,thinking_yn,thinking_text,comments,prior_hool,profesor universitario_int_rating,profesor universitario_acc_rating,ultra de fútbol_int_rating,ultra de fútbol_acc_rating
20170308-003548,234,hom,0,ultra de fútbol,"En mi vida de ultra, dedico el mayor tiempo a pensar en mi club y la manera de apoyarlo e intentar dañar los clubes y aficiones rivales. por ejemplo con peleas entre ultras que es lo que me gusta.

Viajar con el equipo, beber, animar, realizar canticos ofensivos, pelear si es necesario y beber otra vez


Personalidad agresiva, no tengo cuerpo atletico pero soy lo suficientemente bruto para pelar

Mi pasion es mi equipo, mi hobbie y pasion principal es defenderlo con la muerte si es necesario
          ",Botsuana,True,ASCII,True,0,False,La Tierra,True,6,False,India,True,Brazo,True,Guy Fawkes,True,Bronce,True,Ola,True,Isobaras,True,21,True,General Motors,True,180,True,Marte,False,Mijaíl Gorbachov,True,Presión,False,King Blue,False,Plataforma continental,True,Fascista,True,Penicilina,True,Pablo Picasso,True,Río Rojo,False,En la médula espinal,False,Siberia,True,Júpiter,True,Tchaikovsky,True,Presión atmosférica,True,Queratina,True,España,False,Español,masculino,primer año,relaciones laborales y recursos humanos,18,ultra de futbol,cultura general,no se,sí,un ultra de futbol por lo general posee una escasa cultura general y acertaria muy pocas preguntas,no,,no,sí,75,20,40,11
