datetime,subjID,sex,prime_code,prime_condition,prime_response,triv1_raw,triv1_correct,triv2_raw,triv2_correct,triv3_raw,triv3_correct,triv4_raw,triv4_correct,triv5_raw,triv5_correct,triv6_raw,triv6_correct,triv7_raw,triv7_correct,triv8_raw,triv8_correct,triv9_raw,triv9_correct,triv10_raw,triv10_correct,triv11_raw,triv11_correct,triv12_raw,triv12_correct,triv13_raw,triv13_correct,triv14_raw,triv14_correct,triv15_raw,triv15_correct,triv16_raw,triv16_correct,triv17_raw,triv17_correct,triv18_raw,triv18_correct,triv19_raw,triv19_correct,triv20_raw,triv20_correct,triv21_raw,triv21_correct,triv22_raw,triv22_correct,triv23_raw,triv23_correct,triv24_raw,triv24_correct,triv25_raw,triv25_correct,triv26_raw,triv26_correct,triv27_raw,triv27_correct,triv28_raw,triv28_correct,triv29_raw,triv29_correct,triv30_raw,triv30_correct,age,major,language,sex_r,year,area_writing,area_trivia,purpose,link_yn,link_text,thinking_yn,thinking_text,comments,prior_hool,profesor universitario_int_rating,profesor universitario_acc_rating,ultra de fútbol_int_rating,ultra de fútbol_acc_rating
20161130-001947,93,muj,0,ultra de fútbol,"-Suelo acudir a partidos de futbol, y relacionarme con personas que tambien son ultras de futbol.Trabajo como cualquier persona.
-Mis actividades tipicas son ver el futbol acompañado con mas gente, gritar cosas al equipo contrario,beber e ir de fiesta con mis compañeros ultras...
-Soy una persona agresiva y maleducada 
-Me pasion es el futbol, sobre todo ver partidos en el campo y animar a mi equipo.
 ",Botsuana,True,HTML,False,Castor,False,La Tierra,True,8,False,Bangladesh,False,Brazo,True,Dick Turpin,False,Bronce,True,Ola,True,Isobaras,True,21,True,General Motors,True,360,False,Venus,True,Alexander Popov,False,Radiación,True,King Blue,False,Plataforma continental,True,Fascista,True,Penicilina,True,Salvador Dali,False,Río Colorado,False,En la naríz,False,Bielorrusia,False,Neptuno,False,Tchaikovsky,True,Presión atmosférica,True,Queratina,True,España,False,Español,femenino,primer año,psicologia,18,no lo se,no lo se,no se,no,,no,,no,sí,80,20,35,12
