datetime,subjID,sex,prime_code,prime_condition,prime_response,triv1_raw,triv1_correct,triv2_raw,triv2_correct,triv3_raw,triv3_correct,triv4_raw,triv4_correct,triv5_raw,triv5_correct,triv6_raw,triv6_correct,triv7_raw,triv7_correct,triv8_raw,triv8_correct,triv9_raw,triv9_correct,triv10_raw,triv10_correct,triv11_raw,triv11_correct,triv12_raw,triv12_correct,triv13_raw,triv13_correct,triv14_raw,triv14_correct,triv15_raw,triv15_correct,triv16_raw,triv16_correct,triv17_raw,triv17_correct,triv18_raw,triv18_correct,triv19_raw,triv19_correct,triv20_raw,triv20_correct,triv21_raw,triv21_correct,triv22_raw,triv22_correct,triv23_raw,triv23_correct,triv24_raw,triv24_correct,triv25_raw,triv25_correct,triv26_raw,triv26_correct,triv27_raw,triv27_correct,triv28_raw,triv28_correct,triv29_raw,triv29_correct,triv30_raw,triv30_correct,age,major,language,sex_r,year,area_writing,area_trivia,purpose,link_yn,link_text,thinking_yn,thinking_text,comments,prior_hool,soccer hooligan_int_rating,soccer hooligan_acc_rating,professor_int_rating,professor_acc_rating
20170309-113505,135,m,1,professor,"A typical day for me would consist of grading papers, studying my respective field's research, and of course, teaching class. My typical passions are reading, conducting academic research, and meeting with students during my office hours. I spend the majority of my day preparing for my lectures and grading papers. I conduct research in the library with the help of fellow ",Botswana,True,HTML,False,Beaver,False,Earth,True,12,True,India,True,Leg,False,Sweeney Todd,False,Brass,False,Wave,True,Fronts,False,21,True,General Motors,True,180,True,Venus,True,Mikhail Gorbachev,True,Pressure,False,Blue Knight,False,Continental Shelf,True,Fascist,True,Penicillin,True,Salvador Dali,False,Colorado River,False,In the throat,True,Siberia,True,Saturn,False,Mozart,False,Air pressure,True,Keratin,True,Greece,False,20,20,English,male,2nd year,Psych building A in a closet,Psych building A in a closet,To examine a possible link or disconnect between creativity and logical/analytical thinking ,yes,Thinking like a professor before beginning a test may help one feel a little smarter than they really are?,no,,"I did not sleep at all
",no,45,12,80,27
