datetime,subjID,sex,prime_code,prime_condition,prime_response,triv1_raw,triv1_correct,triv2_raw,triv2_correct,triv3_raw,triv3_correct,triv4_raw,triv4_correct,triv5_raw,triv5_correct,triv6_raw,triv6_correct,triv7_raw,triv7_correct,triv8_raw,triv8_correct,triv9_raw,triv9_correct,triv10_raw,triv10_correct,triv11_raw,triv11_correct,triv12_raw,triv12_correct,triv13_raw,triv13_correct,triv14_raw,triv14_correct,triv15_raw,triv15_correct,triv16_raw,triv16_correct,triv17_raw,triv17_correct,triv18_raw,triv18_correct,triv19_raw,triv19_correct,triv20_raw,triv20_correct,triv21_raw,triv21_correct,triv22_raw,triv22_correct,triv23_raw,triv23_correct,triv24_raw,triv24_correct,triv25_raw,triv25_correct,triv26_raw,triv26_correct,triv27_raw,triv27_correct,triv28_raw,triv28_correct,triv29_raw,triv29_correct,triv30_raw,triv30_correct,age,major,language,sex_r,year,area_writing,area_trivia,purpose,link_yn,link_text,thinking_yn,thinking_text,comments,prior_hool,soccer hooligan_int_rating,soccer hooligan_acc_rating,professor_int_rating,professor_acc_rating
20170322-171120,145,M,1,professor,"I wake up daily at 9 AM for my noon class. I get out of bed, about 5-10 minutes after waking up. I quickly take a shower, and then I put a bagel down in the toaster to get my breakfast. I open up my laptop to see what's new in the world of Theatre, whether that's in America or international. This way I can stay up to date with my studies and let my students know about what else is going on and other opportunities throughout this course. Once I finish my bagel, I get dressed for class, and head on out to class about an hour early. I know theres many kids who love getting to class early so I'm there to let them in. I gladly welcome them into my classroom with an enthusiatic smile and ""Hello"", then I turn on some background music while they enter class and get setlled, typically Broadway. I have a suggestion box in the front of the class for music to listen to each class. Each day I pick a random sheet of paper and choose what to play. I teach my students with a very hands-on approach. I do have powerpoints on the projector for those who learn best by seeing it, but I also speak what's on the powerpoint and also physically demonstrate it. That way, you get the best of both worlds. Once my class is finished, I stay a little bit extra afterwards to see if any students have any questions or if they just want to stay and chat with me. I'm the kind of professor that's more than willing to grab lunch or coffee with students to help them get a more personal education.",Botswana,True,HTML,False,Capybara,True,Mars,False,6,False,Bangledesh,False,Leg,False,Guy Fawkes,True,Brass,False,Wave,True,Isotherms,False,21,True,General Motors,True,180,True,Venus,True,Mikhail Gorbachev,True,Pressure,False,King Blue,False,Continental Slope,False,Fascist,True,Penicillin,True,Pablo Picasso,True,Colorado River,False,In the throat,True,Belarus,False,Mars,False,Handel,False,Air pressure,True,Keratin,True,Spain,False,18,Exploratory,English,male,1st year,"Imagination, thought processing",Memory,"No idea
",yes,No idea,no,,NA,no,59,10,75,22
