datetime,subjID,sex,prime_code,prime_condition,prime_response,triv1_raw,triv1_correct,triv2_raw,triv2_correct,triv3_raw,triv3_correct,triv4_raw,triv4_correct,triv5_raw,triv5_correct,triv6_raw,triv6_correct,triv7_raw,triv7_correct,triv8_raw,triv8_correct,triv9_raw,triv9_correct,triv10_raw,triv10_correct,triv11_raw,triv11_correct,triv12_raw,triv12_correct,triv13_raw,triv13_correct,triv14_raw,triv14_correct,triv15_raw,triv15_correct,triv16_raw,triv16_correct,triv17_raw,triv17_correct,triv18_raw,triv18_correct,triv19_raw,triv19_correct,triv20_raw,triv20_correct,triv21_raw,triv21_correct,triv22_raw,triv22_correct,triv23_raw,triv23_correct,triv24_raw,triv24_correct,triv25_raw,triv25_correct,triv26_raw,triv26_correct,triv27_raw,triv27_correct,triv28_raw,triv28_correct,triv29_raw,triv29_correct,triv30_raw,triv30_correct,age,major,language,sex_r,year,area_writing,area_trivia,purpose,link_yn,link_text,thinking_yn,thinking_text,comments,prior_hool,soccer hooligan_int_rating,soccer hooligan_acc_rating,professor_int_rating,professor_acc_rating
20170329-111959,159,m,1,professor,"During my daily life, I feel like I would be my same self, except I would be much more dedicated to my research and teaching. My daily life would consist of the same things im doing right now, except instead of the time that i study would be substituted for the time that i use to do research on which ever subject i teach. Also instead of going to class i would be teaching them. I feel like my characterisitcs would be generally the same as i am now but i would be more strict and more patient. Right now my hobbies include going to the gym and playing video games mostly, and i feel that if i were to become a professor, the video games would have to go because i just would not have enough time for it. My passion for what im teaching would have tobe something i really care about, becuase i do not feel that i would teach anything i wasnt passionate a",Zimbabwe,False,ASCII,True,Capybara,True,Earth,True,12,True,Pakistan,False,Leg,False,Dick Turpin,False,Bronze,True,Wave,True,Cyclones,False,25,False,General Motors,True,180,True,Venus,True,Alexander Popov,False,Pressure,False,Blue Knight,False,Continental Abyss,False,Fascist,True,X Rays,False,Salvador Dali,False,Rio Grande,True,In the throat,True,Siberia,True,Jupiter,True,Beethoven,False,Air pressure,True,Elastin,False,Spain,False,19,MIS,English,male,1st year,This one, ,"No idea
",no,,no,,nope,no,50.0,10,81,23
