datetime,subjID,sex,prime_code,prime_condition,prime_response,triv1_raw,triv1_correct,triv2_raw,triv2_correct,triv3_raw,triv3_correct,triv4_raw,triv4_correct,triv5_raw,triv5_correct,triv6_raw,triv6_correct,triv7_raw,triv7_correct,triv8_raw,triv8_correct,triv9_raw,triv9_correct,triv10_raw,triv10_correct,triv11_raw,triv11_correct,triv12_raw,triv12_correct,triv13_raw,triv13_correct,triv14_raw,triv14_correct,triv15_raw,triv15_correct,triv16_raw,triv16_correct,triv17_raw,triv17_correct,triv18_raw,triv18_correct,triv19_raw,triv19_correct,triv20_raw,triv20_correct,triv21_raw,triv21_correct,triv22_raw,triv22_correct,triv23_raw,triv23_correct,triv24_raw,triv24_correct,triv25_raw,triv25_correct,triv26_raw,triv26_correct,triv27_raw,triv27_correct,triv28_raw,triv28_correct,triv29_raw,triv29_correct,triv30_raw,triv30_correct,age,major,language,sex_r,year,area_writing,area_trivia,purpose,link_yn,link_text,thinking_yn,thinking_text,comments,prior_hool,professor_int_rating,professor_acc_rating,soccer hooligan_int_rating,soccer hooligan_acc_rating
20161128-104745,205,male,0,soccer hooligan,"I would start of my day by gettting cleaned up for the day. Styling my hair to that of my favorite soccer player. Then wearing the jersey of my favorite soccer player. After I have been cleaned up and ready to start my day, I will put on the ESPN channel to catched any missed soccer games or higlights. After watching the sports channel I will continue  with practicing my soccer skills thinking I will end up in the pros. After exhausting myself for hours, I will hang out with my friends and play FIFA until the game comes on to end my night.",Zimbabwe,False,HTML,False,Muskrat,False,Earth,True,12,True,Pakistan,False,Foot,False,Sweeney Todd,False,Brass,False,Pillar,False,Cyclones,False,21,True,General Motors,True,180,True,Venus,True,Alexander Popov,False,Radiation,True,Deep Thought,False,Continental Shelf,True,Fascist,True,Penicillin,True,Pablo Picasso,True,Rio Grande,True,In the throat,True,Ukraine,False,Jupiter,True,Mozart,False,Air pressure,True,Lecithin,False,France,True,19,Art Education,English,male,2nd year,Psychology,Psychology,"no idea
",no,,no,,no,yes,50,15.0,50.0,15.0
