datetime,subjID,sex,prime_code,prime_condition,prime_response,triv1_raw,triv1_correct,triv2_raw,triv2_correct,triv3_raw,triv3_correct,triv4_raw,triv4_correct,triv5_raw,triv5_correct,triv6_raw,triv6_correct,triv7_raw,triv7_correct,triv8_raw,triv8_correct,triv9_raw,triv9_correct,triv10_raw,triv10_correct,triv11_raw,triv11_correct,triv12_raw,triv12_correct,triv13_raw,triv13_correct,triv14_raw,triv14_correct,triv15_raw,triv15_correct,triv16_raw,triv16_correct,triv17_raw,triv17_correct,triv18_raw,triv18_correct,triv19_raw,triv19_correct,triv20_raw,triv20_correct,triv21_raw,triv21_correct,triv22_raw,triv22_correct,triv23_raw,triv23_correct,triv24_raw,triv24_correct,triv25_raw,triv25_correct,triv26_raw,triv26_correct,triv27_raw,triv27_correct,triv28_raw,triv28_correct,triv29_raw,triv29_correct,triv30_raw,triv30_correct,age,major,language,sex_r,year,area_writing,area_trivia,purpose,link_yn,link_text,thinking_yn,thinking_text,comments,prior_hool,soccer hooligan_int_rating,soccer hooligan_acc_rating,professor_int_rating,professor_acc_rating
20170201-095509,260,f,1,professor,"I teach my classes and I make sure I have everything I need for my classes and make sure everything is set to go. I participate in clubs and the sport events and support the school and I converse with other staff members as well. I am knowledgeable, caring for my students and work, funny, deditcation and responsible. I am passion about my my job and what I teach to my students and about learning more about my subject to have full knowledge of it. I also like going out and de-stressing myself. Doing adventerous things.  ",Zimbabwe,False,ASCII,True,Muskrat,False,Uranus,False,12,True,Pakistan,False,Foot,False,Robin Hood,False,Brass,False,Wave,True,Fronts,False,15,False,Chrysler,False,360,False,Venus,True,Mikhail Gorbachev,True,Pressure,False,Blue Knight,False,Continental Rise,False,Communist,False,X Rays,False,Henri Matisse,False,Rio Grande,True,In the throat,True,Ukraine,False,Neptune,False,Tchaikovsky,True,Air pressure,True,Elastin,False,France,True,19,criminal justice ,English,female,1st year,social cognitive professor ,random questions,"no idea
",yes,no idea,yes,Because I was thinking of what my past professors have told me about their lives and what they do outside of school.,no,yes,60,15.0,50.0,16
