datetime,subjID,sex,prime_code,prime_condition,prime_response,triv1_raw,triv1_correct,triv2_raw,triv2_correct,triv3_raw,triv3_correct,triv4_raw,triv4_correct,triv5_raw,triv5_correct,triv6_raw,triv6_correct,triv7_raw,triv7_correct,triv8_raw,triv8_correct,triv9_raw,triv9_correct,triv10_raw,triv10_correct,triv11_raw,triv11_correct,triv12_raw,triv12_correct,triv13_raw,triv13_correct,triv14_raw,triv14_correct,triv15_raw,triv15_correct,triv16_raw,triv16_correct,triv17_raw,triv17_correct,triv18_raw,triv18_correct,triv19_raw,triv19_correct,triv20_raw,triv20_correct,triv21_raw,triv21_correct,triv22_raw,triv22_correct,triv23_raw,triv23_correct,triv24_raw,triv24_correct,triv25_raw,triv25_correct,triv26_raw,triv26_correct,triv27_raw,triv27_correct,triv28_raw,triv28_correct,triv29_raw,triv29_correct,triv30_raw,triv30_correct,age,major,language,sex_r,year,area_writing,area_trivia,purpose,link_yn,link_text,thinking_yn,thinking_text,comments,prior_hool,soccer hooligan_int_rating,soccer hooligan_acc_rating,professor_int_rating,professor_acc_rating
,,,,,,,,,,,,,,,,,,,,,,,,,,,,,,,,,,,,,,,,,,,,,,,,,,,,,,,,,,,,,,,,,,,,,,,,,,,,,,,,,,,
20170220-095634,288,male,1,professor,I wake up early in the mornign everyday and get myself ready for work. I go to school and head to my office where i will go over assignements from my students and go over my lesson plans so i can be ready to teach. wheni have time i will try to socailize with my friends and aquaintences that also work and teach at the university. I am a hard worker that graduated with a doctorate degree so i can become a university professor. I am trusty worthy towards my students so they can ask me for help whenever they have the chance. my ,Zimbabwe,FALSE,HTML,FALSE,Muskrat,FALSE,Uranus,FALSE,12,TRUE,Bangledesh,FALSE,Leg,FALSE,Sweeney Todd,FALSE,Bronze,TRUE,Iceberg,FALSE,Isotherms,FALSE,21,TRUE,Mitsubishi,FALSE,180,TRUE,Mercury,FALSE,Alexander Popov,FALSE,Radiation,TRUE,King Blue,FALSE,Continental Slope,FALSE,Democracy,FALSE,X Rays,FALSE,Salvador Dali,FALSE,Colorado River,FALSE,In the throat,TRUE,Ukraine,FALSE,Jupiter,TRUE,Beethoven,FALSE,Air pressure,TRUE,Collagen,FALSE,Spain,FALSE,20,"Criminal Justice
",Spanish,male,3rd year,psychology,Geography,no idea,no,,yes,"Just by saying in first person that i was a professsor with a doctorate degree somwhat gave me an intellegence boost, if you would call it that.",no,yes,35,14,70,20
