datetime,subjID,sex,prime_code,prime_condition,prime_response,triv1_raw,triv1_correct,triv2_raw,triv2_correct,triv3_raw,triv3_correct,triv4_raw,triv4_correct,triv5_raw,triv5_correct,triv6_raw,triv6_correct,triv7_raw,triv7_correct,triv8_raw,triv8_correct,triv9_raw,triv9_correct,triv10_raw,triv10_correct,triv11_raw,triv11_correct,triv12_raw,triv12_correct,triv13_raw,triv13_correct,triv14_raw,triv14_correct,triv15_raw,triv15_correct,triv16_raw,triv16_correct,triv17_raw,triv17_correct,triv18_raw,triv18_correct,triv19_raw,triv19_correct,triv20_raw,triv20_correct,triv21_raw,triv21_correct,triv22_raw,triv22_correct,triv23_raw,triv23_correct,triv24_raw,triv24_correct,triv25_raw,triv25_correct,triv26_raw,triv26_correct,triv27_raw,triv27_correct,triv28_raw,triv28_correct,triv29_raw,triv29_correct,triv30_raw,triv30_correct,age,major,language,sex_r,year,area_writing,area_trivia,purpose,link_yn,link_text,thinking_yn,thinking_text,comments,prior_hool,professor_int_rating,professor_acc_rating,soccer hooligan_int_rating,soccer hooligan_acc_rating
,,,,,,,,,,,,,,,,,,,,,,,,,,,,,,,,,,,,,,,,,,,,,,,,,,,,,,,,,,,,,,,,,,,,,,,,,,,,,,,,,,,
20170213-093959,366,f,0,soccer hooligan,"As a soccer hooligan I wake up in the morning, shower then go off to have my first alcoholic drink of the day. After that I  meet up with my other soccer friends and we all get loud and obnoxious while in public while being wasted. I am vey loud, I dont have very good hygiene and I am very care free and uncensored which tends to get me into trouble. my passion is soccer and drinking, i can not go a day without those two or else i would go crazy.  many people are not so fond of me because i am so loud and obnoxious but i honestly dont care what others think, im just having fun.",Uganda,FALSE,HTML,FALSE,Beaver,FALSE,Pluto,FALSE,12,TRUE,Pakistan,FALSE,Neck,FALSE,Sweeney Todd,FALSE,Bronze,TRUE,Iceberg,FALSE,Cyclones,FALSE,25,FALSE,Ford,FALSE,360,FALSE,Mars,FALSE,Nikita Krushchev,FALSE,Temperature,FALSE,Blue Knight,FALSE,Continental Slope,FALSE,Communist,FALSE,Penicillin,TRUE,Salvador Dali,FALSE,Rio Grande,TRUE,In the spine,FALSE,Siberia,TRUE,Jupiter,TRUE,Beethoven,FALSE,Air pressure,TRUE,Keratin,TRUE,Greece,FALSE,19,psychology,spanish,female,2nd year,"it was good, gave me a different perspective and outlook",i didnt really know much of the info,test our memory and our focus ,no,,no,,no,yes,87,23,34,2
