datetime,subjID,sex,prime_code,prime_condition,prime_response,triv1_raw,triv1_correct,triv2_raw,triv2_correct,triv3_raw,triv3_correct,triv4_raw,triv4_correct,triv5_raw,triv5_correct,triv6_raw,triv6_correct,triv7_raw,triv7_correct,triv8_raw,triv8_correct,triv9_raw,triv9_correct,triv10_raw,triv10_correct,triv11_raw,triv11_correct,triv12_raw,triv12_correct,triv13_raw,triv13_correct,triv14_raw,triv14_correct,triv15_raw,triv15_correct,triv16_raw,triv16_correct,triv17_raw,triv17_correct,triv18_raw,triv18_correct,triv19_raw,triv19_correct,triv20_raw,triv20_correct,triv21_raw,triv21_correct,triv22_raw,triv22_correct,triv23_raw,triv23_correct,triv24_raw,triv24_correct,triv25_raw,triv25_correct,triv26_raw,triv26_correct,triv27_raw,triv27_correct,triv28_raw,triv28_correct,triv29_raw,triv29_correct,triv30_raw,triv30_correct,age,major,language,sex_r,year,area_writing,area_trivia,purpose,link_yn,link_text,thinking_yn,thinking_text,comments,prior_hool,professor_int_rating,professor_acc_rating,soccer hooligan_int_rating,soccer hooligan_acc_rating
,,,,,,,,,,,,,,,,,,,,,,,,,,,,,,,,,,,,,,,,,,,,,,,,,,,,,,,,,,,,,,,,,,,,,,,,,,,,,,,,,,,
20170220-085445,369,m,0,soccer hooligan,"I will wake up early in the morning at 6am and workout till 8'oclock. Then I will have my breakfast , make scramble eggs , pancakes and drink some orange juice. Later at 11 am I will have practice with my team till 3-4 pm. Then later I have free time I will go and have some drinks at the bars and try to get girls and get to know people. I probably will bring the girls back home and get dinner with them",Botswana,TRUE,HTML,FALSE,Capybara,TRUE,Uranus,FALSE,8,FALSE,Bangledesh,FALSE,Neck,FALSE,Robin Hood,FALSE,Pewter,FALSE,Iceberg,FALSE,Fronts,FALSE,21,TRUE,Chrysler,FALSE,360,FALSE,Venus,TRUE,Alexander Popov,FALSE,Radiation,TRUE,Blue Knight,FALSE,Continental Slope,FALSE,Communist,FALSE,Stethoscope,FALSE,Pablo Picasso,TRUE,Rio Grande,TRUE,In the throat,TRUE,Ukraine,FALSE,Jupiter,TRUE,Mozart,FALSE,Air temperature,FALSE,Lecithin,FALSE,Greece,FALSE,22,Business,Malay,male,3rd year,Pilot,psychology,IQ test based on age,yes,IQ test,yes,way of thingking,no,yes,7,14,77,19
