datetime,subjID,sex,prime_code,prime_condition,prime_response,triv1_raw,triv1_correct,triv2_raw,triv2_correct,triv3_raw,triv3_correct,triv4_raw,triv4_correct,triv5_raw,triv5_correct,triv6_raw,triv6_correct,triv7_raw,triv7_correct,triv8_raw,triv8_correct,triv9_raw,triv9_correct,triv10_raw,triv10_correct,triv11_raw,triv11_correct,triv12_raw,triv12_correct,triv13_raw,triv13_correct,triv14_raw,triv14_correct,triv15_raw,triv15_correct,triv16_raw,triv16_correct,triv17_raw,triv17_correct,triv18_raw,triv18_correct,triv19_raw,triv19_correct,triv20_raw,triv20_correct,triv21_raw,triv21_correct,triv22_raw,triv22_correct,triv23_raw,triv23_correct,triv24_raw,triv24_correct,triv25_raw,triv25_correct,triv26_raw,triv26_correct,triv27_raw,triv27_correct,triv28_raw,triv28_correct,triv29_raw,triv29_correct,triv30_raw,triv30_correct,age,major,language,sex_r,year,area_writing,area_trivia,purpose,link_yn,link_text,thinking_yn,thinking_text,comments,prior_hool,soccer hooligan_int_rating,soccer hooligan_acc_rating,professor_int_rating,professor_acc_rating
,,,,,,,,,,,,,,,,,,,,,,,,,,,,,,,,,,,,,,,,,,,,,,,,,,,,,,,,,,,,,,,,,,,,,,,,,,,,,,,,,,,
20170227-132748,371,f,1,professor,"As a college professor I teach lectures everyday as well as grade work collected in it. My profession requires a variety of activities that need to be tended to such as attending staff meetings, creating lesson plans or dealing with the issues my students have relating to my class. To attribute to my profession I am a patient and people-orientated person.Additonally, I am very passionate about maintaining a healthy life style in order to have the sufficent energy that is required of me on a daily basis. ,",Uganda,FALSE,Morse Code,FALSE,Capybara,TRUE,Earth,TRUE,6,FALSE,Bangledesh,FALSE,Neck,FALSE,Sweeney Todd,FALSE,Bronze,TRUE,Wave,TRUE,Fronts,FALSE,25,FALSE,Ford,FALSE,180,TRUE,Venus,TRUE,Alexander Popov,FALSE,Radiation,TRUE,Deep Blue,TRUE,Continental Abyss,FALSE,Republic,FALSE,Penicillin,TRUE,Salvador Dali,FALSE,Rio Grande,TRUE,In the throat,TRUE,Ukraine,FALSE,Saturn,FALSE,Mozart,FALSE,Relative humidity,FALSE,Collagen,FALSE,Spain,FALSE,18,"criminal justice
",spanish,female,1st year,idk, ,no idea,no,,no,,no,no,15,2,70,15
