datetime,Subject ID,Sex,prime_code,prime_condition,prime_response,triv1_raw,triv1_correct,triv2_raw,triv2_correct,triv3_raw,triv3_correct,triv4_raw,triv4_correct,triv5_raw,triv5_correct,triv6_raw,triv6_correct,triv7_raw,triv7_correct,triv8_raw,triv8_correct,triv9_raw,triv9_correct,triv10_raw,triv10_correct,triv11_raw,triv11_correct,triv12_raw,triv12_correct,triv13_raw,triv13_correct,triv14_raw,triv14_correct,triv15_raw,triv15_correct,triv16_raw,triv16_correct,triv17_raw,triv17_correct,triv18_raw,triv18_correct,triv19_raw,triv19_correct,triv20_raw,triv20_correct,triv21_raw,triv21_correct,triv22_raw,triv22_correct,triv23_raw,triv23_correct,triv24_raw,triv24_correct,triv25_raw,triv25_correct,triv26_raw,triv26_correct,triv27_raw,triv27_correct,triv28_raw,triv28_correct,triv29_raw,triv29_correct,triv30_raw,triv30_correct,age,major,language,sex_r,year,area_writing,area_trivia,purpose,link_yn,link_text,thinking_yn,thinking_text,comments,prior_hool,Fußballhooligan_int_rating,Fußballhooligan_acc_rating,Universitätsprofessor_int_rating,Universitätsprofessor_acc_rating
20161027-134145,102,female,1,Universitätsprofessor,"Innerhalb der Woche beginnt mein Tag damit, dass ich zunächst bei mir zu hause frühstücke
Im Anschluss daran fahre ich mit dem Fahrrad zur Universität und halte unterschiedliche Vorlesungen
Zu bestimmten Zeiten biete ich Sprechstundne für Studenten an
Ich treffe mich zwei mal in der Woche mit andren Professoren und Kollegen, um mich mit ihnen auszutauschen und zu beraten
Mein Arbeitstag endet meist gegen 18 uhr
ich gehe ",Uganda,False,HTML,False,Wasserschwein,True,Pluto,False,12,True,Bangladesch,False,Arm,True,Dick Turpin,False,Messing,False,Welle,True,Isobare,True,21,True,Ford,False,180,True,Venus,True,Alexander Popow,False,Strahlung,True,Deep Thought,False,Kontinentalsockel,True,Republik,False,Penicillin,True,Paul Cézanne,False,Rio Rojo,False,Im Rachen,True,Weissrussland,False,Mars,False,Händel,False,Luftdruck,True,Keratin,True,Frankreich,True,weiblich,"Psychologie
",Deutsch,23,Im ersten Jahr,Psychologie,"Psychologie
",Ablenkung/Zeitüberbrückung,nein,,nein,,nein,ja,50.0,12,50.0,18
