datetime,Subject ID,Sex,prime_code,prime_condition,prime_response,triv1_raw,triv1_correct,triv2_raw,triv2_correct,triv3_raw,triv3_correct,triv4_raw,triv4_correct,triv5_raw,triv5_correct,triv6_raw,triv6_correct,triv7_raw,triv7_correct,triv8_raw,triv8_correct,triv9_raw,triv9_correct,triv10_raw,triv10_correct,triv11_raw,triv11_correct,triv12_raw,triv12_correct,triv13_raw,triv13_correct,triv14_raw,triv14_correct,triv15_raw,triv15_correct,triv16_raw,triv16_correct,triv17_raw,triv17_correct,triv18_raw,triv18_correct,triv19_raw,triv19_correct,triv20_raw,triv20_correct,triv21_raw,triv21_correct,triv22_raw,triv22_correct,triv23_raw,triv23_correct,triv24_raw,triv24_correct,triv25_raw,triv25_correct,triv26_raw,triv26_correct,triv27_raw,triv27_correct,triv28_raw,triv28_correct,triv29_raw,triv29_correct,triv30_raw,triv30_correct,age,major,language,sex_r,year,area_writing,area_trivia,purpose,link_yn,link_text,thinking_yn,thinking_text,comments,prior_hool,Fußballhooligan_int_rating,Fußballhooligan_acc_rating,Universitätsprofessor_int_rating,Universitätsprofessor_acc_rating
20161104-121959,145,male,1,Universitätsprofessor,"Ich denke, ich würde den größten Teil des Tages an der Uni verbringen, zunächst für Vorlesungen, als auch für organisatorisches und Sprechzeiten, etc. 
Dies wird wahrscheinlich nicht mehr viel Zeit für Hobbys oder ähnliches hinterlassen, sodass mir dieser Beruf wirklich stehen muss, da er quasi zu meinem Leben wird
und dieses auch reichhaltig ausfüllt.  
Möglicherweise würde ich mich nach Feierabend (sofern ein Professor so etwas jemals wirklich hat) mit irgendetwas beschäftigen, was nichts mehr mit den Thematiken in meinem Beruf 
zutun hat.",Simbabwe,False,ASCII,True,Biber,False,Mars,False,6,False,Indien,True,Arm,True,Guy Fawkes,True,Bronze,True,Welle,True,Isotherme,False,21,True,Mitsubishi,False,180,True,Venus,True,Michail Gorbatschow,True,Strahlung,True,Blue Knight,False,Kontinentalrift,False,Faschismus,True,Penicillin,True,Paul Cézanne,False,Rio Rojo,False,Im Rachen,True,Sibirien,True,Saturn,False,Tschaikowski,True,Relative Luftfeuchtigkeit,False,Lecithin,False,Frankreich,True,männlich,Psychologie - Bachelor,Deutsch,21,Im ersten Jahr,Psychologie,Psychologie,Mehr Empathie und Respekt für Professoren!,ja,Keine Ahnung.,nein,,Nein.,nein,50.0,15,70,15.0
