datetime,Subject ID,Sex,prime_code,prime_condition,prime_response,triv1_raw,triv1_correct,triv2_raw,triv2_correct,triv3_raw,triv3_correct,triv4_raw,triv4_correct,triv5_raw,triv5_correct,triv6_raw,triv6_correct,triv7_raw,triv7_correct,triv8_raw,triv8_correct,triv9_raw,triv9_correct,triv10_raw,triv10_correct,triv11_raw,triv11_correct,triv12_raw,triv12_correct,triv13_raw,triv13_correct,triv14_raw,triv14_correct,triv15_raw,triv15_correct,triv16_raw,triv16_correct,triv17_raw,triv17_correct,triv18_raw,triv18_correct,triv19_raw,triv19_correct,triv20_raw,triv20_correct,triv21_raw,triv21_correct,triv22_raw,triv22_correct,triv23_raw,triv23_correct,triv24_raw,triv24_correct,triv25_raw,triv25_correct,triv26_raw,triv26_correct,triv27_raw,triv27_correct,triv28_raw,triv28_correct,triv29_raw,triv29_correct,triv30_raw,triv30_correct,age,major,language,sex_r,year,area_writing,area_trivia,purpose,link_yn,link_text,thinking_yn,thinking_text,comments,prior_hool,Fußballhooligan_int_rating,Fußballhooligan_acc_rating,Universitätsprofessor_int_rating,Universitätsprofessor_acc_rating
20170202-132928,191,female,1,Universitätsprofessor,"Ich bin Universitötsprofessor an einer deutschen Hochschule. Mein Alltag gestaltet sich wie folgt: Morgens stehe ich um 6 Uhr auf und mache mir schnell einen Kaffee, ziehe mich an und wasche mir schnell das Gesicht und putze mir die Zähne. Anschließend nehme ich mir meinen Kaffee und setze mich in mein Auto. Die Strecke zur Universität ist zwar nicht weit, aber morgens kommt man recht langsam voran, weil viele auf dem Weg zur Arbeit sind. Gestresst komme ich in der Uni an und muss erstmal in meinem Büro die Arbeiten erledigen, welche noch von den Vortagen bevorstehen. Icha habe heute 3 vorlesungen und bin mit 4 verschiedenen Kollegen verabredet um verschiedenes über das Universitätsleben zu diskutieren. Es stehen mir am Abend noch Konferenzen mit der Leitung bevor. Wahrscheinlich werde ich heute abend sehr spät zuhause sein. Ich habe ein gestresstes aber dennoch ",Simbabwe,False,ASCII,True,Biber,False,Mars,False,8,False,0,False,Arm,True,Dick Turpin,False,Bronze,True,Eisberg,False,Zyklone,False,20,False,Mitsubishi,False,360,False,Saturn,False,Michail Gorbatschow,True,Strahlung,True,Deep Blue,True,Kontinentalsockel,True,Kommunismus,False,Penicillin,True,Salvador Dali,False,Rio Grande,True,Im Rachen,True,Sibirien,True,Neptun,False,Händel,False,Relative Luftfeuchtigkeit,False,Keratin,True,Frankreich,True,weiblich,"Linguistik (integrativ)
",türkisch,21,Im zweiten Jahr,Sozialpsychologie,Allgemeine Psychologie,Empathievermögen und allgemein Wissen,nein,,nein,,"Nein, danke.",ja,30,15.0,70,20
