datetime,Subject ID,Sex,prime_code,prime_condition,prime_response,triv1_raw,triv1_correct,triv2_raw,triv2_correct,triv3_raw,triv3_correct,triv4_raw,triv4_correct,triv5_raw,triv5_correct,triv6_raw,triv6_correct,triv7_raw,triv7_correct,triv8_raw,triv8_correct,triv9_raw,triv9_correct,triv10_raw,triv10_correct,triv11_raw,triv11_correct,triv12_raw,triv12_correct,triv13_raw,triv13_correct,triv14_raw,triv14_correct,triv15_raw,triv15_correct,triv16_raw,triv16_correct,triv17_raw,triv17_correct,triv18_raw,triv18_correct,triv19_raw,triv19_correct,triv20_raw,triv20_correct,triv21_raw,triv21_correct,triv22_raw,triv22_correct,triv23_raw,triv23_correct,triv24_raw,triv24_correct,triv25_raw,triv25_correct,triv26_raw,triv26_correct,triv27_raw,triv27_correct,triv28_raw,triv28_correct,triv29_raw,triv29_correct,triv30_raw,triv30_correct,age,major,language,sex_r,year,area_writing,area_trivia,purpose,link_yn,link_text,thinking_yn,thinking_text,comments,prior_hool,Universitätsprofessor_int_rating,Universitätsprofessor_acc_rating,Fußballhooligan_int_rating,Fußballhooligan_acc_rating
20170210-105917,220,female,0,Fußballhooligan,"Ich stehe morgens erst gegen mittags auf, da ich meist bis tief in die Nacht mit meinen Kumpels feiere oder bei einem Fussballspiel bin. Danach gehe ich natürlich auch feiern und was trinken. wenn ich zur arbeit gehe, dann muss ich natürlich früher los. ich arbeite auf Baustellen. Meine hobbies sind natürlich Fußball. andere sportarten interessieren mich weniger. ich spiele gern fußball mit freunden und gehe auch regelmäßig zu spielen meines vereins. bei prügeleien schaue ich auch gern zu oder mache mit. da kann ich meine aggressionen so richtig freien lauf geben. ich habe auch schon drüber nachgedacht kampfsport training zu machen. außerdem treibe ich auch etwas bodybuilding.",Botswana,True,ASCII,True,Wasserschwein,True,Erde,True,12,True,Indien,True,Arm,True,Guy Fawkes,True,Bronze,True,Welle,True,Isobare,True,21,True,Chrysler,False,360,False,Venus,True,Michail Gorbatschow,True,Strahlung,True,Deep Thought,False,Kontinentalsockel,True,Faschismus,True,Penicillin,True,Pablo Picasso,True,Rio Grande,True,Im Rachen,True,Sibirien,True,Jupiter,True,Mozart,False,Luftdruck,True,Keratin,True,Frankreich,True,weiblich,"Medizinische Physik
",Deutsch,23,Vier Jahre oder mehr,Philisophie,"Medizin
",Keine Ahnung.,nein,,nein,,Nein,nein,69,16,50,8
