datetime,Subject ID,Sex,prime_code,prime_condition,prime_response,triv1_raw,triv1_correct,triv2_raw,triv2_correct,triv3_raw,triv3_correct,triv4_raw,triv4_correct,triv5_raw,triv5_correct,triv6_raw,triv6_correct,triv7_raw,triv7_correct,triv8_raw,triv8_correct,triv9_raw,triv9_correct,triv10_raw,triv10_correct,triv11_raw,triv11_correct,triv12_raw,triv12_correct,triv13_raw,triv13_correct,triv14_raw,triv14_correct,triv15_raw,triv15_correct,triv16_raw,triv16_correct,triv17_raw,triv17_correct,triv18_raw,triv18_correct,triv19_raw,triv19_correct,triv20_raw,triv20_correct,triv21_raw,triv21_correct,triv22_raw,triv22_correct,triv23_raw,triv23_correct,triv24_raw,triv24_correct,triv25_raw,triv25_correct,triv26_raw,triv26_correct,triv27_raw,triv27_correct,triv28_raw,triv28_correct,triv29_raw,triv29_correct,triv30_raw,triv30_correct,age,major,language,sex_r,year,area_writing,area_trivia,purpose,link_yn,link_text,thinking_yn,thinking_text,comments,prior_hool,Fußballhooligan_int_rating,Fußballhooligan_acc_rating,Universitätsprofessor_int_rating,Universitätsprofessor_acc_rating
20170210-145033,222,female,1,Universitätsprofessor,"Ich bin zielstrebig, denke logisch und bin rational. 
Ich lese viele wissenschaftliche Artikel, tausche mich mit Kollegn aus und arbeite an eigenen Forschungsideen. Ich bereite Vorlesungen vor und halte sie jedes Semester. Einmal wöchentlich habe ich eine Sprechstunde, in der Studierende vorbei kommen können um Fragen zu klären. Ich betreue Bachelor- und Masterarbeiten. 
Ich gehe gerne ins Theater und ins Kino. Am Wochenende verbringe ich Zeit mit meiner Familie, wir gehen gemeinsam ins Museum, spazieren oder verbringen Zeit in unserem Garten.
Meine Mitarbeiter betreue ich ",Simbabwe,False,HTML,False,Biber,False,Erde,True,6,False,Indien,True,Arm,True,Guy Fawkes,True,Bronze,True,Eisberg,False,Isobare,True,21,True,Ford,False,360,False,Venus,True,Michail Gorbatschow,True,Strahlung,True,Deep Blue,True,Kontinentalabhang,False,Demokratie,False,Penicillin,True,Salvador Dali,False,Rio Grande,True,In der Nase,False,Sibirien,True,Jupiter,True,Tschaikowski,True,Luftdruck,True,Keratin,True,Frankreich,True,weiblich,Psychologie,Deutsch,23,Vier Jahre oder mehr,Organisations- und Wirtschaftspsychologie,Kognitive Psychologie,Keine Ahnung.,ja,"Je nachdem, ob Fußballfan oder Professor kommt es evtl. zu unterschiedlichen Ergebnissen im Test?!",nein,,Nein.,ja,35,12,70,19
