datetime,Subject ID,Sex,prime_code,prime_condition,prime_response,triv1_raw,triv1_correct,triv2_raw,triv2_correct,triv3_raw,triv3_correct,triv4_raw,triv4_correct,triv5_raw,triv5_correct,triv6_raw,triv6_correct,triv7_raw,triv7_correct,triv8_raw,triv8_correct,triv9_raw,triv9_correct,triv10_raw,triv10_correct,triv11_raw,triv11_correct,triv12_raw,triv12_correct,triv13_raw,triv13_correct,triv14_raw,triv14_correct,triv15_raw,triv15_correct,triv16_raw,triv16_correct,triv17_raw,triv17_correct,triv18_raw,triv18_correct,triv19_raw,triv19_correct,triv20_raw,triv20_correct,triv21_raw,triv21_correct,triv22_raw,triv22_correct,triv23_raw,triv23_correct,triv24_raw,triv24_correct,triv25_raw,triv25_correct,triv26_raw,triv26_correct,triv27_raw,triv27_correct,triv28_raw,triv28_correct,triv29_raw,triv29_correct,triv30_raw,triv30_correct,age,major,language,sex_r,year,area_writing,area_trivia,purpose,link_yn,link_text,thinking_yn,thinking_text,comments,prior_hool,Universitätsprofessor_int_rating,Universitätsprofessor_acc_rating,Fußballhooligan_int_rating,Fußballhooligan_acc_rating
20161021-113602,42,female,0,Fußballhooligan,"Ich schlafe aus, liege lange im Bett und schalte den TV an. Am liebsten schaue ich RTL, oder die Nachrichten. Vielleicht ist ja diesmal in Bild von mir zu sehen. Danach mache ich mir eine Fertigpizza im Ofen warm und trinke in der Zeit ein Bier. 
Am Nachmittag treffe ich mich mit den Jungs um den nächsten Trip nach XY zu planen. Meistens sind wir schon ein Tag zuvor dort und checken die Lage ab. Wenn mich einer blöd anguckt, wird er von mir direkt angepöbelt. Manchmal gibt's auch eine aufs Maul. Ich halte nichts von diesen reichen Arschlöchern mit ihren IPhones. Eins weniger in ihrer Sammlung schadet ihnen ja nicht. Ich s",Simbabwe,False,HTML,False,Wasserschwein,True,Erde,True,12,True,Pakistan,False,Arm,True,Guy Fawkes,True,Bronze,True,Säule,False,Isobare,True,21,True,Ford,False,180,True,Merkur,False,Michail Gorbatschow,True,Strahlung,True,Blue Knight,False,Kontinentalrift,False,Faschismus,True,Penicillin,True,Henri Matisse,False,Rio Grande,True,Im Rachen,True,Weissrussland,False,Jupiter,True,Tschaikowski,True,Luftdruck,True,Elastin,False,Frankreich,True,weiblich,Sozialwissenschaften,Deutsch,19,Im ersten Jahr,Sozialpsychologie,W ,"Verstehen anderen handels, Wissensüberprüfun",nein,,nein,,nein,ja,76,28,46,4
