datetime,Subject ID,Sex,prime_code,prime_condition,prime_response,triv1_raw,triv1_correct,triv2_raw,triv2_correct,triv3_raw,triv3_correct,triv4_raw,triv4_correct,triv5_raw,triv5_correct,triv6_raw,triv6_correct,triv7_raw,triv7_correct,triv8_raw,triv8_correct,triv9_raw,triv9_correct,triv10_raw,triv10_correct,triv11_raw,triv11_correct,triv12_raw,triv12_correct,triv13_raw,triv13_correct,triv14_raw,triv14_correct,triv15_raw,triv15_correct,triv16_raw,triv16_correct,triv17_raw,triv17_correct,triv18_raw,triv18_correct,triv19_raw,triv19_correct,triv20_raw,triv20_correct,triv21_raw,triv21_correct,triv22_raw,triv22_correct,triv23_raw,triv23_correct,triv24_raw,triv24_correct,triv25_raw,triv25_correct,triv26_raw,triv26_correct,triv27_raw,triv27_correct,triv28_raw,triv28_correct,triv29_raw,triv29_correct,triv30_raw,triv30_correct,age,major,language,sex_r,year,area_writing,area_trivia,purpose,link_yn,link_text,thinking_yn,thinking_text,comments,prior_hool,Universitätsprofessor_int_rating,Universitätsprofessor_acc_rating,Fußballhooligan_int_rating,Fußballhooligan_acc_rating
20161024-111836,55,female,0,Fußballhooligan,"arbeitssuchend, keinen gregelten Tagesablauf
eher niedrigeres Bildungsniveau
Tendenz zu agressivem Verhalten, Unausgeglichenheit, leicht erregbares Temperament, frustriert, Sucht in Gleichgesonnten eine Gemeinschaft, 
Hobbie: selbst Fussball spielen, Kampfsportarten wie Boxen oder Ringen, abends in Kneipen Alkohol konsumieren 
Tagesablauf: morgens spät aufstehen, den ganzen Tag Fernsehen und abends mit den anderen ",Simbabwe,False,HTML,False,Bisamratte,False,Erde,True,12,True,Indien,True,Arm,True,Guy Fawkes,True,Bronze,True,Welle,True,Isotherme,False,21,True,Ford,False,180,True,Venus,True,Nikita Chruschtschow,False,Strahlung,True,Deep Blue,True,Kontinentalsockel,True,Faschismus,True,Penicillin,True,Pablo Picasso,True,Rio Rojo,False,In der Lunge,False,Sibirien,True,Saturn,False,Tschaikowski,True,Luftdruck,True,Keratin,True,Frankreich,True,weiblich,Psychologie,Deutsch,21,Im zweiten Jahr,Sozialpsychologie,Allgemeine Psychologie ,überprüfen ob die beiden Aufgaben das Gedächtnis beeinflussen ,nein,,nein,,Nein ,ja,70,20,30,3
