datetime,Subject ID,Sex,prime_code,prime_condition,prime_response,triv1_raw,triv1_correct,triv2_raw,triv2_correct,triv3_raw,triv3_correct,triv4_raw,triv4_correct,triv5_raw,triv5_correct,triv6_raw,triv6_correct,triv7_raw,triv7_correct,triv8_raw,triv8_correct,triv9_raw,triv9_correct,triv10_raw,triv10_correct,triv11_raw,triv11_correct,triv12_raw,triv12_correct,triv13_raw,triv13_correct,triv14_raw,triv14_correct,triv15_raw,triv15_correct,triv16_raw,triv16_correct,triv17_raw,triv17_correct,triv18_raw,triv18_correct,triv19_raw,triv19_correct,triv20_raw,triv20_correct,triv21_raw,triv21_correct,triv22_raw,triv22_correct,triv23_raw,triv23_correct,triv24_raw,triv24_correct,triv25_raw,triv25_correct,triv26_raw,triv26_correct,triv27_raw,triv27_correct,triv28_raw,triv28_correct,triv29_raw,triv29_correct,triv30_raw,triv30_correct,age,major,language,sex_r,year,area_writing,area_trivia,purpose,link_yn,link_text,thinking_yn,thinking_text,comments,prior_hool,Fußballhooligan_int_rating,Fußballhooligan_acc_rating,Universitätsprofessor_int_rating,Universitätsprofessor_acc_rating
20161019-094114,9,female,1,Universitätsprofessor,"Ich stehe früh morgens auf um mich für den Weg zur Arbeit fertig zu machen. Früh heißt um ca. 6 Uhr, damit ich umhalb neun in der Uni sein kann. Ich fahre mit dem Auto zur Universität und gehe in mein Büro. Dort sehe ich die Post durch, die für mich gekommen ist und beantworte E-Mails. Ab 10 Uhr ca. beginnen meine Lehrveranstaltungen. Ich habe 2 Lehrveranstaltungen am Tag. Kurz bevor ich zu meinen Lehrveranstaltungen gehe, schaue ich mir nochmal meine Präsentationsfolien an um wirklich im Thema angekommen und vorbereitet zu sein. Ich halte meine erste Lehrveranstaltung und habe danach eine Pause, die ich nutze um mit Kollegen etwas essen zu gehen. Beim Essen sprechen wir über die Lehre, neue Forschungsergebnisse und anstehende Termine, wie Tagungen. Nach dem Essen gehe ich zurück in mein Büro und halte anschließend die nächste Lehrveranstaltung.
Charakterlich bin ich ein organisierter, interessierter Mensch, der gerne unterrichtet. In meiner Freizeit lese ich gerne und viel und informiere mich zu meinen Forschungsvorlieben. ",Zaire,False,ASCII,True,Biber,False,Uranus,False,6,False,Bangladesch,False,Arm,True,Dick Turpin,False,Messing,False,Welle,True,Isobare,True,21,True,Ford,False,180,True,Mars,False,Nikita Chruschtschow,False,Strahlung,True,Deep Thought,False,Kontinentalrift,False,Faschismus,True,Penicillin,True,Pablo Picasso,True,Rio Grande,True,Im Rachen,True,Sibirien,True,Jupiter,True,Tschaikowski,True,Luftdruck,True,Keratin,True,Frankreich,True,weiblich,"Anglistik, Medien und Kommunikationswissenschaften",Deutsch,21,Vier Jahre oder mehr,kognitive Psychologie,kognitive Psychologie,"Aufgabe 1: in einen anderen Tagesablauf hineinversetzen, Menschenkenntnis
Aufgabe 2: Wissensabfrage, Verknüpfungen herstellen",ja,Universitätsprofessoren haben in der Regel ein hohes Allgemeinwissen und müssten viele der Fragen richtig beantworten können. Hoologans haben ggf. eine geringere Bildung und können weniger Fragen korrekt beantworten.,nein,,Bei den Studiengebieten müsste die Aufgabenstellung ggf. deutlicher gemacht werden. Sollten Fachgebiete der Psychologie angegeben werden?,ja,35,4,75,23
