datetime,subjID,sex,prime_code,prime_condition,prime_response,triv1_raw,triv1_correct,triv2_raw,triv2_correct,triv3_raw,triv3_correct,triv4_raw,triv4_correct,triv5_raw,triv5_correct,triv6_raw,triv6_correct,triv7_raw,triv7_correct,triv8_raw,triv8_correct,triv9_raw,triv9_correct,triv10_raw,triv10_correct,triv11_raw,triv11_correct,triv12_raw,triv12_correct,triv13_raw,triv13_correct,triv14_raw,triv14_correct,triv15_raw,triv15_correct,triv16_raw,triv16_correct,triv17_raw,triv17_correct,triv18_raw,triv18_correct,triv19_raw,triv19_correct,triv20_raw,triv20_correct,triv21_raw,triv21_correct,triv22_raw,triv22_correct,triv23_raw,triv23_correct,triv24_raw,triv24_correct,triv25_raw,triv25_correct,triv26_raw,triv26_correct,triv27_raw,triv27_correct,triv28_raw,triv28_correct,triv29_raw,triv29_correct,triv30_raw,triv30_correct,age,major,language,sex_r,year,area_writing,area_trivia,purpose,link_yn,link_text,thinking_yn,thinking_text,comments,prior_hool,soccer hooligan_int_rating,soccer hooligan_acc_rating,professor_int_rating,professor_acc_rating
20170202-134922,49336,F,1,professor,"My day begins as I have coffee to stay active through my long day at work and home, juggling a work and domestic life. I firstly go to my office and keep all the piles of paperwork I have and proceed to the classroom, after lecturing for three classes straight I have a break in which I mingle with my colleagues and catch up on tasks. Later if that day has more lectures for me to give, I do so and head back home that is on campus. I come back and try to interact with my family as much as possible and share and reflect all the things I experience at university. 
I am typically a reasonable but outspoken person who is not afraid to voice their opinion. ",Uganda,False,Morse Code,False,Beaver,False,Mars,False,8,False,India,True,12,True,Guy Fawkes,True,Brass,False,Iceberg,False,Fronts,False,21,True,General Motors,True,180,True,Mercury,False,Mikhail Gorbachev,True,In trees,True,Blue Knight,False,Continental Slope,False,Communist,False,Stethoscope,False,Iron,True,Rio Grande,True,In the throat,True,Belarus,False,Saturn,False,Mozart,False,Air pressure,True,Keratin,True,Spain,False,22,Mass Com.,Urdu,female,4th year or higher,psy 102 - social psychology,psy 101 - general psychology,The first one was maybe to asses how people can assume a persons life is just by little information like their profession. The second one was to asses general knowledge in regard to another variable like country or age etc,yes,The link can be that people with a higher GK can consider different dimensions of the professor's life and not jump to conclusions possibly?,no,,no,no,50,12,60,17
