datetime,subjID,sex,prime_code,prime_condition,prime_response,triv1_raw,triv1_correct,triv2_raw,triv2_correct,triv3_raw,triv3_correct,triv4_raw,triv4_correct,triv5_raw,triv5_correct,triv6_raw,triv6_correct,triv7_raw,triv7_correct,triv8_raw,triv8_correct,triv9_raw,triv9_correct,triv10_raw,triv10_correct,triv11_raw,triv11_correct,triv12_raw,triv12_correct,triv13_raw,triv13_correct,triv14_raw,triv14_correct,triv15_raw,triv15_correct,triv16_raw,triv16_correct,triv17_raw,triv17_correct,triv18_raw,triv18_correct,triv19_raw,triv19_correct,triv20_raw,triv20_correct,triv21_raw,triv21_correct,triv22_raw,triv22_correct,triv23_raw,triv23_correct,triv24_raw,triv24_correct,triv25_raw,triv25_correct,triv26_raw,triv26_correct,triv27_raw,triv27_correct,triv28_raw,triv28_correct,triv29_raw,triv29_correct,triv30_raw,triv30_correct,age,major,language,sex_r,year,area_writing,area_trivia,purpose,link_yn,link_text,thinking_yn,thinking_text,comments,prior_hool,professor_int_rating,professor_acc_rating,soccer hooligan_int_rating,soccer hooligan_acc_rating
20170206-112017,49450,F,0,soccer hooligan,I don't have a job. I spend most of my time with my soccer hooligan friends sitting in cafes watching soccer games or arguing about them. I collect alot of collector items for my favourite team. I am a passionate supporter of my team. I take it personally when my team is insulted. I dirnk alot of beer especially before attending matches. I am very passionate about soccer in general. My hobbies revolve around soccer related activities most importantly watching soccer games. ,Botswana,True,HTML,False,Beaver,False,Earth,True,15,False,India,True,12,True,Guy Fawkes,True,Bronze,True,Iceberg,False,Isobars,True,21,True,General Motors,True,360,False,Mars,False,Mikhail Gorbachev,True,Underground,False,Blue Knight,False,Continental Shelf,True,Fascist,True,Penicillin,True,Brass,False,Rio Grande,True,In the nose,False,Siberia,True,Jupiter,True,Tchaikovsky,True,Air pressure,True,Keratin,True,France,True,22,"INS

",arabic,female,4th year or higher,cognitive,cognitive ,no idea,yes,no idea,no,,no,yes,100,25,0,7
