datetime,subjID,sex,prime_code,prime_condition,prime_response,triv1_raw,triv1_correct,triv2_raw,triv2_correct,triv3_raw,triv3_correct,triv4_raw,triv4_correct,triv5_raw,triv5_correct,triv6_raw,triv6_correct,triv7_raw,triv7_correct,triv8_raw,triv8_correct,triv9_raw,triv9_correct,triv10_raw,triv10_correct,triv11_raw,triv11_correct,triv12_raw,triv12_correct,triv13_raw,triv13_correct,triv14_raw,triv14_correct,triv15_raw,triv15_correct,triv16_raw,triv16_correct,triv17_raw,triv17_correct,triv18_raw,triv18_correct,triv19_raw,triv19_correct,triv20_raw,triv20_correct,triv21_raw,triv21_correct,triv22_raw,triv22_correct,triv23_raw,triv23_correct,triv24_raw,triv24_correct,triv25_raw,triv25_correct,triv26_raw,triv26_correct,triv27_raw,triv27_correct,triv28_raw,triv28_correct,triv29_raw,triv29_correct,triv30_raw,triv30_correct,age,major,language,sex_r,year,area_writing,area_trivia,purpose,link_yn,link_text,thinking_yn,thinking_text,comments,prior_hool,soccer hooligan_int_rating,soccer hooligan_acc_rating,professor_int_rating,professor_acc_rating
20170205-124919,49462,F,1,professor,"As a university professor, my daily activities would probably be to wake up early in the morning for a jog and then head back home to shower and head after that to the office. as for the typical activities: initiating communities within my students circle and working on academic and non-academic projects and physical activities. As for my typical personality characteristics, honest, believer in my students, motivator, patient, and percise. My passion as a professor would be to help my students as much as possible in the university life and life advices.",Zaire,False,HTML,False,Muskrat,False,Pluto,False,6,False,Pakistan,False,12,True,Guy Fawkes,True,Bronze,True,Iceberg,False,Isotherms,False,21,True,Mitsubishi,False,180,True,Mars,False,Nikita Krushchev,False,Underground,False,Blue Knight,False,Continental Abyss,False,Communist,False,Penicillin,True,Iron,True,Rio Grande,True,In the lungs,False,Belarus,False,Jupiter,True,Beethoven,False,Wind speed,False,Keratin,True,France,True,19,"Mass Communication
",Arabic,female,2nd year,The first task worked as an engine to get into how I view myself as a professor. So that would give the student an insight of how I think and imagine myself to be. ,"The second experiment measure the general knowledge skills and consisted questions that are completely unrelated. So with that, the student wanted to check my general knowledge and wanted to gather answers thru a list of questions.",Imagining how students would react if they were put in a place to be professors.,yes,"Yes, the link could be that the student is trying to gather as much information and surveys as possible to comprehend how a regular student would react to being a professor.",no,,No.,yes,67,14,85,25
