datetime,subjID,sex,prime_code,prime_condition,prime_response,triv1_raw,triv1_correct,triv2_raw,triv2_correct,triv3_raw,triv3_correct,triv4_raw,triv4_correct,triv5_raw,triv5_correct,triv6_raw,triv6_correct,triv7_raw,triv7_correct,triv8_raw,triv8_correct,triv9_raw,triv9_correct,triv10_raw,triv10_correct,triv11_raw,triv11_correct,triv12_raw,triv12_correct,triv13_raw,triv13_correct,triv14_raw,triv14_correct,triv15_raw,triv15_correct,triv16_raw,triv16_correct,triv17_raw,triv17_correct,triv18_raw,triv18_correct,triv19_raw,triv19_correct,triv20_raw,triv20_correct,triv21_raw,triv21_correct,triv22_raw,triv22_correct,triv23_raw,triv23_correct,triv24_raw,triv24_correct,triv25_raw,triv25_correct,triv26_raw,triv26_correct,triv27_raw,triv27_correct,triv28_raw,triv28_correct,triv29_raw,triv29_correct,triv30_raw,triv30_correct,age,major,language,sex_r,year,area_writing,area_trivia,purpose,link_yn,link_text,thinking_yn,thinking_text,comments,prior_hool,soccer hooligan_int_rating,soccer hooligan_acc_rating,professor_int_rating,professor_acc_rating
20170207-125511,49480,F,1,professor,"In my daily life as a professor, I wake up in the morning and go for a jog for about 20-30 minutes. I then get back home (which is on campus) take a bath, get ready to teach my classes and then go to the university and teach 3 classes from 9am to 12pm. I then have office hours till 3pm. After that I work on my research material when I go back home and check my emails simultaneously to see if any of my student has email me and  answer all of them. As a professor I am quite friendly with my students and make sure we have a certain level of understanding with each other. I am always ready to answer questions asked by my students, any kind of questions is welcome. As a professor, I love tecah",Uganda,False,Morse Code,False,Capybara,True,Earth,True,8,False,India,True,12,True,Guy Fawkes,True,Brass,False,Pillar,False,Isobars,True,21,True,General Motors,True,180,True,Venus,True,Boris Yeltsin,False,Underground,False,Blue Knight,False,Continental Slope,False,Republic,False,Penicillin,True,Iron,True,Colorado River,False,In the lungs,False,Ukraine,False,Jupiter,True,Mozart,False,Wind speed,False,Lecithin,False,Spain,False,20,Finance,Gujarati,female,3rd year,Cognitive Psychology,Cognitive Psychology,"First task: Probably to understand how far imagination could go. And what a student perceives a professor does in their day to day life.
Second task: Few questions have been taught to us in school, so it was probably a test of the memory. And the other parts was just to test how much information can we grasp from our surrounding.",no,,yes,I felt as though I was still thinking as a professor. It took a little time to come out of that zone.,I would like to know the correct answers to the questions in the second task.,no,42,7,85,28
