datetime,subjID,sex,prime_code,prime_condition,prime_response,triv1_raw,triv1_correct,triv2_raw,triv2_correct,triv3_raw,triv3_correct,triv4_raw,triv4_correct,triv5_raw,triv5_correct,triv6_raw,triv6_correct,triv7_raw,triv7_correct,triv8_raw,triv8_correct,triv9_raw,triv9_correct,triv10_raw,triv10_correct,triv11_raw,triv11_correct,triv12_raw,triv12_correct,triv13_raw,triv13_correct,triv14_raw,triv14_correct,triv15_raw,triv15_correct,triv16_raw,triv16_correct,triv17_raw,triv17_correct,triv18_raw,triv18_correct,triv19_raw,triv19_correct,triv20_raw,triv20_correct,triv21_raw,triv21_correct,triv22_raw,triv22_correct,triv23_raw,triv23_correct,triv24_raw,triv24_correct,triv25_raw,triv25_correct,triv26_raw,triv26_correct,triv27_raw,triv27_correct,triv28_raw,triv28_correct,triv29_raw,triv29_correct,triv30_raw,triv30_correct,age,major,language,sex_r,year,area_writing,area_trivia,purpose,link_yn,link_text,thinking_yn,thinking_text,comments,prior_hool,soccer hooligan_int_rating,soccer hooligan_acc_rating,professor_int_rating,professor_acc_rating
20170202-094946,49513,F,1,professor,"As a professor, I will make sure I come to college relatively early to check up on my students and see how they are doing. I am a professor in urban design so the studio life and interacting with my students is very important. my activities include teach urban design projects in studio and also giving elective urban design related courses that are open for both architecture as well as other majors. my day ends at 5 when studio is over, so I spend some time t5alking to people from my studio and from other studios. After that, I go do my daily exercise, eat my last meal of the day, watch some TV, and then go to sleep. ",Zimbabwe,False,ASCII,True,Capybara,True,Uranus,False,6,False,Pakistan,False,12,True,Sweeney Todd,False,Brass,False,Pillar,False,Isobars,True,21,True,General Motors,True,90,False,Saturn,False,Nikita Krushchev,False,Underground,False,Deep Blue,True,0,False,Fascist,True,X Rays,False,Brass,False,Rio Grande,True,In the throat,True,Belarus,False,Jupiter,True,Mozart,False,Relative humidity,False,Collagen,False,Spain,False,21,Architecture,Arabic,female,4th year or higher,day to day activities,general knowledge,"the task of the first one was to see if people could actually imagine how their lives would be of they were to become professors
the purpose of the second one is to have an overview of the general knowledge of individuals",yes,a person who aims to be a professor will probably know more than a person who aims for an ordinary undergrad degree,no,,no,no,40,9,70,21
