datetime,subjID,sex,prime_code,prime_condition,prime_response,triv1_raw,triv1_correct,triv2_raw,triv2_correct,triv3_raw,triv3_correct,triv4_raw,triv4_correct,triv5_raw,triv5_correct,triv6_raw,triv6_correct,triv7_raw,triv7_correct,triv8_raw,triv8_correct,triv9_raw,triv9_correct,triv10_raw,triv10_correct,triv11_raw,triv11_correct,triv12_raw,triv12_correct,triv13_raw,triv13_correct,triv14_raw,triv14_correct,triv15_raw,triv15_correct,triv16_raw,triv16_correct,triv17_raw,triv17_correct,triv18_raw,triv18_correct,triv19_raw,triv19_correct,triv20_raw,triv20_correct,triv21_raw,triv21_correct,triv22_raw,triv22_correct,triv23_raw,triv23_correct,triv24_raw,triv24_correct,triv25_raw,triv25_correct,triv26_raw,triv26_correct,triv27_raw,triv27_correct,triv28_raw,triv28_correct,triv29_raw,triv29_correct,triv30_raw,triv30_correct,age,major,language,sex_r,year,area_writing,area_trivia,purpose,link_yn,link_text,thinking_yn,thinking_text,comments,prior_hool,soccer hooligan_int_rating,soccer hooligan_acc_rating,professor_int_rating,professor_acc_rating
20170206-134149,49579,F,1,professor,"q1: as a professor i would woke up early make myself some breakfast, check my email, being ready to teach. 
q2: My typical activites would be going to the gym after i finish all my classes, soccer and jogging 
q3: i would have a postivie personality towards everybody even if i'm having a hard day, smart, understanding of students situations 
q4: hobbies: would be reading, writing and making powerpoints",Botswana,True,HTML,False,Muskrat,False,Pluto,False,6,False,Phillipines,False,12,True,Guy Fawkes,True,Bronze,True,Wave,True,Isotherms,False,25,False,Mitsubishi,False,180,True,Mercury,False,Nikita Krushchev,False,In trees,True,Blue Knight,False,Continental Slope,False,Republic,False,Stethoscope,False,Iron,True,Rio Grande,True,In the lungs,False,Ukraine,False,Jupiter,True,Handel,False,Air temperature,False,Keratin,True,Spain,False,18,INS,ARABIC,female,1st year,PSYCHOLOGY,PSYCHOLOGY,no idea,no,,yes,no idea,no ,yes,10,15,90,25
