datetime,subjID,sex,prime_code,prime_condition,prime_response,triv1_raw,triv1_correct,triv2_raw,triv2_correct,triv3_raw,triv3_correct,triv4_raw,triv4_correct,triv5_raw,triv5_correct,triv6_raw,triv6_correct,triv7_raw,triv7_correct,triv8_raw,triv8_correct,triv9_raw,triv9_correct,triv10_raw,triv10_correct,triv11_raw,triv11_correct,triv12_raw,triv12_correct,triv13_raw,triv13_correct,triv14_raw,triv14_correct,triv15_raw,triv15_correct,triv16_raw,triv16_correct,triv17_raw,triv17_correct,triv18_raw,triv18_correct,triv19_raw,triv19_correct,triv20_raw,triv20_correct,triv21_raw,triv21_correct,triv22_raw,triv22_correct,triv23_raw,triv23_correct,triv24_raw,triv24_correct,triv25_raw,triv25_correct,triv26_raw,triv26_correct,triv27_raw,triv27_correct,triv28_raw,triv28_correct,triv29_raw,triv29_correct,triv30_raw,triv30_correct,age,major,language,sex_r,year,area_writing,area_trivia,purpose,link_yn,link_text,thinking_yn,thinking_text,comments,prior_hool,soccer hooligan_int_rating,soccer hooligan_acc_rating,professor_int_rating,professor_acc_rating
20170207-164851,49642,M,1,professor,"In my daily life I teach students 3 hours everyday in classrooms. Then at the afternoon, I work on my research. Finally, I would enjoy the time with my family at night and maybe workout. 

My attributes are I'm very self-motivated, Ioving, kind, and most importantly helpful.

My hobbies are running, playing backetball, reading self-help books, gaining knowledge through any medium of communication, and rowing. ",Botswana,True,Wordpad,False,Beaver,False,Pluto,False,12,True,Pakistan,False,12,True,Robin Hood,False,Solder,False,Wave,True,Isobars,True,21,True,General Motors,True,360,False,Mercury,False,Boris Yeltsin,False,Underground,False,Deep Thought,False,Continental Abyss,False,Democracy,False,Penicillin,True,Iron,True,Colorado River,False,In the throat,True,Siberia,True,Mars,False,Mozart,False,Air pressure,True,Collagen,False,Spain,False,20,mechanical engineering,arabic,male,4th year or higher,Science of education ,Intelligence study,To understand human behavior ,yes,If you believed that you are an instructor then this may increase your intelligence ,no,,Nothing really ,no,56,13,62,17
