datetime,subjID,sex,prime_code,prime_condition,prime_response,triv1_raw,triv1_correct,triv2_raw,triv2_correct,triv3_raw,triv3_correct,triv4_raw,triv4_correct,triv5_raw,triv5_correct,triv6_raw,triv6_correct,triv7_raw,triv7_correct,triv8_raw,triv8_correct,triv9_raw,triv9_correct,triv10_raw,triv10_correct,triv11_raw,triv11_correct,triv12_raw,triv12_correct,triv13_raw,triv13_correct,triv14_raw,triv14_correct,triv15_raw,triv15_correct,triv16_raw,triv16_correct,triv17_raw,triv17_correct,triv18_raw,triv18_correct,triv19_raw,triv19_correct,triv20_raw,triv20_correct,triv21_raw,triv21_correct,triv22_raw,triv22_correct,triv23_raw,triv23_correct,triv24_raw,triv24_correct,triv25_raw,triv25_correct,triv26_raw,triv26_correct,triv27_raw,triv27_correct,triv28_raw,triv28_correct,triv29_raw,triv29_correct,triv30_raw,triv30_correct,age,major,language,sex_r,year,area_writing,area_trivia,purpose,link_yn,link_text,thinking_yn,thinking_text,comments,prior_hool,voetbalhooligan_int_rating,voetbalhooligan_acc_rating,professor_int_rating,professor_acc_rating
20170201-114632,166,2,1,professor,"leergierig
altijd wat nieuws willen ontdekken
lezen als hobby 
houd me niet bezig met mode over het algemeen
ik hou van films kijken
Ik hou van mooie reizen maken
kijk niet naar commerciele televisie 
",Uganda,False,ASCII,True,Muskusrat,False,Pluto,False,12,True,India,True,Arm,True,Dick Turpin,False,Soldeer,False,IJsberg,False,Isobaren,True,21,True,Ford,False,180,True,Mars,False,Mikhail Gorbachov,True,Druk,False,King Blue,False,Tektonische plaat,True,Democratie,False,Röntgenstraling,False,Salvador Dali,False,Rio Rojo,False,In de keel,True,Wit-Rusland,False,Mars,False,Mozart,False,Luchttemperatuur,False,Collageen,False,Frankrijk,True,1e jaar,vrouw,19,Nederlands,pedagogische wetenschappen,professor , ,stereotyperingen,ja,als je je inleeft in een professor kan je de vragen beter beantwoorden,nee,,nee,ja,32,13,80,27
