datetime,subjID,sex,prime_code,prime_condition,prime_response,triv1_raw,triv1_correct,triv2_raw,triv2_correct,triv3_raw,triv3_correct,triv4_raw,triv4_correct,triv5_raw,triv5_correct,triv6_raw,triv6_correct,triv7_raw,triv7_correct,triv8_raw,triv8_correct,triv9_raw,triv9_correct,triv10_raw,triv10_correct,triv11_raw,triv11_correct,triv12_raw,triv12_correct,triv13_raw,triv13_correct,triv14_raw,triv14_correct,triv15_raw,triv15_correct,triv16_raw,triv16_correct,triv17_raw,triv17_correct,triv18_raw,triv18_correct,triv19_raw,triv19_correct,triv20_raw,triv20_correct,triv21_raw,triv21_correct,triv22_raw,triv22_correct,triv23_raw,triv23_correct,triv24_raw,triv24_correct,triv25_raw,triv25_correct,triv26_raw,triv26_correct,triv27_raw,triv27_correct,triv28_raw,triv28_correct,triv29_raw,triv29_correct,triv30_raw,triv30_correct,age,major,language,sex_r,year,area_writing,area_trivia,purpose,link_yn,link_text,thinking_yn,thinking_text,comments,prior_hool,soccer hooligan_int_rating,soccer hooligan_acc_rating,professor_int_rating,professor_acc_rating
20170130-130425,019,F,1,professor,"- I am reading books, researching articles online, meditating, relaxing, grading papers.
-My daily activities would be researching on how to make my class more effective, helping students on a 1 on 1 basis, watching movies on my down time, and exercising. 
-My personlaity would be uptight, stressed, scatter brained.
-My passions and hobbies are serving others, reading, and humanitarian work. I also like plant in my garden, spend time with family, do yoga, and playing the piano. Playing the piano has been my passion since I was a kid and also helps me become less stressed and work through my emotions whenever I have a long day. ",Zaire,False,HTML,False,Muskrat,False,Pluto,False,8,False,India,True,Leg,False,Robin Hood,False,Brass,False,Iceberg,False,Isobars,True,21,True,Chrysler,False,180,True,Venus,True,Nikita Krushchev,False,Rainfall,False,King Blue,False,Continental Abyss,False,Communist,False,X Rays,False,Salvador Dali,False,Colorado River,False,In the spine,False,Siberia,True,Jupiter,True,Beethoven,False,Wind speed,False,Keratin,True,France,True,22,psychology,English,female,4th year or higher,Research Lab,Research Lab,seeing things from a different perscpective,yes,one would make smarter decisions,no,,no,no,31,11,75,20
