datetime,subjID,sex,prime_code,prime_condition,prime_response,triv1_raw,triv1_correct,triv2_raw,triv2_correct,triv3_raw,triv3_correct,triv4_raw,triv4_correct,triv5_raw,triv5_correct,triv6_raw,triv6_correct,triv7_raw,triv7_correct,triv8_raw,triv8_correct,triv9_raw,triv9_correct,triv10_raw,triv10_correct,triv11_raw,triv11_correct,triv12_raw,triv12_correct,triv13_raw,triv13_correct,triv14_raw,triv14_correct,triv15_raw,triv15_correct,triv16_raw,triv16_correct,triv17_raw,triv17_correct,triv18_raw,triv18_correct,triv19_raw,triv19_correct,triv20_raw,triv20_correct,triv21_raw,triv21_correct,triv22_raw,triv22_correct,triv23_raw,triv23_correct,triv24_raw,triv24_correct,triv25_raw,triv25_correct,triv26_raw,triv26_correct,triv27_raw,triv27_correct,triv28_raw,triv28_correct,triv29_raw,triv29_correct,triv30_raw,triv30_correct,age,major,language,sex_r,year,area_writing,area_trivia,purpose,link_yn,link_text,thinking_yn,thinking_text,comments,prior_hool,soccer hooligan_int_rating,soccer hooligan_acc_rating,professor_int_rating,professor_acc_rating
20170201-104625,016,1,1,professor,"I spend most of my time on research, reading books and research papers written by other professors. I engage in intellectual discussions about topics within my areas of research interests. I also prepare notes and mark homework from my students. I also occasionally do some consulting projects with businesses. 

My hobbies include reading, travelling and perhaps sports like running/swimming or golf. Travelling is a passion that resulted from years of overseas studies and also frequent conferences held in foreign universities. I might have a small interest in foreign languages as well. I'm typically quite determined and goal-oriented, someone who is a high-achiever. I enjoy simple pleasures in life. ",Botswana,True,ASCII,True,Muskrat,False,Mars,False,6,False,India,True,Leg,False,Guy Fawkes,True,Pewter,False,Iceberg,False,Isobars,True,21,True,Ford,False,180,True,Venus,True,Mikhail Gorbachev,True,Radiation,True,Deep Blue,True,Continental Rise,False,Fascist,True,Penicillin,True,Henri Matisse,False,Rio Grande,True,In the throat,True,Siberia,True,Jupiter,True,Tchaikovsky,True,Air pressure,True,Keratin,True,France,True,25,Business,English,male,4th year or higher,"Creativity, empathy",openess to experience,no idea,yes,"It makes us try to think from a professor's point of view, so we're more likely to be able to answer hard questions",no,,no,no,35,8,75,23
