datetime,subjID,sex,prime_code,prime_condition,prime_response,triv1_raw,triv1_correct,triv2_raw,triv2_correct,triv3_raw,triv3_correct,triv4_raw,triv4_correct,triv5_raw,triv5_correct,triv6_raw,triv6_correct,triv7_raw,triv7_correct,triv8_raw,triv8_correct,triv9_raw,triv9_correct,triv10_raw,triv10_correct,triv11_raw,triv11_correct,triv12_raw,triv12_correct,triv13_raw,triv13_correct,triv14_raw,triv14_correct,triv15_raw,triv15_correct,triv16_raw,triv16_correct,triv17_raw,triv17_correct,triv18_raw,triv18_correct,triv19_raw,triv19_correct,triv20_raw,triv20_correct,triv21_raw,triv21_correct,triv22_raw,triv22_correct,triv23_raw,triv23_correct,triv24_raw,triv24_correct,triv25_raw,triv25_correct,triv26_raw,triv26_correct,triv27_raw,triv27_correct,triv28_raw,triv28_correct,triv29_raw,triv29_correct,triv30_raw,triv30_correct,age,major,language,sex_r,year,area_writing,area_trivia,purpose,link_yn,link_text,thinking_yn,thinking_text,comments,prior_hool,soccer hooligan_int_rating,soccer hooligan_acc_rating,professor_int_rating,professor_acc_rating
20170206-102230,036,1,1,professor,"I enjoy solitary activities such as reading, running and watching television. 

In my job, I publish articles. Sometimes I publish articles because I am really interested in it, some times just for the sake of meeting my KPI as a professor. I also present at conferences. I attend conferences to find out about the latest research and at the same time meet other like-minded academics.

I also teach as part of my job. This takes intentional effort, because the road to my PhD has not been via presentations, but by individual research. Functioning in a constantly crowded environment is not my forte. However, I may find myself enjoying it eventually.

I am introverted, self disciplined and driven. I can do things on my own effectively without much supervision.

I also mentor younger researchers. I share my experiences with them, and collaborate on research with them.

I have a family with children. I clock 9-5 and then go home to spend time with my family, because I am on track with my research. I may also do consulting on the side to earn some extra income while also applying my academia knowledge into the real world. Hopefully that would make me a more effective professor as well. ",Zaire,False,ASCII,True,Muskrat,False,Earth,True,12,True,Bangladesh,False,Arm,True,Guy Fawkes,True,Bronze,True,Iceberg,False,Isobars,True,21,True,General Motors,True,180,True,Venus,True,Alexander Popov,False,Radiation,True,Deep Blue,True,Continental Abyss,False,Fascist,True,X Rays,False,Paul Cezanne,False,Rio Rojo,False,In the nose,False,Siberia,True,Jupiter,True,Tchaikovsky,True,Air pressure,True,Keratin,True,Greece,False,23,None,English,male,2nd year,How students view professors,Whether there were certain biases in associating words with fields of knowledge,Word association,no,,no,,nope!,no,25,5,65,15.0
