datetime,subjID,sex,prime_code,prime_condition,prime_response,triv1_raw,triv1_correct,triv2_raw,triv2_correct,triv3_raw,triv3_correct,triv4_raw,triv4_correct,triv5_raw,triv5_correct,triv6_raw,triv6_correct,triv7_raw,triv7_correct,triv8_raw,triv8_correct,triv9_raw,triv9_correct,triv10_raw,triv10_correct,triv11_raw,triv11_correct,triv12_raw,triv12_correct,triv13_raw,triv13_correct,triv14_raw,triv14_correct,triv15_raw,triv15_correct,triv16_raw,triv16_correct,triv17_raw,triv17_correct,triv18_raw,triv18_correct,triv19_raw,triv19_correct,triv20_raw,triv20_correct,triv21_raw,triv21_correct,triv22_raw,triv22_correct,triv23_raw,triv23_correct,triv24_raw,triv24_correct,triv25_raw,triv25_correct,triv26_raw,triv26_correct,triv27_raw,triv27_correct,triv28_raw,triv28_correct,triv29_raw,triv29_correct,triv30_raw,triv30_correct,age,major,language,sex_r,year,area_writing,area_trivia,purpose,link_yn,link_text,thinking_yn,thinking_text,comments,prior_hool,professor_int_rating,professor_acc_rating,soccer hooligan_int_rating,soccer hooligan_acc_rating
20170206-111939,053,1,0,soccer hooligan,"I will be drinking every night with my other hooligan friends at a bar while watching soccer and cursing the opponent team if they scores. When I see other hooligans cheering for other teams, I will be pissed off and swear at them. 

My characteristics are loyal, passionate and aggresive. 

My typical passion as a soccer hooligan is to collect players poster and wearing the club shirt.",Uganda,False,ASCII,True,Coypu,False,Uranus,False,12,True,Pakistan,False,Leg,False,Guy Fawkes,True,Brass,False,0,False,Isotherms,False,21,True,Mitsubishi,False,90,False,Venus,True,Mikhail Gorbachev,True,Radiation,True,King Blue,False,Continental Abyss,False,Fascist,True,Stethoscope,False,Paul Cezanne,False,Rio Grande,True,In the throat,True,Ukraine,False,Jupiter,True,Mozart,False,Air pressure,True,Keratin,True,France,True,26,information systems,chinese,male,4th year or higher,scenario,general knowledge,the degree of general knowledge of the millenials based on gender,no,,no,,NIL,yes,80,22,50.0,10
