datetime,subjID,sex,prime_code,prime_condition,prime_response,triv1_raw,triv1_correct,triv2_raw,triv2_correct,triv3_raw,triv3_correct,triv4_raw,triv4_correct,triv5_raw,triv5_correct,triv6_raw,triv6_correct,triv7_raw,triv7_correct,triv8_raw,triv8_correct,triv9_raw,triv9_correct,triv10_raw,triv10_correct,triv11_raw,triv11_correct,triv12_raw,triv12_correct,triv13_raw,triv13_correct,triv14_raw,triv14_correct,triv15_raw,triv15_correct,triv16_raw,triv16_correct,triv17_raw,triv17_correct,triv18_raw,triv18_correct,triv19_raw,triv19_correct,triv20_raw,triv20_correct,triv21_raw,triv21_correct,triv22_raw,triv22_correct,triv23_raw,triv23_correct,triv24_raw,triv24_correct,triv25_raw,triv25_correct,triv26_raw,triv26_correct,triv27_raw,triv27_correct,triv28_raw,triv28_correct,triv29_raw,triv29_correct,triv30_raw,triv30_correct,age,major,language,sex_r,year,area_writing,area_trivia,purpose,link_yn,link_text,thinking_yn,thinking_text,comments,prior_hool,soccer hooligan_int_rating,soccer hooligan_acc_rating,professor_int_rating,professor_acc_rating
20170213-161906,2333,female,1,professor,Typical activities would include interacting with students and other professors.  Grading papers and assignments. There are several different types of personalities that professors have such as nice and personable and then there are some that are not as nice and standoffish. Typical passions could be reading and whatever area of studies you are teaching in. Many professors have families that they like to do things with.     ,Zimbabwe,False,ASCII,True,Capybara,True,Earth,True,8,False,Pakistan,False,Leg,False,Dick Turpin,False,Bronze,True,Iceberg,False,Isobars,True,21,True,Chrysler,False,180,True,Venus,True,Alexander Popov,False,Temperature,False,Blue Knight,False,Continental Slope,False,Democracy,False,Penicillin,True,Pablo Picasso,True,Rio Grande,True,In the throat,True,Belarus,False,Jupiter,True,Mozart,False,Wind speed,False,Keratin,True,France,True,19,prenursing,English,female,2nd year,universtoty professor ,stage 5 ,to see our opinions on professors and to see what triva we know ,yes,"No idea 
",yes,"Whether you had a good experince with a profrssor or not 
",no,yes,80,20,90,25
