datetime,subjID,sex,prime_code,prime_condition,prime_response,triv1_raw,triv1_correct,triv2_raw,triv2_correct,triv3_raw,triv3_correct,triv4_raw,triv4_correct,triv5_raw,triv5_correct,triv6_raw,triv6_correct,triv7_raw,triv7_correct,triv8_raw,triv8_correct,triv9_raw,triv9_correct,triv10_raw,triv10_correct,triv11_raw,triv11_correct,triv12_raw,triv12_correct,triv13_raw,triv13_correct,triv14_raw,triv14_correct,triv15_raw,triv15_correct,triv16_raw,triv16_correct,triv17_raw,triv17_correct,triv18_raw,triv18_correct,triv19_raw,triv19_correct,triv20_raw,triv20_correct,triv21_raw,triv21_correct,triv22_raw,triv22_correct,triv23_raw,triv23_correct,triv24_raw,triv24_correct,triv25_raw,triv25_correct,triv26_raw,triv26_correct,triv27_raw,triv27_correct,triv28_raw,triv28_correct,triv29_raw,triv29_correct,triv30_raw,triv30_correct,age,major,language,sex_r,year,area_writing,area_trivia,purpose,link_yn,link_text,thinking_yn,thinking_text,comments,prior_hool,professor_int_rating,professor_acc_rating,soccer hooligan_int_rating,soccer hooligan_acc_rating
20161107-135708,2471,Male,0,soccer hooligan,"My typical hobbies and passions obviously revolve around the sport of soccer! I love going out to the pub a few close pals and getting a wee bit tipsy before we shimmy out the front door of the pub and down the street to the stadium. We usually all urinate on the way to the game in one of the various porta-potty's or just the nice city concrete. We go inside the stadium. We walk immediately to our seats because we don't need anything else. We have our jerseys on and our beers in hand. We sit through the entire game, drinking beers until we run dry of funds. the score ends up in a tie. tHat invigorates us so we run outside and start throwing cans of beer at cars which hold our rivals' logo. We cause havoc for a decent amount of time until we all get worn out and drunkenly walk home to our respected houses. I go upstairs, barely shutting the door, as soon as i am home. I whip out some listerine and rinse my mouth to rid myself of alcohol breath. I then go lay in bed because after a long day of drinking, nothing feels better than being under my sheets. I went to bed at 6:30 PM.",Uganda,False,HTML,False,Capybara,True,Mars,False,6,False,India,True,Arm,True,Dick Turpin,False,Brass,False,Iceberg,False,Fronts,False,21,True,Chrysler,False,360,False,Venus,True,Mikhail Gorbachev,True,Pressure,False,Blue Knight,False,Continental Abyss,False,Fascist,True,X Rays,False,Salvador Dali,False,Rio Grande,True,In the throat,True,Siberia,True,Jupiter,True,Mozart,False,Wind speed,False,Collagen,False,Germany,False,20,"Advertising
",English,male,2nd year,writing,remembering,"no idea
",no,,no,,"no
",no,88,10,11,6
