datetime,subjID,sex,prime_code,prime_condition,prime_response,triv1_raw,triv1_correct,triv2_raw,triv2_correct,triv3_raw,triv3_correct,triv4_raw,triv4_correct,triv5_raw,triv5_correct,triv6_raw,triv6_correct,triv7_raw,triv7_correct,triv8_raw,triv8_correct,triv9_raw,triv9_correct,triv10_raw,triv10_correct,triv11_raw,triv11_correct,triv12_raw,triv12_correct,triv13_raw,triv13_correct,triv14_raw,triv14_correct,triv15_raw,triv15_correct,triv16_raw,triv16_correct,triv17_raw,triv17_correct,triv18_raw,triv18_correct,triv19_raw,triv19_correct,triv20_raw,triv20_correct,triv21_raw,triv21_correct,triv22_raw,triv22_correct,triv23_raw,triv23_correct,triv24_raw,triv24_correct,triv25_raw,triv25_correct,triv26_raw,triv26_correct,triv27_raw,triv27_correct,triv28_raw,triv28_correct,triv29_raw,triv29_correct,triv30_raw,triv30_correct,age,major,language,sex_r,year,area_writing,area_trivia,purpose,link_yn,link_text,thinking_yn,thinking_text,comments,prior_hool,soccer hooligan_int_rating,soccer hooligan_acc_rating,professor_int_rating,professor_acc_rating
20161121-181720,4350,male,1,professor,"As a University Professor, I tend to donate 100% of my time to educating future generations of this world. My job is to teach those whom want to further their education and strive in the world after college. After giving lectures, I usually stay after class to answer any questions that students may have about the subject itself, or anything else regarding my personal life. I try to teach in a way that makes students feel most comfortable, and by doing so I try to develop close personal relationships with them. After that is all finished, I get together with friends for lunch or family. Depending on the day, I will check how my University sports team has been doing, as well as my local teams in the state of Michigan. I am passionate about my research in the medical field especially due to the fact that I can help others.",Zimbabwe,False,HTML,False,Beaver,False,Earth,True,6,False,Bangledesh,False,Arm,True,Robin Hood,False,Brass,False,Wave,True,Fronts,False,21,True,Mitsubishi,False,180,True,Mars,False,Nikita Krushchev,False,Pressure,False,Blue Knight,False,Continental Abyss,False,Fascist,True,Penicillin,True,Salvador Dali,False,Rio Grande,True,In the throat,True,Ukraine,False,Saturn,False,Beethoven,False,Air pressure,True,Keratin,True,France,True,19,"Psychology 
",English,male,2nd year,Professor at University ,Student in cognitive psychology,The second part of the task was to see whether or not given a harder difficulty will prime the subject to think longer and harder about questions being answered. Also to determine whether or not the difficulty of the task would impede with your memory of what the actual test was in the end. ,yes,"thinking that you are a professor makes it seem like you are smart, and puts you in a thinking mindset to answer the next set of questions.",no,,N/A,no,50,15.0,70,17
