datetime,subjID,sex,prime_code,prime_condition,prime_response,triv1_raw,triv1_correct,triv2_raw,triv2_correct,triv3_raw,triv3_correct,triv4_raw,triv4_correct,triv5_raw,triv5_correct,triv6_raw,triv6_correct,triv7_raw,triv7_correct,triv8_raw,triv8_correct,triv9_raw,triv9_correct,triv10_raw,triv10_correct,triv11_raw,triv11_correct,triv12_raw,triv12_correct,triv13_raw,triv13_correct,triv14_raw,triv14_correct,triv15_raw,triv15_correct,triv16_raw,triv16_correct,triv17_raw,triv17_correct,triv18_raw,triv18_correct,triv19_raw,triv19_correct,triv20_raw,triv20_correct,triv21_raw,triv21_correct,triv22_raw,triv22_correct,triv23_raw,triv23_correct,triv24_raw,triv24_correct,triv25_raw,triv25_correct,triv26_raw,triv26_correct,triv27_raw,triv27_correct,triv28_raw,triv28_correct,triv29_raw,triv29_correct,triv30_raw,triv30_correct,age,major,language,sex_r,year,area_writing,area_trivia,purpose,link_yn,link_text,thinking_yn,thinking_text,comments,prior_hool,Fussballhooligan_int_rating,Fussballhooligan_acc_rating,Universitätsprofessor_int_rating,Universitätsprofessor_acc_rating
20161130-161758,064,2,1,Universitätsprofessor,"Ich lese gerne Romane und Fachzeitschriften.
Ich bin sehr genau und achte besonders auf Kleinigkeiten.
Ich plane mein Leben rund um meinen Universitaetsalltag.
Ich bin offen und freundlich.
Ich bin ausserdem ein bisschen muerrisch.
Am wochenende mache ich gerne kurze Ausfluege mit meiner Frau. 
Ich spiele gerne die Trompete und bin im Universitaets-Orchester aktiv.
Mit meinen kindern gehe ich gerne ins Theater und besuche Kunstausstellungen. ",Uganda,False,Wordpad,False,Biber,False,Mars,False,12,True,Pakistan,False,Arm,True,Guy Fawkes,True,Bronze,True,Welle,True,Isobare,True,21,True,Mitsubishi,False,180,True,Mars,False,Boris Jelzin,False,Niederschlag,False,Deep Blue,True,Kontinentalabhang,False,Kommunismus,False,Penicillin,True,Henri Matisse,False,Rio Grande,True,Im Rachen,True,Kasachstan,False,Jupiter,True,Mozart,False,Luftdruck,True,Keratin,True,Frankreich,True,weiblich,Psychologie,Deutsch,20,Im ersten Jahr,Soziologie,Psychologie,Beeinflussung der Probanden auf verschiedene Fragen durch Grammatikfehler und falsche Schreibweisen.,ja,"Der score liegt hoeher, wenn man davon ausgeht einen hohen Abschluss erreicht zu haben. Oder niedriger, weil man sicher selbst ueberschaetzt.",nein,,nein,ja,31,9,65,20
