datetime,subjID,sex,prime_code,prime_condition,prime_response,triv1_raw,triv1_correct,triv2_raw,triv2_correct,triv3_raw,triv3_correct,triv4_raw,triv4_correct,triv5_raw,triv5_correct,triv6_raw,triv6_correct,triv7_raw,triv7_correct,triv8_raw,triv8_correct,triv9_raw,triv9_correct,triv10_raw,triv10_correct,triv11_raw,triv11_correct,triv12_raw,triv12_correct,triv13_raw,triv13_correct,triv14_raw,triv14_correct,triv15_raw,triv15_correct,triv16_raw,triv16_correct,triv17_raw,triv17_correct,triv18_raw,triv18_correct,triv19_raw,triv19_correct,triv20_raw,triv20_correct,triv21_raw,triv21_correct,triv22_raw,triv22_correct,triv23_raw,triv23_correct,triv24_raw,triv24_correct,triv25_raw,triv25_correct,triv26_raw,triv26_correct,triv27_raw,triv27_correct,triv28_raw,triv28_correct,triv29_raw,triv29_correct,triv30_raw,triv30_correct,age,major,language,sex_r,year,area_writing,area_trivia,purpose,link_yn,link_text,thinking_yn,thinking_text,comments,prior_hool,Universitätsprofessor_int_rating,Universitätsprofessor_acc_rating,Fussballhooligan_int_rating,Fussballhooligan_acc_rating
20161202-101755,067,1,0,Fussballhooligan,"Ich trinke relativ viel Bier und gehe keinem geregelten Tagesablauf nach. Meine Bildung ist ggf. unter dem Durschnitt der Bevoelkerung. In meiner Freizeit spiele ich selbst gerne Fussball und gucke jedes Spiel der Bundesliga. 
Die Gewalt vor und um das Stadion herum ist ein wichtiger Bestandteil meines Lebens. Ich mag es andere Leute zu verpruegeln und mich in koerperlichen Auseinandersetzungen mit anderen zu messen. Taegliche oder wochentliche Gewalt ist somit schon laenger Bestandteil meines Lebens, und wird es auch in Zukunft bleiben, auch ausseinandersetzungen mit der Polizei lassen sich dabei nicht vermeiden. 
Meine Freunde von frueher und meine Eltern finden mein Hobby fur",Uganda,False,ASCII,True,Bisamratte,False,Erde,True,12,True,Bangladesch,False,Arm,True,Guy Fawkes,True,Messing,False,Welle,True,Isobare,True,21,True,Chrysler,False,120,False,Mars,False,Michail Gorbatschow,True,Strahlung,True,Deep Blue,True,Kontinentalsockel,True,Faschismus,True,Penicillin,True,Henri Matisse,False,Rio Grande,True,In der lunge,False,Siberien,True,Jupiter,True,Tschaikowski,True,Lufttemperatur,False,Keratin,True,Frankreich,True,männlich,Psychologie,Deutsch,23,Im ersten Jahr,Psychologie,Psychologie,Keine Ahnung,ja,Veraenderung des Selbstvertrauens oder veraenderung des geglaubten wissens,nein,,Nein,ja,83,22,35,12
