datetime,subjID,sex,prime_code,prime_condition,prime_response,triv1_raw,triv1_correct,triv2_raw,triv2_correct,triv3_raw,triv3_correct,triv4_raw,triv4_correct,triv5_raw,triv5_correct,triv6_raw,triv6_correct,triv7_raw,triv7_correct,triv8_raw,triv8_correct,triv9_raw,triv9_correct,triv10_raw,triv10_correct,triv11_raw,triv11_correct,triv12_raw,triv12_correct,triv13_raw,triv13_correct,triv14_raw,triv14_correct,triv15_raw,triv15_correct,triv16_raw,triv16_correct,triv17_raw,triv17_correct,triv18_raw,triv18_correct,triv19_raw,triv19_correct,triv20_raw,triv20_correct,triv21_raw,triv21_correct,triv22_raw,triv22_correct,triv23_raw,triv23_correct,triv24_raw,triv24_correct,triv25_raw,triv25_correct,triv26_raw,triv26_correct,triv27_raw,triv27_correct,triv28_raw,triv28_correct,triv29_raw,triv29_correct,triv30_raw,triv30_correct,age,major,language,sex_r,year,area_writing,area_trivia,purpose,link_yn,link_text,thinking_yn,thinking_text,comments,prior_hool,Fussballhooligan_int_rating,Fussballhooligan_acc_rating,Universitätsprofessor_int_rating,Universitätsprofessor_acc_rating
20170117-151845,080,1,1,Universitätsprofessor,"ICh bin viel mit der Uni beschaeftigt. Viel Zeit bringe ich auf um VOrlesungsstoff vorzubereiten, nachzuarbeiten und Examen zu korrigieren. 
Diese Aktivitaeten gehen hin und wieder in meine Hobbies ueber: Ich halte mich ueber wissenschaftliche Neuerungen auf dem Laufenden, interessiere mich fuer neue Lernmethoden usw. Ansonsten boxe ich und uebe auf dem Schiessstand in meiner Freizeit. Zum Ausgleich.   Eigentlich bin ich aufgeschlossen, recht intelligent und besonnen. ",Botswana,True,HTML,False,Wasserschwein,True,Erde,True,12,True,Indien,True,Arm,True,Guy Fawkes,True,Messing,False,Welle,True,Isobare,True,21,True,General Motors,True,360,False,Merkur,False,Boris Jelzin,False,Strahlung,True,Deep Thought,False,Kontinentalrift,False,Faschismus,True,Penicillin,True,Paul Cézanne,False,Rio Grande,True,In der Nase,False,Siberien,True,Jupiter,True,Händel,False,Luftdruck,True,Keratin,True,Frankreich,True,männlich,"Psychology
",Deutsch,21,Im ersten Jahr,klinische psychologie,soziologische psychologie,keine ahnung,ja,"ein groesseres Allgemeinwissen, vereinfacht es, sich eine gebildete Persoenlichkeit im Kontext vorzustellen
",nein,,Nein,ja,32,6,65,21
