datetime,subjID,sex,prime_code,prime_condition,prime_response,triv1_raw,triv1_correct,triv2_raw,triv2_correct,triv3_raw,triv3_correct,triv4_raw,triv4_correct,triv5_raw,triv5_correct,triv6_raw,triv6_correct,triv7_raw,triv7_correct,triv8_raw,triv8_correct,triv9_raw,triv9_correct,triv10_raw,triv10_correct,triv11_raw,triv11_correct,triv12_raw,triv12_correct,triv13_raw,triv13_correct,triv14_raw,triv14_correct,triv15_raw,triv15_correct,triv16_raw,triv16_correct,triv17_raw,triv17_correct,triv18_raw,triv18_correct,triv19_raw,triv19_correct,triv20_raw,triv20_correct,triv21_raw,triv21_correct,triv22_raw,triv22_correct,triv23_raw,triv23_correct,triv24_raw,triv24_correct,triv25_raw,triv25_correct,triv26_raw,triv26_correct,triv27_raw,triv27_correct,triv28_raw,triv28_correct,triv29_raw,triv29_correct,triv30_raw,triv30_correct,age,major,language,sex_r,year,area_writing,area_trivia,purpose,link_yn,link_text,thinking_yn,thinking_text,comments,prior_hool,soccer hooligan_int_rating,soccer hooligan_acc_rating,professor_int_rating,professor_acc_rating
20170117-121748,303,1,1,professor,"In my daily life I am spending most of my day time in university, either giving lectures, being in my office reading and writing emails or walk around.  After the work I like to repair old cars for myself as a hobby and spend time with my family. In university I am strict and serious, yet sometimes with a childish personality to keep a bit of humor in the air, but at home I am caring and warm person. I love to read a lot and educate myself even further, to apply my knowledge in my studies and research. I am passionate about teaching others and helping when needed. ",Zimbabwe,False,HTML,False,Beaver,False,Mars,False,12,True,Bangledesh,False,Leg,False,Robin Hood,False,Brass,False,Iceberg,False,Fronts,False,21,True,General Motors,True,90,False,Mars,False,Mikhail Gorbachev,True,Pressure,False,King Blue,False,Continental Abyss,False,Democracy,False,Penicillin,True,Pablo Picasso,True,Colorado River,False,In the throat,True,Siberia,True,Jupiter,True,Beethoven,False,Air pressure,True,Keratin,True,Spain,False,20,"psychology
",estonian,male,1st year,Cognitive psychology,Organisational psychology,"no idea
",yes,"no idea
",yes,thought that I should answer as a professor I decribed before,no,yes,60,15,60,20
