datetime,subjID,sex,prime_code,prime_condition,prime_response,triv1_raw,triv1_correct,triv2_raw,triv2_correct,triv3_raw,triv3_correct,triv4_raw,triv4_correct,triv5_raw,triv5_correct,triv6_raw,triv6_correct,triv7_raw,triv7_correct,triv8_raw,triv8_correct,triv9_raw,triv9_correct,triv10_raw,triv10_correct,triv11_raw,triv11_correct,triv12_raw,triv12_correct,triv13_raw,triv13_correct,triv14_raw,triv14_correct,triv15_raw,triv15_correct,triv16_raw,triv16_correct,triv17_raw,triv17_correct,triv18_raw,triv18_correct,triv19_raw,triv19_correct,triv20_raw,triv20_correct,triv21_raw,triv21_correct,triv22_raw,triv22_correct,triv23_raw,triv23_correct,triv24_raw,triv24_correct,triv25_raw,triv25_correct,triv26_raw,triv26_correct,triv27_raw,triv27_correct,triv28_raw,triv28_correct,triv29_raw,triv29_correct,triv30_raw,triv30_correct,age,major,language,sex_r,year,area_writing,area_trivia,purpose,link_yn,link_text,thinking_yn,thinking_text,comments,prior_hool,soccer hooligan_int_rating,soccer hooligan_acc_rating,professor_int_rating,professor_acc_rating
20170131-141357,44,M,1,professor,"Daily life

Typ act

peronality

passions/hobbies

As a professer, I teach classes grade homework, perform reaserch, write papers and fill out paperwork nessarcy for all of the mentioded tasks

I am quite knowlagable in my area. some might classify me as absent minded or out of touch. I love learning in all its forms. And am dedicated to the field I study ",Botswana,True,ASCII,True,Capybara,True,Mars,False,12,True,Bangledesh,False,Foot,False,Guy Fawkes,True,Bronze,True,Wave,True,Isobars,True,25,False,General Motors,True,180,True,Venus,True,Mikhail Gorbachev,True,Radiation,True,Deep Blue,True,Continental Shelf,True,Fascist,True,X Rays,False,Pablo Picasso,True,Colorado River,False,In the throat,True,Ukraine,False,Jupiter,True,Tchaikovsky,True,Air pressure,True,Keratin,True,France,True,20,Manufacturing Engineering Technology,English,male,1st year,Knowlage based,Cognitive Psychology,no idea,yes,It seems possible for there to be a link between how clossly the estimation of the a professors life is to correct. and the amount/score of the questions answered,no,,"More of a processes commnet, not having a cursor idicator on the text boxes is distracting, as is not being able to move the cursor with my mouse. additionally, why is my text not staying in the box as I type?",no,30,11,83,21
