datetime,subjID,sex,prime_code,prime_condition,prime_response,triv1_raw,triv1_correct,triv2_raw,triv2_correct,triv3_raw,triv3_correct,triv4_raw,triv4_correct,triv5_raw,triv5_correct,triv6_raw,triv6_correct,triv7_raw,triv7_correct,triv8_raw,triv8_correct,triv9_raw,triv9_correct,triv10_raw,triv10_correct,triv11_raw,triv11_correct,triv12_raw,triv12_correct,triv13_raw,triv13_correct,triv14_raw,triv14_correct,triv15_raw,triv15_correct,triv16_raw,triv16_correct,triv17_raw,triv17_correct,triv18_raw,triv18_correct,triv19_raw,triv19_correct,triv20_raw,triv20_correct,triv21_raw,triv21_correct,triv22_raw,triv22_correct,triv23_raw,triv23_correct,triv24_raw,triv24_correct,triv25_raw,triv25_correct,triv26_raw,triv26_correct,triv27_raw,triv27_correct,triv28_raw,triv28_correct,triv29_raw,triv29_correct,triv30_raw,triv30_correct,age,major,language,sex_r,year,area_writing,area_trivia,purpose,link_yn,link_text,thinking_yn,thinking_text,comments,prior_hool,soccer hooligan_int_rating,soccer hooligan_acc_rating,professor_int_rating,professor_acc_rating
20170322-144940,95,M,1,professor,"I am a university professor. I spend my day teaching classes, catching up on emails, and grading papers and projects for my students. In my spare time, I take part in some of my hobbies, which include taking my car to the track and model trains. I consider myself to be tough but fair, and this applies both in how I treat my students and how I raise my children. My passion for car racing also extends to car maintenance, and I try to teach my students to advance in life with that mindset, always working to advance themselves and preserve what makes them good.
",Uganda,False,ASCII,True,Coypu,False,Earth,True,15,False,Bangledesh,False,Arm,True,Guy Fawkes,True,Bronze,True,Wave,True,Isotherms,False,21,True,General Motors,True,180,True,Venus,True,Mikhail Gorbachev,True,Radiation,True,Deep Blue,True,Continental Shelf,True,Fascist,True,Penicillin,True,Pablo Picasso,True,Rio Grande,True,In the throat,True,Siberia,True,Jupiter,True,Tchaikovsky,True,Air pressure,True,Keratin,True,Spain,False,22,SOIS,English,male,3rd year,Social,Developmental,no idea.,yes,"Professors tend to have accumulated vast knowledge, which promotes us to think more critically about the general questions.",no,,no,no,30,10,70,15.0
