datetime,subjID,sex,prime_code,prime_condition,prime_response,triv1_raw,triv1_correct,triv2_raw,triv2_correct,triv3_raw,triv3_correct,triv4_raw,triv4_correct,triv5_raw,triv5_correct,triv6_raw,triv6_correct,triv7_raw,triv7_correct,triv8_raw,triv8_correct,triv9_raw,triv9_correct,triv10_raw,triv10_correct,triv11_raw,triv11_correct,triv12_raw,triv12_correct,triv13_raw,triv13_correct,triv14_raw,triv14_correct,triv15_raw,triv15_correct,triv16_raw,triv16_correct,triv17_raw,triv17_correct,triv18_raw,triv18_correct,triv19_raw,triv19_correct,triv20_raw,triv20_correct,triv21_raw,triv21_correct,triv22_raw,triv22_correct,triv23_raw,triv23_correct,triv24_raw,triv24_correct,triv25_raw,triv25_correct,triv26_raw,triv26_correct,triv27_raw,triv27_correct,triv28_raw,triv28_correct,triv29_raw,triv29_correct,triv30_raw,triv30_correct,age,major,language,sex_r,year,area_writing,area_trivia,purpose,link_yn,link_text,thinking_yn,thinking_text,comments,prior_hool,soccer hooligan_int_rating,soccer hooligan_acc_rating,professor_int_rating,professor_acc_rating
20170324-140952,99,F,1,professor,"As a Universtiy professor, my primary goal is to make myself disposible to my students.On the first day of classes I make it known to my students that they can ask me questions, discuss what they find interesting, what is discouraging, what helps them learn, etc. My hope is that i continue teaching throughout the semester I make myself open to students questions and critiques. I know that I can learn as much from them as they can from me.
In my free time I dedicate my time for family. Being a professor consumes almost all aspects of my life (grading late into the night, on weekends, and over breaks. Constently developing new materials or new ways to teach old materials). Because of this I know its important to schedule time for my family, my hobbies (sports), and friend. Overall, i hope that people understnad i am ",Zimbabwe,False,HTML,False,Capybara,True,Earth,True,12,True,India,True,Arm,True,Guy Fawkes,True,Bronze,True,Iceberg,False,Fronts,False,25,False,Chrysler,False,120,False,Venus,True,Alexander Popov,False,Pressure,False,Blue Knight,False,Continental Shelf,True,Republic,False,Penicillin,True,Pablo Picasso,True,Colorado River,False,In the throat,True,Ukraine,False,Jupiter,True,Beethoven,False,Air temperature,False,Keratin,True,Spain,False,20,Physicians Assistant,English,female,3rd year,Social Psychology,I & O Psychology,no idea,no,,no,,No,yes,70,20,68,22
