datetime,subjID,sex,prime_code,prime_condition,prime_response,triv1_raw,triv1_correct,triv2_raw,triv2_correct,triv3_raw,triv3_correct,triv4_raw,triv4_correct,triv5_raw,triv5_correct,triv6_raw,triv6_correct,triv7_raw,triv7_correct,triv8_raw,triv8_correct,triv9_raw,triv9_correct,triv10_raw,triv10_correct,triv11_raw,triv11_correct,triv12_raw,triv12_correct,triv13_raw,triv13_correct,triv14_raw,triv14_correct,triv15_raw,triv15_correct,triv16_raw,triv16_correct,triv17_raw,triv17_correct,triv18_raw,triv18_correct,triv19_raw,triv19_correct,triv20_raw,triv20_correct,triv21_raw,triv21_correct,triv22_raw,triv22_correct,triv23_raw,triv23_correct,triv24_raw,triv24_correct,triv25_raw,triv25_correct,triv26_raw,triv26_correct,triv27_raw,triv27_correct,triv28_raw,triv28_correct,triv29_raw,triv29_correct,triv30_raw,triv30_correct,age,major,language,sex_r,year,area_writing,area_trivia,purpose,link_yn,link_text,thinking_yn,thinking_text,comments,prior_hool,soccer hooligan_int_rating,soccer hooligan_acc_rating,professor_int_rating,professor_acc_rating
20170407-142107,139,Female,1,professor,"1. In my daily life I would plan lesson plans, and most likely bo working on work related to my profession, such as studies and research.
2. My daily activities would consist of having office hours for my students to come and speak with me, and other hobbies, such as climbing and being with my family. I have a passion for my students to suceed and to set them on the right path for life.
3. As a professor, I want to be kind and welcoming to students so that they feel comfortable asking questions and talking with me. In lectures I would want to make it as exciting as I can, so that my students can consider learning to be fun, and more likely remember the material. I don't want my stud",Zimbabwe,False,ASCII,True,Muskrat,False,Pluto,False,12,True,Pakistan,False,11,False,Sweeney Todd,False,Brass,False,Iceberg,False,Isobars,True,21,True,Mitsubishi,False,180,True,Mercury,False,Alexander Popov,False,In rivers,False,Deep Blue,True,Continental Slope,False,Republic,False,Penicillin,True,Iron,True,Colorado River,False,In the throat,True,Ukraine,False,Jupiter,True,Beethoven,False,Wind speed,False,Keratin,True,France,True,19,undeclared,English,female,1st year, ,the student was working here,"to test general knowledge, age, and major and how those relate. How students want to be treated.",yes,You may be more confident in answering the questions,no,,no,yes,48,12,90,26
