datetime,subjID,sex,prime_code,prime_condition,prime_response,triv1_raw,triv1_correct,triv2_raw,triv2_correct,triv3_raw,triv3_correct,triv4_raw,triv4_correct,triv5_raw,triv5_correct,triv6_raw,triv6_correct,triv7_raw,triv7_correct,triv8_raw,triv8_correct,triv9_raw,triv9_correct,triv10_raw,triv10_correct,triv11_raw,triv11_correct,triv12_raw,triv12_correct,triv13_raw,triv13_correct,triv14_raw,triv14_correct,triv15_raw,triv15_correct,triv16_raw,triv16_correct,triv17_raw,triv17_correct,triv18_raw,triv18_correct,triv19_raw,triv19_correct,triv20_raw,triv20_correct,triv21_raw,triv21_correct,triv22_raw,triv22_correct,triv23_raw,triv23_correct,triv24_raw,triv24_correct,triv25_raw,triv25_correct,triv26_raw,triv26_correct,triv27_raw,triv27_correct,triv28_raw,triv28_correct,triv29_raw,triv29_correct,triv30_raw,triv30_correct,age,major,language,sex_r,year,area_writing,area_trivia,purpose,link_yn,link_text,thinking_yn,thinking_text,comments,prior_hool,professor_int_rating,professor_acc_rating,soccer hooligan_int_rating,soccer hooligan_acc_rating
20170407-151853,149,Male,0,soccer hooligan,"My daily life consists of playing soccer for a few hours a day. i stay up late with my friends. We drink a little and hit on girls we see at clubs and bars. Sometimes we just wander the streets. I sleep in in the morning. I have a part-time job where I sale car stereos. I only work 4 hours a day. I also have one college course a day.

I'm pretty typical, or at least I think I am. Like most people my age my parents support me. They make my monthly car payment and pay my rent at my apartment. They occasionally bring me food, but I normally eat out with my friends. Some of my passions include soccer. I occasionally watch and play rugby too, but not as musch as soccer. I like music and almost always have headphones on if I'm not with my friends or playing soccer. I really like hanging out with hot girls. I don't usually have a girlfriend, but I do flirt a lot. ",Uganda,False,ASCII,True,Capybara,True,Earth,True,8,False,India,True,12,True,Guy Fawkes,True,Bronze,True,Wave,True,Isobars,True,21,True,Chrysler,False,180,True,Venus,True,Mikhail Gorbachev,True,In trees,True,King Blue,False,Continental Shelf,True,Fascist,True,X Rays,False,Iron,True,Colorado River,False,In the throat,True,Siberia,True,Jupiter,True,Tchaikovsky,True,Air pressure,True,Collagen,False,France,True,36,non-student,English,male,not a student,I'm not sure I understand the question. soccer hooligan,I'm not sure I understand the question. This was for determing some rating scales.,the first task was to get you to think about something that is different than what you are. the second set of questions about trivia said they were designed to scale difficulty (or something like that). My guess is that the research is to see how well people perfrom on trivial questions after having put themselves in a different mindset.,yes,"If you have a negative view of the intelligences of a soccer hooligan, this could perhaps change the mindset when answering general knowledge quesitons.",yes,I think that my mind was trying to figure out why both of these tasks were in the same study. I do think that I second guessed myself more than i normally would.,No,no,60,17,50.0,13
