datetime,subjID,sex,prime_code,prime_condition,prime_response,triv1_raw,triv1_correct,triv2_raw,triv2_correct,triv3_raw,triv3_correct,triv4_raw,triv4_correct,triv5_raw,triv5_correct,triv6_raw,triv6_correct,triv7_raw,triv7_correct,triv8_raw,triv8_correct,triv9_raw,triv9_correct,triv10_raw,triv10_correct,triv11_raw,triv11_correct,triv12_raw,triv12_correct,triv13_raw,triv13_correct,triv14_raw,triv14_correct,triv15_raw,triv15_correct,triv16_raw,triv16_correct,triv17_raw,triv17_correct,triv18_raw,triv18_correct,triv19_raw,triv19_correct,triv20_raw,triv20_correct,triv21_raw,triv21_correct,triv22_raw,triv22_correct,triv23_raw,triv23_correct,triv24_raw,triv24_correct,triv25_raw,triv25_correct,triv26_raw,triv26_correct,triv27_raw,triv27_correct,triv28_raw,triv28_correct,triv29_raw,triv29_correct,triv30_raw,triv30_correct,age,major,language,sex_r,year,area_writing,area_trivia,purpose,link_yn,link_text,thinking_yn,thinking_text,comments,prior_hool,professor_int_rating,professor_acc_rating,soccer hooligan_int_rating,soccer hooligan_acc_rating
20170313-114917,21,Female,0,soccer hooligan,"I am as any other sports fanatic and I obsess over soccer. I watch soccer games ever time they come on. I have my favorite, but if they aren't playing I pick one for the game I am watching. People do not like ot be around me while I am watching soccer games. I am loud and obnoxious. If people interrupt me watching my game I typically yell at them and say things I don't actually mean, but in the moment I feel. I collect soccer attire, spend most of my money on expensive game tickets. I cause problems at home because of my obsession and my family hates soccer because of me. Every day I start my day watching re-runs of my favorite soccer games. I wear soccer jerseys and attire most days and I work at a sports store that mostly sells soccer equipment. I find that soccer gives me purpose and I couldn't live without it. ",Botswana,True,HTML,False,Capybara,True,Uranus,False,12,True,Bangledesh,False,12,True,Sweeney Todd,False,Brass,False,Iceberg,False,Fronts,False,21,True,Mitsubishi,False,180,True,Mercury,False,Mikhail Gorbachev,True,In trees,True,Blue Knight,False,Continental Slope,False,Fascist,True,X Rays,False,Iron,True,Colorado River,False,In the throat,True,Ukraine,False,Jupiter,True,Tchaikovsky,True,Air pressure,True,Keratin,True,Spain,False,21,"psychology
",English,female,3rd year,Ability to use imagination to create a new identity with minimal prep time,see how much people just end up guessing based on not knowing how to answer difficult questions,study thought processes,yes,maybe how the first takes influences the performance of the second task ,yes,I had a hard time thinking of myself as a soccer hooligan so it was a little frustrating which could have influenced my performance on the second task ,no,no,65,17,30,10
