datetime,subjID,sex,prime_code,prime_condition,prime_response,triv1_raw,triv1_correct,triv2_raw,triv2_correct,triv3_raw,triv3_correct,triv4_raw,triv4_correct,triv5_raw,triv5_correct,triv6_raw,triv6_correct,triv7_raw,triv7_correct,triv8_raw,triv8_correct,triv9_raw,triv9_correct,triv10_raw,triv10_correct,triv11_raw,triv11_correct,triv12_raw,triv12_correct,triv13_raw,triv13_correct,triv14_raw,triv14_correct,triv15_raw,triv15_correct,triv16_raw,triv16_correct,triv17_raw,triv17_correct,triv18_raw,triv18_correct,triv19_raw,triv19_correct,triv20_raw,triv20_correct,triv21_raw,triv21_correct,triv22_raw,triv22_correct,triv23_raw,triv23_correct,triv24_raw,triv24_correct,triv25_raw,triv25_correct,triv26_raw,triv26_correct,triv27_raw,triv27_correct,triv28_raw,triv28_correct,triv29_raw,triv29_correct,triv30_raw,triv30_correct,age,major,language,sex_r,year,area_writing,area_trivia,purpose,link_yn,link_text,thinking_yn,thinking_text,comments,prior_hool,professor_int_rating,professor_acc_rating,soccer hooligan_int_rating,soccer hooligan_acc_rating
20170314-134613,28,Female,0,soccer hooligan,"Every day I have a set routine. I wake up, drink some protein then hit the gym. I do some cardio exercises for 20 minutes then I hit the weights hard. My characterisitcs can be seen through the way I carry myself and the way I treat others. I always wear my soccer gear so everyone knows that I'm on an elite team. As I weight lift, I see people staring at me and snicker to myself because I know they wish they were as strong as me. After showing off for a bit, I head to the soccer field where I meet up with my team. On the way, a protein bar and health shake. I drive an expensive convertible and drive with the top down, music blasting, wearing sunglasses. I rev my engine at any stoplight I come to so everyone looks at me and I flash them my perfect, white teeth. They're jealous.  At the field, my teammates and I play a few scrimmages and work on a few drills. They are pretty good, after all they are on my team, but they are nothing compared to me. I carry the team as team captain. Next I head home and shower quickly then it's out again for lunch with a friend so that more people can see and envy me. I like to carry a soccer ball around and do tricks in public for everyone to applaud.",Uganda,False,ASCII,True,Capybara,True,Uranus,False,8,False,Pakistan,False,12,True,Sweeney Todd,False,Brass,False,Wave,True,Isobars,True,21,True,Ford,False,180,True,Mercury,False,Nikita Krushchev,False,In trees,True,Blue Knight,False,Continental Shelf,True,Fascist,True,Stethoscope,False,Copper,False,Rio Grande,True,In the throat,True,Siberia,True,Jupiter,True,Beethoven,False,Wind speed,False,Keratin,True,Greece,False,23,"Psychology
",English,female,4th year or higher,Social Science,Pyschology,Memory,no,,no,,No,yes,90,26,35,5
