datetime,subjID,sex,prime_code,prime_condition,prime_response,triv1_raw,triv1_correct,triv2_raw,triv2_correct,triv3_raw,triv3_correct,triv4_raw,triv4_correct,triv5_raw,triv5_correct,triv6_raw,triv6_correct,triv7_raw,triv7_correct,triv8_raw,triv8_correct,triv9_raw,triv9_correct,triv10_raw,triv10_correct,triv11_raw,triv11_correct,triv12_raw,triv12_correct,triv13_raw,triv13_correct,triv14_raw,triv14_correct,triv15_raw,triv15_correct,triv16_raw,triv16_correct,triv17_raw,triv17_correct,triv18_raw,triv18_correct,triv19_raw,triv19_correct,triv20_raw,triv20_correct,triv21_raw,triv21_correct,triv22_raw,triv22_correct,triv23_raw,triv23_correct,triv24_raw,triv24_correct,triv25_raw,triv25_correct,triv26_raw,triv26_correct,triv27_raw,triv27_correct,triv28_raw,triv28_correct,triv29_raw,triv29_correct,triv30_raw,triv30_correct,age,major,language,sex_r,year,area_writing,area_trivia,purpose,link_yn,link_text,thinking_yn,thinking_text,comments,prior_hool,soccer hooligan_int_rating,soccer hooligan_acc_rating,professor_int_rating,professor_acc_rating
20170321-161747,48,Male,1,professor,"My daily routine would consist of waking up, eating breakfast, showering, getting dressed and driving to the school I teach at. At the school I would teach classes related to my degree of choice, help students with their own research and work on my own research. I would complete tasks given to me by the department dean or whoever else my be directly in charge of me. I would probably be strict in my expectations of how students need to perform relative to the level of class they are enrolled in. I would try to teach in a way that would help students understrand topics simply and know what will be expected of them on the exam (if I even chose to do exams). I doubt my passions or hobbies would change at all, my dad is a professor and he still works on cars and plays videogames, watches tv, all unrealted to his profession but things he still enjoys doing. I don't see why my hobbies and such would be differen tbecause I was a professor.",Botswana,True,ASCII,True,Beaver,False,Uranus,False,8,False,Bangledesh,False,12,True,Sweeney Todd,False,Brass,False,Wave,True,Fronts,False,21,True,Mitsubishi,False,360,False,Venus,True,Nikita Krushchev,False,In trees,True,Deep Blue,True,Continental Shelf,True,Fascist,True,Penicillin,True,Copper,False,Colorado River,False,In the throat,True,Siberia,True,Jupiter,True,Tchaikovsky,True,Air pressure,True,Collagen,False,France,True,20,Exercise Physiology,English,male,1st year,schooling,intelligence,"to collect data to further reaserach in their chosen areas of psycholgy
",no,,no,,"It was pretty easy to think about a professor since I live with one, that might be the reason I don't feel like it affected me?
",yes,50.0,8,75,15
