datetime,subjID,sex,prime_code,prime_condition,prime_response,triv1_raw,triv1_correct,triv2_raw,triv2_correct,triv3_raw,triv3_correct,triv4_raw,triv4_correct,triv5_raw,triv5_correct,triv6_raw,triv6_correct,triv7_raw,triv7_correct,triv8_raw,triv8_correct,triv9_raw,triv9_correct,triv10_raw,triv10_correct,triv11_raw,triv11_correct,triv12_raw,triv12_correct,triv13_raw,triv13_correct,triv14_raw,triv14_correct,triv15_raw,triv15_correct,triv16_raw,triv16_correct,triv17_raw,triv17_correct,triv18_raw,triv18_correct,triv19_raw,triv19_correct,triv20_raw,triv20_correct,triv21_raw,triv21_correct,triv22_raw,triv22_correct,triv23_raw,triv23_correct,triv24_raw,triv24_correct,triv25_raw,triv25_correct,triv26_raw,triv26_correct,triv27_raw,triv27_correct,triv28_raw,triv28_correct,triv29_raw,triv29_correct,triv30_raw,triv30_correct,age,major,language,sex_r,year,area_writing,area_trivia,purpose,link_yn,link_text,thinking_yn,thinking_text,comments,prior_hool,professor_int_rating,professor_acc_rating,soccer hooligan_int_rating,soccer hooligan_acc_rating
20170307-150859,5,M,0,soccer hooligan,"I'm a truck driver and am constantly on the road. I have a family of 4, but because of my busy schedule I don't have much time to be at home. I love my wife and kids which is why I make good money as a trucker to be able to provide for them. While I'm at home I participate in a community soccer league. Most of my teammates are all from the same town and if we aren't on the road you can probably find us going out or playing soccer. I know my role as the man of the house and do my best to provide but sometimes it feels like it isn't enough. I find drinking with friends very relaxing. Although, some see it as prideful I think its sad they don't understnad my personal situation. I follow most of the teams in the popular leagues and always bet for my",Zaire,False,ASCII,True,Capybara,True,Mars,False,12,True,Phillipines,False,12,True,Dick Turpin,False,Brass,False,Iceberg,False,Isobars,True,21,True,General Motors,True,180,True,Venus,True,Mikhail Gorbachev,True,In trees,True,Blue Knight,False,Continental Shelf,True,Fascist,True,Penicillin,True,Bronze,True,Rio Grande,True,In the throat,True,Siberia,True,Jupiter,True,Tchaikovsky,True,Air pressure,True,Collagen,False,Spain,False,23,"information systems
",English,male,2nd year,the writing task for pilot projects,the trivia/knowledge task for pilot projects,basic cognitive ability to 1. tell stories/empathize 2. common knowledge,yes,"I based ""the soccer hooligan"" on an experience I had. In the second task, I was reminded of strange memories that helped me guess the right answer (in the cases that I was right)",no,,will we be able to see our results or get a list of the questions to look up which ones we got right?,no,75,25,50.0,17
