datetime,subjID,sex,prime_code,prime_condition,prime_response,triv1_raw,triv1_correct,triv2_raw,triv2_correct,triv3_raw,triv3_correct,triv4_raw,triv4_correct,triv5_raw,triv5_correct,triv6_raw,triv6_correct,triv7_raw,triv7_correct,triv8_raw,triv8_correct,triv9_raw,triv9_correct,triv10_raw,triv10_correct,triv11_raw,triv11_correct,triv12_raw,triv12_correct,triv13_raw,triv13_correct,triv14_raw,triv14_correct,triv15_raw,triv15_correct,triv16_raw,triv16_correct,triv17_raw,triv17_correct,triv18_raw,triv18_correct,triv19_raw,triv19_correct,triv20_raw,triv20_correct,triv21_raw,triv21_correct,triv22_raw,triv22_correct,triv23_raw,triv23_correct,triv24_raw,triv24_correct,triv25_raw,triv25_correct,triv26_raw,triv26_correct,triv27_raw,triv27_correct,triv28_raw,triv28_correct,triv29_raw,triv29_correct,triv30_raw,triv30_correct,age,major,language,sex_r,year,area_writing,area_trivia,purpose,link_yn,link_text,thinking_yn,thinking_text,comments,prior_hool,soccer hooligan_int_rating,soccer hooligan_acc_rating,professor_int_rating,professor_acc_rating
20170328-154031,61,F,1,professor,"I have a Ph.D. from Baylor University.  I teach 3 classes, twice a week, the rest of the time I am in my lab working on my next project.  Throughout my college and professional career I have greatly matured and refined my areas of interest.  I enjoy photography in my free time, as well as spending time with my family.  I enjoy taking the dog with me on my morning runs. ",Uganda,False,HTML,False,Beaver,False,Earth,True,15,False,Pakistan,False,11,False,Robin Hood,False,Brass,False,Wave,True,Isobars,True,21,True,General Motors,True,180,True,Venus,True,Nikita Krushchev,False,In deserts,False,Blue Knight,False,Continental Shelf,True,Communist,False,Penicillin,True,Iron,True,Colorado River,False,In the throat,True,Siberia,True,Jupiter,True,Beethoven,False,Wind speed,False,Keratin,True,0,False,19,"Psychology

",English,female,1st year,Social Psychology,Cognitive Psychology,In the first task it might be how a student percieves a professor and what kind of life they lead.,yes,no idea,yes,no idea,no,yes,50.0,13,70,22
