"","authors","label","effect","se","g1_mean","g2_mean","n1","n2","language","male_prop","total_n","religious1_mean","religious2_mean","religious3_mean","religious_grandmean","old_lab"
"1","Acar","10 commandments effect",0.220588235294118,0.625994384420755,3.97058823529412,3.75,34,44,"English",0.325153374233129,163,2.52147239263804,3.19018404907975,1.96319018404908,2.55828220858896,"10 commandments effect"
"2","Acar","control condition",-0.0944444444444446,0.491670891864601,3.55,3.64444444444444,40,45,"English",0.325153374233129,163,2.52147239263804,3.19018404907975,1.96319018404908,2.55828220858896,"control condition permaa"
"3","Acar","cheating",0.105555555555556,0.515835993426112,3.75,3.64444444444444,44,45,"English",0.325153374233129,163,2.52147239263804,3.19018404907975,1.96319018404908,2.55828220858896,"cheating permaa"
"4","Acar","commandments condition",0.420588235294118,0.606236309634576,3.97058823529412,3.55,34,40,"English",0.325153374233129,163,2.52147239263804,3.19018404907975,1.96319018404908,2.55828220858896,"commandments condition permaa"
"5","Acar","difference",-0.315032679738562,0.795995750763315,0.105555555555556,0.420588235294118,89,74,"English",0.325153374233129,163,2.52147239263804,3.19018404907975,1.96319018404908,2.55828220858896,"difference permaa"
"6","Aczel","10 commandments effect",-0.262626262626263,0.486479215558989,3.18181818181818,3.44444444444444,55,54,"Hungarian",0.2,215,2.47441860465116,3.28372093023256,2.09767441860465,2.61860465116279,"10 commandments effect"
"7","Aczel","control condition",0.171836007130125,0.387128240849924,2.30909090909091,2.13725490196078,55,51,"Hungarian",0.2,215,2.47441860465116,3.28372093023256,2.09767441860465,2.61860465116279,"control condition permaa"
"8","Aczel","cheating",1.30718954248366,0.460590940988732,3.44444444444444,2.13725490196078,54,51,"Hungarian",0.2,215,2.47441860465116,3.28372093023256,2.09767441860465,2.61860465116279,"cheating permaa"
"9","Aczel","commandments condition",0.872727272727273,0.417595841829825,3.18181818181818,2.30909090909091,55,55,"Hungarian",0.2,215,2.47441860465116,3.28372093023256,2.09767441860465,2.61860465116279,"commandments condition permaa"
"10","Aczel","difference",0.434462269756388,0.62171561186321,1.30718954248366,0.872727272727273,105,110,"Hungarian",0.2,215,2.47441860465116,3.28372093023256,2.09767441860465,2.61860465116279,"difference permaa"
"11","Baskin","10 commandments effect",0.256775067750677,0.620437216640913,3.30555555555556,3.04878048780488,36,41,"English",0.479768786127168,173,2.84971098265896,3.82658959537572,2.05780346820809,2.91136801541426,"10 commandments effect"
"12","Baskin","control condition",0.335947712418301,0.446676180006157,2.35555555555556,2.01960784313725,45,51,"English",0.479768786127168,173,2.84971098265896,3.82658959537572,2.05780346820809,2.91136801541426,"control condition permaa"
"13","Baskin","cheating",1.02917264466762,0.568182151350858,3.04878048780488,2.01960784313725,41,51,"English",0.479768786127168,173,2.84971098265896,3.82658959537572,2.05780346820809,2.91136801541426,"cheating permaa"
"14","Baskin","commandments condition",0.95,0.511498770735889,3.30555555555556,2.35555555555556,36,45,"English",0.479768786127168,173,2.84971098265896,3.82658959537572,2.05780346820809,2.91136801541426,"commandments condition permaa"
"15","Baskin","difference",0.0791726446676235,0.764501111561007,1.02917264466762,0.95,92,81,"English",0.479768786127168,173,2.84971098265896,3.82658959537572,2.05780346820809,2.91136801541426,"difference permaa"
"16","Birt","10 commandments effect",0.405082787832114,0.503680181951943,3.0377358490566,2.63265306122449,53,49,"english",0.180487804878049,205,2.18627450980392,2.95098039215686,1.95588235294118,2.36437908496732,"10 commandments effect"
"17","Birt","control condition",0.0418552036199096,0.354632097299542,1.86538461538462,1.82352941176471,52,51,"english",0.180487804878049,205,2.18627450980392,2.95098039215686,1.95588235294118,2.36437908496732,"control condition permaa"
"18","Birt","cheating",0.809123649459784,0.409829710782185,2.63265306122449,1.82352941176471,49,51,"english",0.180487804878049,205,2.18627450980392,2.95098039215686,1.95588235294118,2.36437908496732,"cheating permaa"
"19","Birt","commandments condition",1.17235123367199,0.459888310665106,3.0377358490566,1.86538461538462,53,52,"english",0.180487804878049,205,2.18627450980392,2.95098039215686,1.95588235294118,2.36437908496732,"commandments condition permaa"
"20","Birt","difference",-0.363227584212204,0.616001339386705,0.809123649459784,1.17235123367199,100,105,"english",0.180487804878049,205,2.18627450980392,2.95098039215686,1.95588235294118,2.36437908496732,"difference permaa"
"21","Blatz","10 commandments effect",1.06562137049942,0.761522107600156,4.30952380952381,3.24390243902439,42,41,"German",0.122448979591837,196,2.20512820512821,2.67179487179487,1.62886597938144,2.16859635210151,"10 commandments effect"
"22","Blatz","control condition",-0.428520499108734,0.346772160428285,2.6078431372549,3.03636363636364,51,55,"German",0.122448979591837,196,2.20512820512821,2.67179487179487,1.62886597938144,2.16859635210151,"control condition permaa"
"23","Blatz","cheating",0.207538802660754,0.59516074680233,3.24390243902439,3.03636363636364,41,55,"German",0.122448979591837,196,2.20512820512821,2.67179487179487,1.62886597938144,2.16859635210151,"cheating permaa"
"24","Blatz","commandments condition",1.70168067226891,0.588175600545939,4.30952380952381,2.6078431372549,42,51,"German",0.122448979591837,196,2.20512820512821,2.67179487179487,1.62886597938144,2.16859635210151,"commandments condition permaa"
"25","Blatz","difference",-1.49414186960815,0.836759733502923,0.207538802660754,1.70168067226891,99,97,"German",0.122448979591837,196,2.20512820512821,2.67179487179487,1.62886597938144,2.16859635210151,"difference permaa"
"26","Evans","10 commandments effect",0.847401522674611,0.500634925111887,3.07547169811321,2.2280701754386,53,57,"English",0.277056277056277,231,2.63203463203463,3.7012987012987,2.18777292576419,2.84036875303251,"10 commandments effect"
"27","Evans","control condition",-0.103030303030303,0.293760308793397,1.56363636363636,1.66666666666667,55,66,"English",0.277056277056277,231,2.63203463203463,3.7012987012987,2.18777292576419,2.84036875303251,"control condition permaa"
"28","Evans","cheating",0.56140350877193,0.365119424456599,2.2280701754386,1.66666666666667,57,66,"English",0.277056277056277,231,2.63203463203463,3.7012987012987,2.18777292576419,2.84036875303251,"cheating permaa"
"29","Evans","commandments condition",1.51183533447684,0.451240792868573,3.07547169811321,1.56363636363636,53,55,"English",0.277056277056277,231,2.63203463203463,3.7012987012987,2.18777292576419,2.84036875303251,"commandments condition permaa"
"30","Evans","difference",-0.950431825704914,0.58045710200167,0.56140350877193,1.51183533447684,123,108,"English",0.277056277056277,231,2.63203463203463,3.7012987012987,2.18777292576419,2.84036875303251,"difference permaa"
"31","Ferreira-Santos","10 commandments effect",-0.185185185185185,0.486073826983443,2.66666666666667,2.85185185185185,51,54,"Portuguese",0.270142180094787,211,2.36538461538462,2.83653846153846,1.51923076923077,2.24038461538462,"10 commandments effect"
"32","Ferreira-Santos","control condition",0.4,0.390637175134936,2.4,2,50,56,"Portuguese",0.270142180094787,211,2.36538461538462,2.83653846153846,1.51923076923077,2.24038461538462,"control condition permaa"
"33","Ferreira-Santos","cheating",0.851851851851852,0.418072803575587,2.85185185185185,2,54,56,"Portuguese",0.270142180094787,211,2.36538461538462,2.83653846153846,1.51923076923077,2.24038461538462,"cheating permaa"
"34","Ferreira-Santos","commandments condition",0.266666666666667,0.462688122590348,2.66666666666667,2.4,51,50,"Portuguese",0.270142180094787,211,2.36538461538462,2.83653846153846,1.51923076923077,2.24038461538462,"commandments condition permaa"
"35","Ferreira-Santos","difference",0.585185185185185,0.623590545049981,0.851851851851852,0.266666666666667,110,101,"Portuguese",0.270142180094787,211,2.36538461538462,2.83653846153846,1.51923076923077,2.24038461538462,"difference permaa"
"36","González-Iraizoz","10 commandments effect",0.258934169278997,0.523201068328029,3.67272727272727,3.41379310344828,55,58,"English",0.168224299065421,214,2.15492957746479,2.63380281690141,1.88732394366197,2.22535211267606,"10 commandments effect"
"37","González-Iraizoz","control condition",-0.00775510204081664,0.37013364764348,2.38,2.38775510204082,50,49,"English",0.168224299065421,214,2.15492957746479,2.63380281690141,1.88732394366197,2.22535211267606,"control condition permaa"
"38","González-Iraizoz","cheating",1.02603800140746,0.410241859408975,3.41379310344828,2.38775510204082,58,49,"English",0.168224299065421,214,2.15492957746479,2.63380281690141,1.88732394366197,2.22535211267606,"cheating permaa"
"39","González-Iraizoz","commandments condition",1.29272727272727,0.492381855683295,3.67272727272727,2.38,55,50,"English",0.168224299065421,214,2.15492957746479,2.63380281690141,1.88732394366197,2.22535211267606,"commandments condition permaa"
"40","González-Iraizoz","difference",-0.266689271319814,0.640888660390757,1.02603800140746,1.29272727272727,109,105,"English",0.168224299065421,214,2.15492957746479,2.63380281690141,1.88732394366197,2.22535211267606,"difference permaa"
"41","Holzmeister","10 commandments effect",1.11041666666667,0.719622019001671,7.01666666666667,5.90625,60,64,"German",0.475609756097561,246,2.32520325203252,2.80081300813008,1.80081300813008,2.30894308943089,"10 commandments effect"
"42","Holzmeister","control condition",-0.146892655367231,0.532487665008279,4.1864406779661,4.33333333333333,59,63,"German",0.475609756097561,246,2.32520325203252,2.80081300813008,1.80081300813008,2.30894308943089,"control condition permaa"
"43","Holzmeister","cheating",1.57291666666667,0.586046483506874,5.90625,4.33333333333333,64,63,"German",0.475609756097561,246,2.32520325203252,2.80081300813008,1.80081300813008,2.30894308943089,"cheating permaa"
"44","Holzmeister","commandments condition",2.83022598870056,0.676718909730797,7.01666666666667,4.1864406779661,60,59,"German",0.475609756097561,246,2.32520325203252,2.80081300813008,1.80081300813008,2.30894308943089,"commandments condition permaa"
"45","Holzmeister","difference",-1.2573093220339,0.895208893844342,1.57291666666667,2.83022598870056,127,119,"German",0.475609756097561,246,2.32520325203252,2.80081300813008,1.80081300813008,2.30894308943089,"difference permaa"
"46","klein Selle & Rozmann","10 commandments effect",-0.265424430641822,0.430728990971671,3.31428571428571,3.57971014492754,70,69,"Hebrew",0.215547703180212,283,2.38928571428571,3.4626334519573,2.55871886120996,2.80354600915099,"10 commandments effect"
"47","klein Selle & Rozmann","control condition",-0.568327195192867,0.30748407260755,2.22388059701493,2.79220779220779,67,77,"Hebrew",0.215547703180212,283,2.38928571428571,3.4626334519573,2.55871886120996,2.80354600915099,"control condition permaa"
"48","klein Selle & Rozmann","cheating",0.787502352719744,0.382649169476679,3.57971014492754,2.79220779220779,69,77,"Hebrew",0.215547703180212,283,2.38928571428571,3.4626334519573,2.55871886120996,2.80354600915099,"cheating permaa"
"49","klein Selle & Rozmann","commandments condition",1.09040511727079,0.365586558382016,3.31428571428571,2.22388059701493,70,67,"Hebrew",0.215547703180212,283,2.38928571428571,3.4626334519573,2.55871886120996,2.80354600915099,"commandments condition permaa"
"50","klein Selle & Rozmann","difference",-0.302902764551045,0.529220104087892,0.787502352719744,1.09040511727079,146,137,"Hebrew",0.215547703180212,283,2.38928571428571,3.4626334519573,2.55871886120996,2.80354600915099,"difference permaa"
"51","Koppel","10 commandments effect",0.387096774193548,0.399811029892479,3.11290322580645,2.7258064516129,62,62,"Swedish",0.444915254237288,236,1.59051724137931,1.73390557939914,1.2274678111588,1.51729687731242,"10 commandments effect"
"52","Koppel","control condition",-0.365231259968102,0.325062242222854,2.09090909090909,2.45614035087719,55,57,"Swedish",0.444915254237288,236,1.59051724137931,1.73390557939914,1.2274678111588,1.51729687731242,"control condition permaa"
"53","Koppel","cheating",0.26966610073571,0.367700268325324,2.7258064516129,2.45614035087719,62,57,"Swedish",0.444915254237288,236,1.59051724137931,1.73390557939914,1.2274678111588,1.51729687731242,"cheating permaa"
"54","Koppel","commandments condition",1.02199413489736,0.360985918861274,3.11290322580645,2.09090909090909,62,55,"Swedish",0.444915254237288,236,1.59051724137931,1.73390557939914,1.2274678111588,1.51729687731242,"commandments condition permaa"
"55","Koppel","difference",-0.752328034161651,0.515280817557411,0.26966610073571,1.02199413489736,119,117,"Swedish",0.444915254237288,236,1.59051724137931,1.73390557939914,1.2274678111588,1.51729687731242,"difference permaa"
"56","Laine","10 commandments effect",-0.368697803897309,0.413563141841236,2.18867924528302,2.55737704918033,53,61,"french",0.120535714285714,224,1.90045248868778,2.23076923076923,1.7737556561086,1.9683257918552,"10 commandments effect"
"57","Laine","control condition",0.163979416809606,0.32156763599846,1.50943396226415,1.34545454545455,53,55,"french",0.120535714285714,224,1.90045248868778,2.23076923076923,1.7737556561086,1.9683257918552,"control condition permaa"
"58","Laine","cheating",1.21192250372578,0.371810942527526,2.55737704918033,1.34545454545455,61,55,"french",0.120535714285714,224,1.90045248868778,2.23076923076923,1.7737556561086,1.9683257918552,"cheating permaa"
"59","Laine","commandments condition",0.679245283018868,0.369048560257353,2.18867924528302,1.50943396226415,53,53,"french",0.120535714285714,224,1.90045248868778,2.23076923076923,1.7737556561086,1.9683257918552,"commandments condition permaa"
"60","Laine","difference",0.532677220706915,0.523870419866624,1.21192250372578,0.679245283018868,117,107,"french",0.120535714285714,224,1.90045248868778,2.23076923076923,1.7737556561086,1.9683257918552,"difference permaa"
"61","Loschelder","10 commandments effect",-0.107858243451464,0.384504027820965,3.98305084745763,4.09090909090909,59,55,"German",0.330188679245283,212,1.95754716981132,2.38388625592417,1.34597156398104,1.89580166323884,"10 commandments effect"
"62","Loschelder","control condition",-0.700425531914893,0.461517974374517,3.64,4.34042553191489,50,47,"German",0.330188679245283,212,1.95754716981132,2.38388625592417,1.34597156398104,1.89580166323884,"control condition permaa"
"63","Loschelder","cheating",-0.249516441005802,0.466906324152043,4.09090909090909,4.34042553191489,55,47,"German",0.330188679245283,212,1.95754716981132,2.38388625592417,1.34597156398104,1.89580166323884,"cheating permaa"
"64","Loschelder","commandments condition",0.343050847457627,0.377942684210358,3.98305084745763,3.64,59,50,"German",0.330188679245283,212,1.95754716981132,2.38388625592417,1.34597156398104,1.89580166323884,"commandments condition permaa"
"65","Loschelder","difference",-0.592567288463429,0.600701413417101,-0.249516441005802,0.343050847457627,103,109,"German",0.330188679245283,212,1.95754716981132,2.38388625592417,1.34597156398104,1.89580166323884,"difference permaa"
"66","McCarthy","10 commandments effect",0.573913043478261,0.737199256399229,3.4,2.82608695652174,50,46,"English",0.389908256880734,218,2.74883720930233,3.7906976744186,2.41860465116279,2.98604651162791,"10 commandments effect"
"67","McCarthy","control condition",-0.738643844634628,0.414893135147245,1.32258064516129,2.06122448979592,31,49,"English",0.389908256880734,218,2.74883720930233,3.7906976744186,2.41860465116279,2.98604651162791,"control condition permaa"
"68","McCarthy","cheating",0.764862466725821,0.595047838484997,2.82608695652174,2.06122448979592,46,49,"English",0.389908256880734,218,2.74883720930233,3.7906976744186,2.41860465116279,2.98604651162791,"cheating permaa"
"69","McCarthy","commandments condition",2.07741935483871,0.601262943430094,3.4,1.32258064516129,50,31,"English",0.389908256880734,218,2.74883720930233,3.7906976744186,2.41860465116279,2.98604651162791,"commandments condition permaa"
"70","McCarthy","difference",-1.31255688811289,0.845930882063001,0.764862466725821,2.07741935483871,124,94,"English",0.389908256880734,218,2.74883720930233,3.7906976744186,2.41860465116279,2.98604651162791,"difference permaa"
"71","Meijer","10 commandments effect",-0.154761904761905,0.303515879182966,3.02380952380952,3.17857142857143,84,84,"English",0.25,336,1.8963963963964,2.3033033033033,1.35735735735736,1.85235235235235,"10 commandments effect"
"72","Meijer","control condition",-0.0429570429570432,0.316508770988593,3.07792207792208,3.12087912087912,77,91,"English",0.25,336,1.8963963963964,2.3033033033033,1.35735735735736,1.85235235235235,"control condition permaa"
"73","Meijer","cheating",0.0576923076923075,0.328288262140901,3.17857142857143,3.12087912087912,84,91,"English",0.25,336,1.8963963963964,2.3033033033033,1.35735735735736,1.85235235235235,"cheating permaa"
"74","Meijer","commandments condition",-0.054112554112554,0.290734428593218,3.02380952380952,3.07792207792208,84,77,"English",0.25,336,1.8963963963964,2.3033033033033,1.35735735735736,1.85235235235235,"commandments condition permaa"
"75","Meijer","difference",0.111804861804861,0.438519886697192,0.0576923076923075,-0.054112554112554,175,161,"English",0.25,336,1.8963963963964,2.3033033033033,1.35735735735736,1.85235235235235,"difference permaa"
"76","Özdoğru","10 commandments effect",1.18979266347687,0.600804982855035,4.44736842105263,3.25757575757576,38,66,"Turkish",0.105485232067511,237,3.41991341991342,4.70689655172414,4.14718614718615,4.0913320396079,"10 commandments effect"
"77","Özdoğru","control condition",-0.315049226441631,0.418679446005501,2.44444444444444,2.75949367088608,54,79,"Turkish",0.105485232067511,237,3.41991341991342,4.70689655172414,4.14718614718615,4.0913320396079,"control condition permaa"
"78","Özdoğru","cheating",0.498082086689682,0.468325600378433,3.25757575757576,2.75949367088608,66,79,"Turkish",0.105485232067511,237,3.41991341991342,4.70689655172414,4.14718614718615,4.0913320396079,"cheating permaa"
"79","Özdoğru","commandments condition",2.00292397660819,0.562965574401395,4.44736842105263,2.44444444444444,38,54,"Turkish",0.105485232067511,237,3.41991341991342,4.70689655172414,4.14718614718615,4.0913320396079,"commandments condition permaa"
"80","Özdoğru","difference",-1.50484188991851,0.732297143194559,0.498082086689682,2.00292397660819,145,92,"Turkish",0.105485232067511,237,3.41991341991342,4.70689655172414,4.14718614718615,4.0913320396079,"difference permaa"
"81","Pennington","10 commandments effect",0.757504690431519,0.383022637205305,2.85365853658537,2.09615384615385,41,52,"English",0.177664974619289,197,1.94416243654822,2.36548223350254,1.66836734693878,1.99267067232985,"10 commandments effect"
"82","Pennington","control condition",0.0125925925925925,0.374487656249939,2.92,2.90740740740741,50,54,"English",0.177664974619289,197,1.94416243654822,2.36548223350254,1.66836734693878,1.99267067232985,"control condition permaa"
"83","Pennington","cheating",-0.811253561253561,0.364014195768397,2.09615384615385,2.90740740740741,52,54,"English",0.177664974619289,197,1.94416243654822,2.36548223350254,1.66836734693878,1.99267067232985,"cheating permaa"
"84","Pennington","commandments condition",-0.0663414634146342,0.39298983520489,2.85365853658537,2.92,41,50,"English",0.177664974619289,197,1.94416243654822,2.36548223350254,1.66836734693878,1.99267067232985,"commandments condition permaa"
"85","Pennington","difference",-0.744912097838927,0.535674663667491,-0.811253561253561,-0.0663414634146342,106,91,"English",0.177664974619289,197,1.94416243654822,2.36548223350254,1.66836734693878,1.99267067232985,"difference permaa"
"86","Roets","10 commandments effect",0.359329140461216,0.468367665933548,3.75555555555556,3.39622641509434,45,53,"Dutch",0.109375,192,2.06806282722513,2.078125,1.75,1.96539594240838,"10 commandments effect"
"87","Roets","control condition",-0.25531914893617,0.388565479997332,2.85106382978723,3.1063829787234,47,47,"Dutch",0.109375,192,2.06806282722513,2.078125,1.75,1.96539594240838,"control condition permaa"
"88","Roets","cheating",0.289843436370936,0.433418905629324,3.39622641509434,3.1063829787234,53,47,"Dutch",0.109375,192,2.06806282722513,2.078125,1.75,1.96539594240838,"cheating permaa"
"89","Roets","commandments condition",0.904491725768322,0.42719954936853,3.75555555555556,2.85106382978723,45,47,"Dutch",0.109375,192,2.06806282722513,2.078125,1.75,1.96539594240838,"commandments condition permaa"
"90","Roets","difference",-0.614648289397386,0.608565035750162,0.289843436370936,0.904491725768322,100,92,"Dutch",0.109375,192,2.06806282722513,2.078125,1.75,1.96539594240838,"difference permaa"
"91","Suchotzki","10 commandments effect",0,0.472601487222636,3.83333333333333,3.83333333333333,60,60,"German",0.175,240,2.3875,2.78242677824268,1.36401673640167,2.17798117154812,"10 commandments effect"
"92","Suchotzki","control condition",-0.0772727272727272,0.367083632146671,3.65,3.72727272727273,60,55,"German",0.175,240,2.3875,2.78242677824268,1.36401673640167,2.17798117154812,"control condition permaa"
"93","Suchotzki","cheating",0.106060606060606,0.477073151871594,3.83333333333333,3.72727272727273,60,55,"German",0.175,240,2.3875,2.78242677824268,1.36401673640167,2.17798117154812,"cheating permaa"
"94","Suchotzki","commandments condition",0.183333333333334,0.361253050476176,3.83333333333333,3.65,60,60,"German",0.175,240,2.3875,2.78242677824268,1.36401673640167,2.17798117154812,"commandments condition permaa"
"95","Suchotzki","difference",-0.0772727272727272,0.598416709922976,0.106060606060606,0.183333333333334,118,122,"German",0.175,240,2.3875,2.78242677824268,1.36401673640167,2.17798117154812,"difference permaa"
"96","Sutan","10 commandments effect",0.0212981744421912,0.411802242345741,4.67647058823529,4.6551724137931,34,87,"english",0.51,300,2.23745819397993,2.56333333333333,2.00333333333333,2.26804162021553,"10 commandments effect"
"97","Sutan","control condition",-0.502963917525773,0.315277334897893,3.48453608247423,3.9875,97,80,"english",0.51,300,2.23745819397993,2.56333333333333,2.00333333333333,2.26804162021553,"control condition permaa"
"98","Sutan","cheating",0.667672413793103,0.327344870311267,4.6551724137931,3.9875,87,80,"english",0.51,300,2.23745819397993,2.56333333333333,2.00333333333333,2.26804162021553,"cheating permaa"
"99","Sutan","commandments condition",1.19193450576107,0.402276298807422,4.67647058823529,3.48453608247423,34,97,"english",0.51,300,2.23745819397993,2.56333333333333,2.00333333333333,2.26804162021553,"commandments condition permaa"
"100","Sutan","difference",-0.524262091967964,0.518633671006134,0.667672413793103,1.19193450576107,168,132,"english",0.51,300,2.23745819397993,2.56333333333333,2.00333333333333,2.26804162021553,"difference permaa"
"101","Tran","10 commandments effect",0.0968553459119494,0.548789278741802,3.83018867924528,3.73333333333333,53,45,"German",0.198952879581152,191,1.86772486772487,2.31914893617021,1.43085106382979,1.87257495590829,"10 commandments effect"
"102","Tran","control condition",0.122420262664165,0.490268166338376,3.63461538461538,3.51219512195122,52,41,"German",0.198952879581152,191,1.86772486772487,2.31914893617021,1.43085106382979,1.87257495590829,"control condition permaa"
"103","Tran","cheating",0.221138211382114,0.496003654384715,3.73333333333333,3.51219512195122,45,41,"German",0.198952879581152,191,1.86772486772487,2.31914893617021,1.43085106382979,1.87257495590829,"cheating permaa"
"104","Tran","commandments condition",0.195573294629898,0.543611002669877,3.83018867924528,3.63461538461538,53,52,"German",0.198952879581152,191,1.86772486772487,2.31914893617021,1.43085106382979,1.87257495590829,"commandments condition permaa"
"105","Tran","difference",0.0255649167522156,0.735888950444795,0.221138211382114,0.195573294629898,86,105,"German",0.198952879581152,191,1.86772486772487,2.31914893617021,1.43085106382979,1.87257495590829,"difference permaa"
"106","Vanpaemel","10 commandments effect",0.166464891041162,0.363631586037094,3.60714285714286,3.4406779661017,56,59,"Dutch",0.215859030837004,227,1.94690265486726,1.92,1.49115044247788,1.78601769911504,"10 commandments effect"
"107","Vanpaemel","control condition",0.461464662615926,0.404819546303748,3.0377358490566,2.57627118644068,53,59,"Dutch",0.215859030837004,227,1.94690265486726,1.92,1.49115044247788,1.78601769911504,"control condition permaa"
"108","Vanpaemel","cheating",0.864406779661017,0.399791424485884,3.4406779661017,2.57627118644068,59,59,"Dutch",0.215859030837004,227,1.94690265486726,1.92,1.49115044247788,1.78601769911504,"cheating permaa"
"109","Vanpaemel","commandments condition",0.569407008086253,0.369152559710714,3.60714285714286,3.0377358490566,56,53,"Dutch",0.215859030837004,227,1.94690265486726,1.92,1.49115044247788,1.78601769911504,"commandments condition permaa"
"110","Vanpaemel","difference",0.294999771574764,0.544156958453556,0.864406779661017,0.569407008086253,118,109,"Dutch",0.215859030837004,227,1.94690265486726,1.92,1.49115044247788,1.78601769911504,"difference permaa"
"111","Verschuere","10 commandments effect",0.183650362318841,0.372767970760764,3.734375,3.55072463768116,64,69,"Dutch",0.309433962264151,265,1.62264150943396,1.84528301886792,1.37358490566038,1.61383647798742,"10 commandments effect"
"112","Verschuere","control condition",0.348484848484849,0.343091949619784,3.5,3.15151515151515,66,66,"Dutch",0.309433962264151,265,1.62264150943396,1.84528301886792,1.37358490566038,1.61383647798742,"control condition permaa"
"113","Verschuere","cheating",0.399209486166008,0.337565153907849,3.55072463768116,3.15151515151515,69,66,"Dutch",0.309433962264151,265,1.62264150943396,1.84528301886792,1.37358490566038,1.61383647798742,"cheating permaa"
"114","Verschuere","commandments condition",0.234375,0.377780111686907,3.734375,3.5,64,66,"Dutch",0.309433962264151,265,1.62264150943396,1.84528301886792,1.37358490566038,1.61383647798742,"commandments condition permaa"
"115","Verschuere","difference",0.164834486166008,0.506624166339311,0.399209486166008,0.234375,135,130,"Dutch",0.309433962264151,265,1.62264150943396,1.84528301886792,1.37358490566038,1.61383647798742,"difference permaa"
"116","Wick","10 commandments effect",-0.0932958274730429,0.491001086673005,3.18518518518519,3.27848101265823,81,79,"English",0.586826347305389,334,3.90577507598784,4.70694864048338,3.1566265060241,3.92311674083177,"10 commandments effect"
"117","Wick","control condition",0.32904953145917,0.290780910793589,2.37349397590361,2.04444444444444,83,90,"English",0.586826347305389,334,3.90577507598784,4.70694864048338,3.1566265060241,3.92311674083177,"control condition permaa"
"118","Wick","cheating",1.23403656821378,0.451182291082896,3.27848101265823,2.04444444444444,79,90,"English",0.586826347305389,334,3.90577507598784,4.70694864048338,3.1566265060241,3.92311674083177,"cheating permaa"
"119","Wick","commandments condition",0.81169120928157,0.349385382363386,3.18518518518519,2.37349397590361,81,83,"English",0.586826347305389,334,3.90577507598784,4.70694864048338,3.1566265060241,3.92311674083177,"commandments condition permaa"
"120","Wick","difference",0.422345358932213,0.570644902891475,1.23403656821378,0.81169120928157,169,165,"English",0.586826347305389,334,3.90577507598784,4.70694864048338,3.1566265060241,3.92311674083177,"difference permaa"
"121","Wiggins","10 commandments effect",0.191168693812798,0.359926948843003,2.33870967741935,2.14754098360656,62,61,"English",0.379166666666667,240,4.41176470588235,4.85654008438819,2.9535864978903,4.07396376272028,"10 commandments effect"
"122","Wiggins","control condition",0.137931034482759,0.259375788166179,1.55172413793103,1.41379310344828,58,58,"English",0.379166666666667,240,4.41176470588235,4.85654008438819,2.9535864978903,4.07396376272028,"control condition permaa"
"123","Wiggins","cheating",0.733747880158282,0.281084622961212,2.14754098360656,1.41379310344828,61,58,"English",0.379166666666667,240,4.41176470588235,4.85654008438819,2.9535864978903,4.07396376272028,"cheating permaa"
"124","Wiggins","commandments condition",0.786985539488321,0.343241376767157,2.33870967741935,1.55172413793103,62,58,"English",0.379166666666667,240,4.41176470588235,4.85654008438819,2.9535864978903,4.07396376272028,"commandments condition permaa"
"125","Wiggins","difference",-0.053237659330039,0.443647616910381,0.733747880158282,0.786985539488321,120,120,"English",0.379166666666667,240,4.41176470588235,4.85654008438819,2.9535864978903,4.07396376272028,"difference permaa"
