datetime,subjID,sex,prime_code,prime_condition,prime_response,triv1_raw,triv1_correct,triv2_raw,triv2_correct,triv3_raw,triv3_correct,triv4_raw,triv4_correct,triv5_raw,triv5_correct,triv6_raw,triv6_correct,triv7_raw,triv7_correct,triv8_raw,triv8_correct,triv9_raw,triv9_correct,triv10_raw,triv10_correct,triv11_raw,triv11_correct,triv12_raw,triv12_correct,triv13_raw,triv13_correct,triv14_raw,triv14_correct,triv15_raw,triv15_correct,triv16_raw,triv16_correct,triv17_raw,triv17_correct,triv18_raw,triv18_correct,triv19_raw,triv19_correct,triv20_raw,triv20_correct,triv21_raw,triv21_correct,triv22_raw,triv22_correct,triv23_raw,triv23_correct,triv24_raw,triv24_correct,triv25_raw,triv25_correct,triv26_raw,triv26_correct,triv27_raw,triv27_correct,triv28_raw,triv28_correct,triv29_raw,triv29_correct,triv30_raw,triv30_correct,age,major,language,sex_r,year,area_writing,area_trivia,purpose,link_yn,link_text,thinking_yn,thinking_text,comments,prior_hool,professor_int_rating,professor_acc_rating,soccer hooligan_int_rating,soccer hooligan_acc_rating
20161104-143310,10062,F,0,soccer hooligan,"As a soccer hooligan, I would imagine I would like to spend all of my time doing things relating to soccer, including watching, playing, and discussing. Typical personality characteristics would include being loud, routy, disrespectful, and maybe even lazy. In my daily life, i imagine I would have a part time job and would spend a lot of my free time drinking with friends while watching or discussing soccer. Typical passions or hobbies would revolve around soccer, friends, and drinking.",Botswana,True,HTML,False,Muskrat,False,Pluto,False,8,False,Pakistan,False,Arm,True,Dick Turpin,False,Brass,False,Wave,True,Isotherms,False,0,False,General Motors,True,180,True,Mercury,False,Alexander Popov,False,Pressure,False,Deep Thought,False,Continental Shelf,True,Communist,False,Penicillin,True,Salvador Dali,False,Colorado River,False,In the throat,True,Ukraine,False,Saturn,False,Beethoven,False,Air temperature,False,Collagen,False,Spain,False,21,Psychology and Communication,English,female,4th year or higher,"Imagination, empathizing with others","Learning, memory","To test memory
",no,,no,,none,no,75,22,40,15.0
