datetime,subjID,sex,prime_code,prime_condition,prime_response,triv1_raw,triv1_correct,triv2_raw,triv2_correct,triv3_raw,triv3_correct,triv4_raw,triv4_correct,triv5_raw,triv5_correct,triv6_raw,triv6_correct,triv7_raw,triv7_correct,triv8_raw,triv8_correct,triv9_raw,triv9_correct,triv10_raw,triv10_correct,triv11_raw,triv11_correct,triv12_raw,triv12_correct,triv13_raw,triv13_correct,triv14_raw,triv14_correct,triv15_raw,triv15_correct,triv16_raw,triv16_correct,triv17_raw,triv17_correct,triv18_raw,triv18_correct,triv19_raw,triv19_correct,triv20_raw,triv20_correct,triv21_raw,triv21_correct,triv22_raw,triv22_correct,triv23_raw,triv23_correct,triv24_raw,triv24_correct,triv25_raw,triv25_correct,triv26_raw,triv26_correct,triv27_raw,triv27_correct,triv28_raw,triv28_correct,triv29_raw,triv29_correct,triv30_raw,triv30_correct,age,major,language,sex_r,year,area_writing,area_trivia,purpose,link_yn,link_text,thinking_yn,thinking_text,comments,prior_hool,professor_int_rating,professor_acc_rating,soccer hooligan_int_rating,soccer hooligan_acc_rating
20161108-171650,10094,F,0,soccer hooligan,"I smoke a lot of pot, drink with my mates, and the occasion pill poping.  My mates and I run the K St through Everton.  We patrol the place and bust the heads of anyone messing around in our turf.  Obviously, we watch a lot of soccer and go to all the games.  Scream our lungs out for United! We fuck up the pigs every chance we get.  Who cares.  They don't have guns and we have more muscle.  We run this town!  No one fucks with us.  Most days are pretty chill.  Just hang out on our street, play video games, and smoke some pot.  Of course drink all day.  That does not need to be said.  We lift when we can get down to the gym.  My mate has a set up in his garage too, but he's a little prick and we don't go around his place too much.  We could if we wanted to. His old lady is piece of ass, but fucking crazy.  Like seriously mental.  ",Uganda,False,HTML,False,Muskrat,False,Earth,True,6,False,Bangledesh,False,Leg,False,Guy Fawkes,True,Pewter,False,Iceberg,False,Isotherms,False,21,True,Mitsubishi,False,180,True,Mars,False,Nikita Krushchev,False,Temperature,False,Blue Knight,False,Continental Shelf,True,Fascist,True,Penicillin,True,Salvador Dali,False,Rio Grande,True,In the throat,True,Siberia,True,Jupiter,True,Tchaikovsky,True,Air pressure,True,Keratin,True,France,True,23,"Mathematics
",English,female,3rd year,This one,This one too,no idea,no,,no,,No,yes,50,17,50,23
