datetime,subjID,sex,prime_code,prime_condition,prime_response,triv1_raw,triv1_correct,triv2_raw,triv2_correct,triv3_raw,triv3_correct,triv4_raw,triv4_correct,triv5_raw,triv5_correct,triv6_raw,triv6_correct,triv7_raw,triv7_correct,triv8_raw,triv8_correct,triv9_raw,triv9_correct,triv10_raw,triv10_correct,triv11_raw,triv11_correct,triv12_raw,triv12_correct,triv13_raw,triv13_correct,triv14_raw,triv14_correct,triv15_raw,triv15_correct,triv16_raw,triv16_correct,triv17_raw,triv17_correct,triv18_raw,triv18_correct,triv19_raw,triv19_correct,triv20_raw,triv20_correct,triv21_raw,triv21_correct,triv22_raw,triv22_correct,triv23_raw,triv23_correct,triv24_raw,triv24_correct,triv25_raw,triv25_correct,triv26_raw,triv26_correct,triv27_raw,triv27_correct,triv28_raw,triv28_correct,triv29_raw,triv29_correct,triv30_raw,triv30_correct,age,major,language,sex_r,year,area_writing,area_trivia,purpose,link_yn,link_text,thinking_yn,thinking_text,comments,prior_hool,soccer hooligan_int_rating,soccer hooligan_acc_rating,professor_int_rating,professor_acc_rating
20161109-130834,10101,F,1,professor,"In my daily life I would be teaching classes and doing research in the field I am interested in.My typical activities would be teaching, holding office hours and completing my research.Typpical characteristics that I would have would include being responsible, being confident, and having the ability to command a room.My passions and/or hobbies would most likely include or have to deal with whatever topic my research is about.",Botswana,True,Wordpad,False,Muskrat,False,Uranus,False,12,True,Bangledesh,False,Arm,True,Guy Fawkes,True,Brass,False,Iceberg,False,Isotherms,False,21,True,General Motors,True,360,False,Venus,True,Nikita Krushchev,False,Radiation,True,Blue Knight,False,Continental Slope,False,Fascist,True,Penicillin,True,Salvador Dali,False,Rio Lobos,False,In the throat,True,Siberia,True,Jupiter,True,Mozart,False,Air pressure,True,Collagen,False,France,True,20,undeclared,English,female,3rd year,psychology,"knowledge
","no idea
",yes,proffesors are very intelligent and have a lot of knowledge,no,,no,no,29,9,92,26
