datetime,subjID,sex,prime_code,prime_condition,prime_response,triv1_raw,triv1_correct,triv2_raw,triv2_correct,triv3_raw,triv3_correct,triv4_raw,triv4_correct,triv5_raw,triv5_correct,triv6_raw,triv6_correct,triv7_raw,triv7_correct,triv8_raw,triv8_correct,triv9_raw,triv9_correct,triv10_raw,triv10_correct,triv11_raw,triv11_correct,triv12_raw,triv12_correct,triv13_raw,triv13_correct,triv14_raw,triv14_correct,triv15_raw,triv15_correct,triv16_raw,triv16_correct,triv17_raw,triv17_correct,triv18_raw,triv18_correct,triv19_raw,triv19_correct,triv20_raw,triv20_correct,triv21_raw,triv21_correct,triv22_raw,triv22_correct,triv23_raw,triv23_correct,triv24_raw,triv24_correct,triv25_raw,triv25_correct,triv26_raw,triv26_correct,triv27_raw,triv27_correct,triv28_raw,triv28_correct,triv29_raw,triv29_correct,triv30_raw,triv30_correct,age,major,language,sex_r,year,area_writing,area_trivia,purpose,link_yn,link_text,thinking_yn,thinking_text,comments,prior_hool,soccer hooligan_int_rating,soccer hooligan_acc_rating,professor_int_rating,professor_acc_rating
20161118-131147,10208,F,1,professor,"As a University Professor, I work hard to ensure all my students have a good understanding of the material. In my daily life, I love to read, spend time with my family and work on my research. I am hardworking, fair, and a problem solver. As a professor who loves to solve puzzles, it's one of my goals to make learning attainable for my students and help them succeed in any way I can. While being a professor is important to me, I am also very busy with my research and work to balance both goals simultaneously.",Zaire,False,HTML,False,Capybara,True,Pluto,False,12,True,Pakistan,False,Arm,True,Robin Hood,False,Pewter,False,Iceberg,False,Isobars,True,21,True,General Motors,True,180,True,Venus,True,Nikita Krushchev,False,Radiation,True,Blue Knight,False,Continental Shelf,True,Fascist,True,X Rays,False,Salvador Dali,False,Rio Grande,True,In the throat,True,Ukraine,False,Jupiter,True,Tchaikovsky,True,Air pressure,True,Keratin,True,Greece,False,19,"Human Developemt
",English,female,2nd year,professor,student,"no idea
",no,,no,,no,yes,33,12,99,28
