datetime,subjID,sex,prime_code,prime_condition,prime_response,triv1_raw,triv1_correct,triv2_raw,triv2_correct,triv3_raw,triv3_correct,triv4_raw,triv4_correct,triv5_raw,triv5_correct,triv6_raw,triv6_correct,triv7_raw,triv7_correct,triv8_raw,triv8_correct,triv9_raw,triv9_correct,triv10_raw,triv10_correct,triv11_raw,triv11_correct,triv12_raw,triv12_correct,triv13_raw,triv13_correct,triv14_raw,triv14_correct,triv15_raw,triv15_correct,triv16_raw,triv16_correct,triv17_raw,triv17_correct,triv18_raw,triv18_correct,triv19_raw,triv19_correct,triv20_raw,triv20_correct,triv21_raw,triv21_correct,triv22_raw,triv22_correct,triv23_raw,triv23_correct,triv24_raw,triv24_correct,triv25_raw,triv25_correct,triv26_raw,triv26_correct,triv27_raw,triv27_correct,triv28_raw,triv28_correct,triv29_raw,triv29_correct,triv30_raw,triv30_correct,age,major,language,sex_r,year,area_writing,area_trivia,purpose,link_yn,link_text,thinking_yn,thinking_text,comments,prior_hool,professor_int_rating,professor_acc_rating,soccer hooligan_int_rating,soccer hooligan_acc_rating
20161122-153105,10232,M,0,soccer hooligan,"1. being a soccer hoolignan, i will be follow my favorite team news, look at the player condition and discuss with my friends. I do not have I would have time in work because all of the things i am doing is just wasting my time.
2. typical activities would be engage a fight with the opposite team fans, drink in a bar and watching my team play.
3.I think thatthe typeical personality would be very outgoing guy, can engage talking or fighting with anyone.Do not care myself future but my team performace.
4. THe typcal hobbies would be drinking, having a party and watching socccer. ",Uganda,False,ASCII,True,Capybara,True,Earth,True,6,False,Pakistan,False,Leg,False,Robin Hood,False,Bronze,True,Pillar,False,0,False,25,False,General Motors,True,180,True,Saturn,False,Nikita Krushchev,False,Radiation,True,Deep Blue,True,Continental Rise,False,Fascist,True,Penicillin,True,Pablo Picasso,True,Colorado River,False,In the throat,True,Kazakhstan,False,Jupiter,True,Mozart,False,0,False,Elastin,False,Spain,False,23,communication,Chinese,male,4th year or higher,learning to think deeply,memory and education guess,how do you use your best knowledge to solve problem,yes,no idea,no,,no idea,no,85,25,40,8
