datetime,subjID,sex,prime_code,prime_condition,prime_response,triv1_raw,triv1_correct,triv2_raw,triv2_correct,triv3_raw,triv3_correct,triv4_raw,triv4_correct,triv5_raw,triv5_correct,triv6_raw,triv6_correct,triv7_raw,triv7_correct,triv8_raw,triv8_correct,triv9_raw,triv9_correct,triv10_raw,triv10_correct,triv11_raw,triv11_correct,triv12_raw,triv12_correct,triv13_raw,triv13_correct,triv14_raw,triv14_correct,triv15_raw,triv15_correct,triv16_raw,triv16_correct,triv17_raw,triv17_correct,triv18_raw,triv18_correct,triv19_raw,triv19_correct,triv20_raw,triv20_correct,triv21_raw,triv21_correct,triv22_raw,triv22_correct,triv23_raw,triv23_correct,triv24_raw,triv24_correct,triv25_raw,triv25_correct,triv26_raw,triv26_correct,triv27_raw,triv27_correct,triv28_raw,triv28_correct,triv29_raw,triv29_correct,triv30_raw,triv30_correct,age,major,language,sex_r,year,area_writing,area_trivia,purpose,link_yn,link_text,thinking_yn,thinking_text,comments,prior_hool,soccer hooligan_int_rating,soccer hooligan_acc_rating,professor_int_rating,professor_acc_rating
20161202-164925,19,male,1,professor,"-Be articulate and a good writer and teacher
-Be open and understanding to new research that comes out
-A daily life would consist of a good balance of teaching, research and social
-Typical personality characteristics would include: time-management, open-minded, teaching ability, working in a group with other professors
-Being continually interested in the particular study of work during off times outside of university teaching
",Zaire,False,HTML,False,Capybara,True,Earth,True,6,False,Pakistan,False,Neck,False,Guy Fawkes,True,Bronze,True,Iceberg,False,Isobars,True,21,True,Ford,False,180,True,Mercury,False,Mikhail Gorbachev,True,Pressure,False,Blue Knight,False,Continental Shelf,True,Republic,False,South America,False,Pablo Picasso,True,Rio Grande,True,In the throat,True,Ukraine,False,Jupiter,True,Mozart,False,Air pressure,True,Keratin,True,Greece,False,19,Production Design and Management,English,male,2nd year,University Professor,Sub 5,no idea,no,,no,,No,yes,28,5,72,21
