datetime,subjID,sex,prime_code,prime_condition,prime_response,triv1_raw,triv1_correct,triv2_raw,triv2_correct,triv3_raw,triv3_correct,triv4_raw,triv4_correct,triv5_raw,triv5_correct,triv6_raw,triv6_correct,triv7_raw,triv7_correct,triv8_raw,triv8_correct,triv9_raw,triv9_correct,triv10_raw,triv10_correct,triv11_raw,triv11_correct,triv12_raw,triv12_correct,triv13_raw,triv13_correct,triv14_raw,triv14_correct,triv15_raw,triv15_correct,triv16_raw,triv16_correct,triv17_raw,triv17_correct,triv18_raw,triv18_correct,triv19_raw,triv19_correct,triv20_raw,triv20_correct,triv21_raw,triv21_correct,triv22_raw,triv22_correct,triv23_raw,triv23_correct,triv24_raw,triv24_correct,triv25_raw,triv25_correct,triv26_raw,triv26_correct,triv27_raw,triv27_correct,triv28_raw,triv28_correct,triv29_raw,triv29_correct,triv30_raw,triv30_correct,age,major,language,sex_r,year,area_writing,area_trivia,purpose,link_yn,link_text,thinking_yn,thinking_text,comments,prior_hool,professor_int_rating,professor_acc_rating,soccer hooligan_int_rating,soccer hooligan_acc_rating
20170221-112040,56,male,0,soccer hooligan,"daily life activities: drinking beer, watching adultry photography, facebook surfing, constantly staring at my phone waiting for someone to contact me or for someone to pop up online, waking up late, not caring about money being spent. 

personality - friendly and optimistic. believing in only living once so making the most of it.helping out friends in need. backing friends up when in time of need, whether social fights or sadness etc.  not looking at bad things in life.",Botswana,True,HTML,False,Beaver,False,Mars,False,6,False,Pakistan,False,11,False,Guy Fawkes,True,Brass,False,Wave,True,Isobars,True,21,True,Ford,False,360,False,Venus,True,Boris Yeltsin,False,In trees,True,King Blue,False,Continental Rise,False,Communist,False,Penicillin,True,Bronze,True,Rio Grande,True,In the throat,True,Ukraine,False,Jupiter,True,Mozart,False,Air pressure,True,Keratin,True,Greece,False,18,accountancy,English,male,3rd year,psychology,psychology,no idea sorry,yes,"they are people who are bright when it comes to knowledge about the world but were not disciplined at a young age when it comes to behaviour. they probably have ""jellyfish"" parents.",no,,the thinking about hooligan was fun but general knowledge was not because i did not know most of the answers to the questions.,yes,25,15.0,76,24
