Study	Condition	Contribution	Disobeyed	Prediction	Female	Age	US_Resident	Education	Failed_Comprehension
7	Time_delay	0	0	50	0	22	1	Attended_college	0
7	Time_delay	0	0	250	0	20	1	Attended_college	0
7	Time_delay	400	0	392	1	18	1	High_school_diploma	0
7	Time_delay	0	0	130	1	21	1	Attended_college	1
7	Time_delay	400	0	300	0	18	1	High_school_diploma	1
7	Time_delay	0	1	150	0	22	1	Attended_college	1
7	Time_delay	300	0	300	1	21	1	Bachelor's_degree	0
7	Time_delay	400	0	350	1	23	1	Bachelor's_degree	1
7	Time_delay	100	0	100	1	19	1	Attended_college	1
7	Time_delay	200	0	200	1	22	1	Attended_college	0
7	Time_delay	0	1	200	1	24	1	Bachelor's_degree	0
7	Time_delay	250	0	300	1	23	1	Graduate_degree_	1
7	Time_delay	0	0	100	0	22	1	Attended_college	0
7	Time_delay	150	0	200	1	20	1	Attended_college	0
7	Time_delay	282	0	282	0	21	1	Attended_college	0
7	Time_delay	300	0	274	1	24	1	Bachelor's_degree	1
7	Time_delay	60	0	100	1	25	1	Bachelor's_degree	1
7	Time_delay	0	0	50	1	19	1	High_school_diploma	1
7	Time_delay	400	0	400	1	22	1	Attended_college	1
7	Time_delay	0	1	20	0	18	1	Attended_college	0
7	Time_delay	50	0	132	1	22	1	Attended_college	1
7	Time_delay	400	0	400	1	21	1	Attended_college	1
7	Time_delay	0	1	200	1	21	1	Attended_college	0
7	Time_delay	100	0	200	1	19	1	Attended_college	0
7	Time_delay	400	0	270	1	18	1	Attended_college	1
7	Time_delay	0	0	0	0	19	1	High_school_diploma	0
7	Time_delay	200	0	154	1	18	1	High_school_diploma	0
7	Time_delay	256	0	286	1	21	1	Attended_college	1
7	Time_delay	0	0	100	1	23	1	Bachelor's_degree	0
7	Time_delay	400	0	350	1	22	1	Bachelor's_degree	1
7	Time_delay	100	0	150	1	21	1	High_school_diploma	0
7	Time_delay	100	0	200	0	19	1	Attended_college	0
7	Time_delay	200	0	100	1	22	1	Bachelor's_degree	0
7	Time_delay	300	0	260	1	25	1	Graduate_degree	0
7	Time_delay	200	0	250	1	25	1	Bachelor's_degree	0
7	Time_delay	100	0	76	0	22	1	Bachelor's_degree	1
7	Time_delay	100	0	100	1	20	1	Attended_college	0
7	Time_delay	0	0	0	0	23	1	Attended_college	0
7	Time_delay	0	0	10	1	19	1	Attended_college	0
7	Time_delay	400	0	300	0	20	1	Attended_college	0
7	Time_delay	400	1	300	0	25	1	Bachelor's_degree	0
7	Time_delay	0	0	400	0	20	1	Attended_college	0
7	Time_delay	200	0	300	0	21	1	Bachelor's_degree	0
7	Time_delay	400	0	400	0	23	1	Bachelor's_degree	0
7	Time_delay	400	0	200	1	26	1	Bachelor's_degree	0
7	Time_delay	0	0	222	1	18	1	Attended_college	0
7	Time_delay	252	0	312	1	25	1	Graduate_degree	0
7	Time_delay	50	0	68	0	21	1	Bachelor's_degree	0
7	Time_delay	400	0	400	1	19	1	High_school_diploma	0
7	Time_delay	0	0	300	0	18	1	High_school_diploma	0
7	Time_delay	100	0	50	1	19	1	High_school_diploma	0
7	Time_delay	400	0	400	0	20	1	Attended_college	0
7	Time_delay	0	0	190	1	20	1	Attended_college	1
7	Time_delay	400	0	300	0	19	1	High_school_diploma	0
7	Time_delay	400	0	300	1	20	1	Attended_college	0
7	Time_delay	0	0	0	1	22	1	Attended_college	1
7	Time_delay	400	0	200	0	21	1	High_school_diploma	0
7	Time_delay	0	0	100	0	19	1	Attended_college	0
7	Time_delay	0	0	120	1	22	1	High_school_diploma	0
7	Time_delay	300	0	250	1	30	1	Bachelor's_degree	0
7	Time_delay	200	0	220	0	22	1	Attended_college	0
7	Time_delay	300	0	250	0	22	1	High_school_diploma	1
7	Time_delay	160	0	160	0	18	1	Attended_college	0
7	Time_delay	300	0	200	1	18	1	High_school_diploma	1
7	Time_delay	400	0	204	0	22	1	Attended_college	0
7	Time_delay	40	0	100	0	19	1	Attended_college	0
7	Time_delay	0	0	180	0	23	1	Attended_college	0
7	Time_delay	320	0	240	1	19	1	High_school_diploma	1
7	Time_delay	0	0	0	1	21	1	High_school_diploma	0
7	Time_delay	100	0	100	1	23	1	Bachelor's_degree	1
7	Time_delay	100	0	100	1	21	1	Attended_college	0
7	Time_delay	100	0	100	0	21	1	High_school_diploma	1
7	Time_delay	20	0	20	1	32	1	Bachelor's_degree	0
7	Time_delay	0	1	0	1	20	1	High_school_diploma	0
7	Time_delay	0	1	72	0	30	1	Bachelor's_degree	1
7	Time_delay	80	0	42	1	33	1	Bachelor's_degree	0
7	Time_delay	200	0	150	1	22	1	Attended_college	0
7	Time_delay	160	0	190	1	21	1	Attended_college	1
7	Time_delay	0	1	50	1	23	1	High_school_diploma	0
7	Time_delay	0	0	40	1	24	1	Attended_college	0
7	Time_delay	400	0	400	0	19	1	High_school_diploma	0
7	Time_delay	0	0	0	1	21	1	Attended_college	0
7	Time_delay	100	0	140	1	22	1	High_school_diploma	0
7	Time_delay	100	0	224	1	21	1	High_school_diploma	1
7	Time_delay	300	0	380	0	24	1	High_school_diploma	1
7	Time_delay	400	0	200	1	22	1	High_school_diploma	0
7	Time_delay	100	0	150	1	21	1	Attended_college	0
7	Time_delay	200	0	180	1	24	1	Bachelor's_degree	0
7	Time_delay	400	1	200	1	24	1	Bachelor's_degree	1
7	Time_delay	0	1	0	0	22	1	Bachelor's_degree	1
7	Time_delay	200	0	160	0	21	1	High_school_diploma	0
7	Time_delay	20	0	40	1	19	1	High_school_diploma	1
7	Time_delay	300	0	200	1	20	1	Attended_college	0
7	Time_delay	0	0	10	1	22	1	High_school_diploma	0
7	Time_delay	0	0	0	1	20	1	Attended_college	1
7	Time_delay	0	0	0	1	22	1	Attended_college	0
7	Time_delay	100	0	100	1	20	1	High_school_diploma	0
7	Time_delay	20	0	50	0	23	1	Attended_college	1
7	Time_delay	0	0	80	0	19	1	Attended_college	0
7	Time_delay	100	0	100	1	25	1	Bachelor's_degree	0
7	Time_delay	140	0	170	1	22	1	Attended_college	1
7	Time_delay	200	0	230	0	19	1	High_school_diploma	0
7	Time_delay	400	1	200	0	20	1	High_school_diploma	0
7	Time_delay	380	0	290	1	18	1	High_school_diploma	1
7	Time_delay	20	0	40	1	21	1	High_school_diploma	0
7	Time_delay	400	0	298	1	21	1	High_school_diploma	0
7	Time_delay	0	0	100	0	18	1	High_school_diploma	0
7	Time_delay	400	0	300	1	21	1	Bachelor's_degree	1
7	Time_delay	0	0	200	0	22	1	Attended_college	0
7	Time_pressure	30	1	200	1	21	1	High_school_diploma	0
7	Time_pressure	200	1	200	0	24	1	Bachelor's_degree	0
7	Time_pressure	200	1	150	1	21	1	High_school_diploma	0
7	Time_pressure	392	1	374	1	21	1	Attended_college	0
7	Time_pressure	0	1	100	0	20	1	Attended_college	0
7	Time_pressure	20	1	30	0	21	1	Bachelor's_degree	0
7	Time_pressure	0	0	100	0	22	1	Bachelor's_degree	0
7	Time_pressure	100	0	100	1	21	1	Attended_college	1
7	Time_pressure	300	0	200	1	21	1	Attended_college	1
7	Time_pressure	322	1	298	0	20	1	High_school_diploma	0
7	Time_pressure	288	1	330	1	18	1	High_school_diploma	1
7	Time_pressure	200	1	200	1	19	1	Attended_college	1
7	Time_pressure	300	1	300	1	21	1	Attended_college	1
7	Time_pressure	400	0	300	1	21	1	Bachelor's_degree	1
7	Time_pressure	400	0	250	1	21	1	Attended_college	1
7	Time_pressure	400	0	200	1	24	1	Bachelor's_degree	0
7	Time_pressure	20	1	0	1	26	1	Graduate_degree	1
7	Time_pressure	300	0	200	1	18	1	High_school_diploma	1
7	Time_pressure	66	0	120	1	21	1	Attended_college	1
7	Time_pressure	0	0	74	1	22	1	High_school_diploma	0
7	Time_pressure	100	1	70	0	23	1	Bachelor's_degree	0
7	Time_pressure	102	1	62	1	19	1	High_school_diploma	0
7	Time_pressure	0	1	0	1	28	1	Graduate_degree	1
7	Time_pressure	400	0	288	0	22	1	Attended_college	0
7	Time_pressure	0	1	56	1	20	1	Attended_college	0
7	Time_pressure	400	0	400	1	27	1	Graduate_degree	0
7	Time_pressure	100	1	176	0	21	1	Attended_college	0
7	Time_pressure	128	1	224	1	21	1	Attended_college	0
7	Time_pressure	340	1	100	0	19	1	Attended_college	0
7	Time_pressure	300	0	200	0	28	1	Bachelor's_degree	0
7	Time_pressure	250	1	200	1	21	1	Attended_college	0
7	Time_pressure	400	0	300	1	26	1	Bachelor's_degree	1
7	Time_pressure	100	0	200	0	21	1	Bachelor's_degree	0
7	Time_pressure	282	0	300	1	19	1	Attended_college	0
7	Time_pressure	210	1	100	1	24	1	Graduate_degree	1
7	Time_pressure	350	0	300	1	23	1	Bachelor's_degree	1
7	Time_pressure	400	1	0	1	24	1	Bachelor's_degree	0
7	Time_pressure	100	1	200	0	21	1	High_school_diploma	0
7	Time_pressure	0	0	180	0	20	1	Attended_college	0
7	Time_pressure	0	0	100	0	19	1	Attended_college	0
7	Time_pressure	300	1	350	1	28	1	Bachelor's_degree	1
7	Time_pressure	0	1	200	1	22	1	Bachelor's_degree	0
7	Time_pressure	0	1	200	0	19	1	High_school_diploma	0
7	Time_pressure	400	1	200	1	18	1	Attended_college	0
7	Time_pressure	272	0	168	0	21	1	High_school_diploma	0
7	Time_pressure	100	1	70	1	27	1	Bachelor's_degree	1
7	Time_pressure	354	1	208	1	21	1	Attended_college	0
7	Time_pressure	200	1	200	0	26	1	Bachelor's_degree	1
7	Time_pressure	100	1	150	0	18	1	High_school_diploma	0
7	Time_pressure	52	1	100	1	23	1	Bachelor's_degree	0
7	Time_pressure	10	1	200	0	26	1	Bachelor's_degree	1
7	Time_pressure	400	1	20	1	20	1	High_school_diploma	0
7	Time_pressure	0	1	300	0	21	1	Attended_college	1
7	Time_pressure	120	1	100	1	19	1	High_school_diploma	0
7	Time_pressure	100	1	266	1	21	1	Attended_college	1
7	Time_pressure	400	0	400	0	21	1	High_school_diploma	1
7	Time_pressure	80	0	40	1	18	1	High_school_diploma	1
7	Time_pressure	0	0	200	0	26	1	Bachelor's_degree	0
7	Time_pressure	80	0	138	1	23	1	Bachelor's_degree	0
7	Time_pressure	300	0	250	0	21	1	Attended_college	0
7	Time_pressure	400	0	180	0	19	1	Attended_college	0
7	Time_pressure	120	1	0	1	29	1	Graduate_degree	0
7	Time_pressure	300	0	102	1	19	1	High_school_diploma	1
7	Time_pressure	360	0	94	1	22	1	High_school_diploma	0
7	Time_pressure	260	0	100	1	22	1	High_school_diploma	1
7	Time_pressure	300	0	100	1	21	1	High_school_diploma	0
7	Time_pressure	200	1	100	0	20	1	High_school_diploma	0
7	Time_pressure	140	0	50	1	20	1	High_school_diploma	0
7	Time_pressure	400	0	400	1	22	1	Attended_college	1
7	Time_pressure	200	0	192	1	18	1	High_school_diploma	0
7	Time_pressure	400	0	330	1	18	1	High_school_diploma	0
7	Time_pressure	240	0	202	0	20	1	Attended_college	0
7	Time_pressure	400	0	350	1	18	1	High_school_diploma	0
7	Time_pressure	0	0	50	0	19	1	High_school_diploma	0
7	Time_pressure	120	0	0	1	22	1	Attended_college	0
7	Time_pressure	0	0	400	1	21	1	Attended_college	0
7	Time_pressure	400	0	400	1	20	1	Attended_college	1
7	Time_pressure	20	1	20	0	21	1	Attended_college	0
7	Time_pressure	200	1	206	1	21	1	Attended_college	0
7	Time_pressure	100	0	120	1	22	1	Bachelor's_degree	1
7	Time_pressure	0	0	200	1	21	1	Attended_college	0
7	Time_pressure	0	0	20	1	21	1	High_school_diploma	0
7	Time_pressure	400	0	250	1	19	1	Attended_college	1
7	Time_pressure	0	0	0	1	19	1	Attended_college	0
7	Time_pressure	400	0	400	1	22	1	Attended_college	1
7	Time_pressure	400	0	250	0	20	1	High_school_diploma	1
7	Time_pressure	260	0	248	1	19	1	High_school_diploma	1
7	Time_pressure	0	1	100	0	18	1	High_school_diploma	0
7	Time_pressure	300	1	176	1	19	1	High_school_diploma	0
7	Time_pressure	0	1	64	0	21	1	Bachelor's_degree	1
7	Time_pressure	200	0	120	0	20	1	Attended_college	0
7	Time_pressure	60	1	200	0	20	1	Attended_college	0
7	Time_pressure	220	0	100	1	21	1	High_school_diploma	0
7	Time_pressure	0	1	100	1	22	1	Attended_college	0
7	Time_pressure	180	0	150	1	21	1	Attended_college	0
7	Time_pressure	340	1	300	1	18	1	High_school_diploma	1
7	Time_pressure	300	0	240	1	19	1	High_school_diploma	0
7	Time_pressure	400	0	400	1	22	1	Bachelor's_degree	1
7	Time_pressure	180	0	200	1	21	1	Bachelor's_degree	0
7	Time_pressure	0	0	120	1	19	1	Attended_college	1
7	Time_pressure	400	0	300	0	19	1	Attended_college	0
7	Time_pressure	400	1	300	1	19	1	High_school_diploma	1