datetime,subjID,sex,prime_code,prime_condition,prime_response,triv1_raw,triv1_correct,triv2_raw,triv2_correct,triv3_raw,triv3_correct,triv4_raw,triv4_correct,triv5_raw,triv5_correct,triv6_raw,triv6_correct,triv7_raw,triv7_correct,triv8_raw,triv8_correct,triv9_raw,triv9_correct,triv10_raw,triv10_correct,triv11_raw,triv11_correct,triv12_raw,triv12_correct,triv13_raw,triv13_correct,triv14_raw,triv14_correct,triv15_raw,triv15_correct,triv16_raw,triv16_correct,triv17_raw,triv17_correct,triv18_raw,triv18_correct,triv19_raw,triv19_correct,triv20_raw,triv20_correct,triv21_raw,triv21_correct,triv22_raw,triv22_correct,triv23_raw,triv23_correct,triv24_raw,triv24_correct,triv25_raw,triv25_correct,triv26_raw,triv26_correct,triv27_raw,triv27_correct,triv28_raw,triv28_correct,triv29_raw,triv29_correct,triv30_raw,triv30_correct,year,sex_r,age,major,language,area_writing,area_trivia,purpose,link_yn,link_text,thinking_yn,thinking_text,comments,prior_hool,hooligan de foot_int_rating,hooligan de foot_acc_rating,professeur d'université_int_rating,professeur d'université_acc_rating
20170215-163136,222,F,1,professeur d'université,"Je donne des cours aux masters avec qui je sympathise et aime beaucoup discuter car j'aime créer des liens er crois qu'en chaque élève parvenu jusqu'ici il y a un potentiel de créativité et de découverte. Je suis très pédaguogue et en plus de mon doctorat j'ai 2 masters. J'ai réalisé un master en sciences de la population pour ma culture générale et du monde et de ses enjeux. Je suis très engagée contre la discrimination et réalise des conférences, ai écrit un livre sur les normes de genre. Je suis actuellement en pleine recherche sur les immigrants (adolescents et enfants) et les politiques d'intégration les plus profitables à leur construction identitaire. J'agis également pour un projet de monter une association accueillant les mères adolescentes et les aidant à créer le lien avec leur bébé grace à de diverses psychothérapies différentes. J'ai des hobbies de bourgeois cultivé et des temps privilégiés avec mes enfants (activités et pa",Le Botswana,True,L’ASCII,True,Le castor,False,Mars,False,12,True,L’Inde,True,Le pied,False,Guy Fawkes,True,Le bronze,True,Un iceberg,False,Fronts,False,21,True,Chrysler,False,180,True,Mars,False,Mikhail Gorbachev,True,La pression,False,King Blue,False,Le talus continental,False,Fasciste,True,La pénicilline,True,Pablo Picasso,True,Le Rio Grande,True,Dans la gorge,True,La Sibérie,True,Jupiter,True,Tchaïkovsky,True,La vitesse du vent,False,La kératine,True,France,True,4ème année ou plus,femme,21,Psychologie sociale et interculturelle,Français,Sociale,Cognitive,"peut-etre voir  si le fait de se mettre dans la peau d'un professeur d'université (et donc  quelqu'un de cultivé, intelligent, bonne mémoire...)  améliorait le score à un test de culture générale (de faits qu'on n'a pas tous appris mais au moins entendu une à quelques fois)
",non,,non,,Je ne sais pas si c'était fait exprès mais j'ai l'impression que les questions de culture générale n'était pas toutes de difficulté égale,oui,30,2,92,26
