datetime,subjID,sex,prime_code,prime_condition,prime_response,triv1_raw,triv1_correct,triv2_raw,triv2_correct,triv3_raw,triv3_correct,triv4_raw,triv4_correct,triv5_raw,triv5_correct,triv6_raw,triv6_correct,triv7_raw,triv7_correct,triv8_raw,triv8_correct,triv9_raw,triv9_correct,triv10_raw,triv10_correct,triv11_raw,triv11_correct,triv12_raw,triv12_correct,triv13_raw,triv13_correct,triv14_raw,triv14_correct,triv15_raw,triv15_correct,triv16_raw,triv16_correct,triv17_raw,triv17_correct,triv18_raw,triv18_correct,triv19_raw,triv19_correct,triv20_raw,triv20_correct,triv21_raw,triv21_correct,triv22_raw,triv22_correct,triv23_raw,triv23_correct,triv24_raw,triv24_correct,triv25_raw,triv25_correct,triv26_raw,triv26_correct,triv27_raw,triv27_correct,triv28_raw,triv28_correct,triv29_raw,triv29_correct,triv30_raw,triv30_correct,age,major,language,sex_r,year,area_writing,area_trivia,purpose,link_yn,link_text,thinking_yn,thinking_text,comments,prior_hool,soccer-hooligan_int_rating,soccer-hooligan_acc_rating,professor_int_rating,professor_acc_rating
20161020-154939,119,female,1,professor,"On an average week day, I have two or three classes that I teach for psychology.  When I'm not in class, I may be grading exams or homework, or looking over my notes to see what I will go over the next class period.  When I am not on campus, I am at home with my family or I may take a ride on the parkway.  Characteristics that make me a good professor are being patient and understanding towards my students and colleagues, being very knowledgable in my subject, and being curious.  Curiosity is what keeps my going and makes me strive to learn more.  I don't want to be the authoritarian type of professor that my students are afraid to approach.  My hobbies include hiking, reading for pleasure or to learn more, and spending time with my family.  ",Zimbabwe,False,ASCII,True,Capybara,True,Earth,True,12,True,India,True,Arm,True,Dick Turpin,False,Bronze,True,Pillar,False,Isobars,True,21,True,Mitsubishi,False,180,True,Venus,True,Nikita Krushchev,False,Radiation,True,Deep Blue,True,Continental Shelf,True,Fascist,True,Penicillin,True,Salvador Dali,False,Colorado River,False,In the throat,True,Ukraine,False,Jupiter,True,Tchaikovsky,True,Air pressure,True,Keratin,True,Spain,False,19,nursing,English,female,2nd year,education,science,"no idea
",no,,no,,no,no,30,2,70,15.0
