datetime,subjID,sex,prime_code,prime_condition,prime_response,triv1_raw,triv1_correct,triv2_raw,triv2_correct,triv3_raw,triv3_correct,triv4_raw,triv4_correct,triv5_raw,triv5_correct,triv6_raw,triv6_correct,triv7_raw,triv7_correct,triv8_raw,triv8_correct,triv9_raw,triv9_correct,triv10_raw,triv10_correct,triv11_raw,triv11_correct,triv12_raw,triv12_correct,triv13_raw,triv13_correct,triv14_raw,triv14_correct,triv15_raw,triv15_correct,triv16_raw,triv16_correct,triv17_raw,triv17_correct,triv18_raw,triv18_correct,triv19_raw,triv19_correct,triv20_raw,triv20_correct,triv21_raw,triv21_correct,triv22_raw,triv22_correct,triv23_raw,triv23_correct,triv24_raw,triv24_correct,triv25_raw,triv25_correct,triv26_raw,triv26_correct,triv27_raw,triv27_correct,triv28_raw,triv28_correct,triv29_raw,triv29_correct,triv30_raw,triv30_correct,age,major,language,sex_r,year,area_writing,area_trivia,purpose,link_yn,link_text,thinking_yn,thinking_text,comments,prior_hool,soccer-hooligan_int_rating,soccer-hooligan_acc_rating,professor_int_rating,professor_acc_rating
20161027-122949,164,Female,1,professor,"In my daily life as a professor, I am teaching a lecture to students. In my free time when I am not teaching, I am grading work, and researching psychology in my office so that I can publish my findings eventually. My personality consists of being honest, hard working, and typically laid back. I like to engage my students in the class and build one on one bonds with each student I teach. I believe this creates a more relaxed environment for learning. I also believe it helps the students to actually want to learn new things when they feel there is an understanding between them and I. ",Uganda,False,HTML,False,Capybara,True,Mars,False,8,False,India,True,Arm,True,Sweeney Todd,False,Bronze,True,Wave,True,Isobars,True,21,True,Mitsubishi,False,180,True,Mercury,False,Nikita Krushchev,False,Pressure,False,Deep Blue,True,Continental Shelf,True,Fascist,True,Penicillin,True,Salvador Dali,False,Rio Grande,True,In the throat,True,Siberia,True,Jupiter,True,Tchaikovsky,True,Air pressure,True,Keratin,True,Greece,False,18,"Psychology
",English,female,1st year,Environmental Psychology,Social Psychology,To gage how our surroundings affect our beliefs and knowledge.,yes,"We are told before that we should imagine being a professor then we are asked questions that involve trivia knowledge. This could possibly make us think we are ""smarter"" and make us more confident in our responses.",yes,Provided a level of confidence in my intelligence.,no,no,35,12,70,22
