datetime,subjID,sex,prime_code,prime_condition,prime_response,triv1_raw,triv1_correct,triv2_raw,triv2_correct,triv3_raw,triv3_correct,triv4_raw,triv4_correct,triv5_raw,triv5_correct,triv6_raw,triv6_correct,triv7_raw,triv7_correct,triv8_raw,triv8_correct,triv9_raw,triv9_correct,triv10_raw,triv10_correct,triv11_raw,triv11_correct,triv12_raw,triv12_correct,triv13_raw,triv13_correct,triv14_raw,triv14_correct,triv15_raw,triv15_correct,triv16_raw,triv16_correct,triv17_raw,triv17_correct,triv18_raw,triv18_correct,triv19_raw,triv19_correct,triv20_raw,triv20_correct,triv21_raw,triv21_correct,triv22_raw,triv22_correct,triv23_raw,triv23_correct,triv24_raw,triv24_correct,triv25_raw,triv25_correct,triv26_raw,triv26_correct,triv27_raw,triv27_correct,triv28_raw,triv28_correct,triv29_raw,triv29_correct,triv30_raw,triv30_correct,age,major,language,sex_r,year,area_writing,area_trivia,purpose,link_yn,link_text,thinking_yn,thinking_text,comments,prior_hool,professor_int_rating,professor_acc_rating,soccer-hooligan_int_rating,soccer-hooligan_acc_rating
20161006-115402,20,Female,0,soccer-hooligan,"I work a non-sports related job everyday but I am always talking about soccer to co workers, customers, and family memebrs. I watch soccer games as often as I can, no matter if it is college or professional. I play of a soccer team at the local rec center every weekend. I am a little over the top and crazy about soccer. I get really mad easily when someone disagrees with my opinion on a most recent game or player. I get angry when someone turns off my game, but its all just because I love soccer so much. It is my main happiness in life. I am a very nice person though and I love going to soccer games with people. I collect as many photos, figurines, tshirts, and anything to with soccer. I want my kids to play soccer and to love it. I drink beer whenever I am watching soccer and if I go to any games. I don't think I would be happy without soccer in my life. When my teams win I get really good luck after that. ",Botswana,True,ASCII,True,Capybara,True,Mars,False,12,True,Bangladesh,False,Arm,True,Robin Hood,False,Pewter,False,Wave,True,Isobars,True,25,False,General Motors,True,360,False,Mars,False,Alexander Popov,False,Rainfall,False,King Blue,False,Continental Abyss,False,Democracy,False,Penicillin,True,Paul Cezanne,False,Rio Grande,True,In the throat,True,Siberia,True,Mars,False,Beethoven,False,Air pressure,True,Keratin,True,Spain,False,22,Exercise Science,English,female,4th year or higher,Personality ,Developmental,"The purpose may have been something like to see how people are able to descibe something they are not, testing personality. And also testing development by seeing what questions people could answer and comparing it to the degree they are studying.
",yes,No idea,no,,No,yes,75,13,33,9
