datetime,subjID,sex,prime_code,prime_condition,prime_response,triv1_raw,triv1_correct,triv2_raw,triv2_correct,triv3_raw,triv3_correct,triv4_raw,triv4_correct,triv5_raw,triv5_correct,triv6_raw,triv6_correct,triv7_raw,triv7_correct,triv8_raw,triv8_correct,triv9_raw,triv9_correct,triv10_raw,triv10_correct,triv11_raw,triv11_correct,triv12_raw,triv12_correct,triv13_raw,triv13_correct,triv14_raw,triv14_correct,triv15_raw,triv15_correct,triv16_raw,triv16_correct,triv17_raw,triv17_correct,triv18_raw,triv18_correct,triv19_raw,triv19_correct,triv20_raw,triv20_correct,triv21_raw,triv21_correct,triv22_raw,triv22_correct,triv23_raw,triv23_correct,triv24_raw,triv24_correct,triv25_raw,triv25_correct,triv26_raw,triv26_correct,triv27_raw,triv27_correct,triv28_raw,triv28_correct,triv29_raw,triv29_correct,triv30_raw,triv30_correct,age,major,language,sex_r,year,area_writing,area_trivia,purpose,link_yn,link_text,thinking_yn,thinking_text,comments,prior_hool,professor_int_rating,professor_acc_rating,soccer-hooligan_int_rating,soccer-hooligan_acc_rating
20161006-100136,2,F,0,soccer-hooligan,"I like to spend every day watching football, soccer, or basketball. I really enjoy watching sports with my friends while we drink the day away. Because I have an angry outlook on life, I love to pick fights with people who seem ""too happy."" Basically, I wake up, and drink a beer with my breakfast. Then, me and my buddies go to a sports bar and make cat calls to all of the waitresses. Some of them seem offended, which is why I typically spark up an argument. I love sports, though. I like to know everything about every sport and spend a lot of time researching and keeping up with sports. When I see nice things that I can't have, I rage and I destroy mailboxes or other items because I feel like it's unfair. Most of the time, I'm drunk by mid afternoon, so I just blame my violent outbursts on the alcohol. Luckily, I don't have much of a family, so I don't have to worry about them getting upset with me. ",Zimbabwe,False,HTML,False,Muskrat,False,Earth,True,6,False,Pakistan,False,Arm,True,Robin Hood,False,Bronze,True,Wave,True,Isotherms,False,21,True,General Motors,True,180,True,Venus,True,Nikita Krushchev,False,Radiation,True,Blue Knight,False,Continental Slope,False,Democracy,False,Penicillin,True,Salvador Dali,False,Rio Grande,True,In the throat,True,Ukraine,False,0,False,Mozart,False,Air temperature,False,Keratin,True,Spain,False,18,"nursing
",English,female,1st year,soccer hooligans,level 5 ,I have no clue.,no,,no,,No,no,85,27,27,1
