datetime,subjID,sex,prime_code,prime_condition,prime_response,triv1_raw,triv1_correct,triv2_raw,triv2_correct,triv3_raw,triv3_correct,triv4_raw,triv4_correct,triv5_raw,triv5_correct,triv6_raw,triv6_correct,triv7_raw,triv7_correct,triv8_raw,triv8_correct,triv9_raw,triv9_correct,triv10_raw,triv10_correct,triv11_raw,triv11_correct,triv12_raw,triv12_correct,triv13_raw,triv13_correct,triv14_raw,triv14_correct,triv15_raw,triv15_correct,triv16_raw,triv16_correct,triv17_raw,triv17_correct,triv18_raw,triv18_correct,triv19_raw,triv19_correct,triv20_raw,triv20_correct,triv21_raw,triv21_correct,triv22_raw,triv22_correct,triv23_raw,triv23_correct,triv24_raw,triv24_correct,triv25_raw,triv25_correct,triv26_raw,triv26_correct,triv27_raw,triv27_correct,triv28_raw,triv28_correct,triv29_raw,triv29_correct,triv30_raw,triv30_correct,age,major,language,sex_r,year,area_writing,area_trivia,purpose,link_yn,link_text,thinking_yn,thinking_text,comments,prior_hool,soccer hooligan_int_rating,soccer hooligan_acc_rating,professor_int_rating,professor_acc_rating
20161110-120554,302,female,1,professor,"On a typical day I work on my research so i can publish my book. I like to go hiking on my free time since I teach at app, I am very free spirited and open to new ideas. Iam living my life to pass down my knowledge to the next generation so you could say that I am not selfish either. I am a hard worker and dedidcated",Uganda,False,ASCII,True,Muskrat,False,Earth,True,8,False,India,True,Arm,True,Sweeney Todd,False,Brass,False,Wave,True,Isobars,True,21,True,Chrysler,False,180,True,Mercury,False,Alexander Popov,False,Pressure,False,Deep Blue,True,Continental Shelf,True,Fascist,True,Stethoscope,False,Salvador Dali,False,Rio Grande,True,In the throat,True,Ukraine,False,Jupiter,True,Beethoven,False,Air pressure,True,Keratin,True,Spain,False,18,"Athletic Training
",English,female,1st year,Imaginative,General psych,"no idea
",yes,"Professors are all around very smart people, not just in their field",no,,no,yes,40,10,80,25
