datetime,subjID,sex,prime_code,prime_condition,prime_response,triv1_raw,triv1_correct,triv2_raw,triv2_correct,triv3_raw,triv3_correct,triv4_raw,triv4_correct,triv5_raw,triv5_correct,triv6_raw,triv6_correct,triv7_raw,triv7_correct,triv8_raw,triv8_correct,triv9_raw,triv9_correct,triv10_raw,triv10_correct,triv11_raw,triv11_correct,triv12_raw,triv12_correct,triv13_raw,triv13_correct,triv14_raw,triv14_correct,triv15_raw,triv15_correct,triv16_raw,triv16_correct,triv17_raw,triv17_correct,triv18_raw,triv18_correct,triv19_raw,triv19_correct,triv20_raw,triv20_correct,triv21_raw,triv21_correct,triv22_raw,triv22_correct,triv23_raw,triv23_correct,triv24_raw,triv24_correct,triv25_raw,triv25_correct,triv26_raw,triv26_correct,triv27_raw,triv27_correct,triv28_raw,triv28_correct,triv29_raw,triv29_correct,triv30_raw,triv30_correct,age,major,language,sex_r,year,area_writing,area_trivia,purpose,link_yn,link_text,thinking_yn,thinking_text,comments,prior_hool,soccer hooligan_int_rating,soccer hooligan_acc_rating,professor_int_rating,professor_acc_rating
20161110-120113,303,female,1,professor,"If I were a typical University professor, I would imagine most of my time being dedicated to being connected with students and seeing how I can make their learning experience better/less difficult. Typical activites would probably include going to scheduled class times to teach my students, then spending time outside of the classroom preparing for lecture, breaking down what works with most students and what doesnt. Formulating tests that challenge students and really help them see if they understand the matieral being taught. I would also take time to look back at those test and see how the class did as a whole and if majojrity of the class got something wrong on a certain subject, I would find a way to better teach this material so the students are truly understanding and not just going through the process. Personality is a critical feature as a professor, I would want to be welcoming to my students that way if any problems arise or difficulty in understanding material they feel comfortable addressing me about said issues. I would want to be firm, yet fair; this way my students respect me and dont feel as if they can walk all over me. I would want to be an equal with my students, I give them the ",Botswana,True,Morse Code,False,Muskrat,False,Mars,False,8,False,India,True,Arm,True,Dick Turpin,False,Brass,False,Wave,True,Isobars,True,15,False,Ford,False,180,True,Saturn,False,Nikita Krushchev,False,Radiation,True,Deep Thought,False,Continental Shelf,True,Democracy,False,Penicillin,True,Salvador Dali,False,Rio Lobos,False,In the throat,True,Ukraine,False,Saturn,False,Tchaikovsky,True,Air pressure,True,Keratin,True,Spain,False,20,Exercise Science,English,female,4th year or higher,Psychology,Random ,no idea,no,,no,,"no
",no,59,19,89,28
