datetime,subjID,sex,prime_code,prime_condition,prime_response,triv1_raw,triv1_correct,triv2_raw,triv2_correct,triv3_raw,triv3_correct,triv4_raw,triv4_correct,triv5_raw,triv5_correct,triv6_raw,triv6_correct,triv7_raw,triv7_correct,triv8_raw,triv8_correct,triv9_raw,triv9_correct,triv10_raw,triv10_correct,triv11_raw,triv11_correct,triv12_raw,triv12_correct,triv13_raw,triv13_correct,triv14_raw,triv14_correct,triv15_raw,triv15_correct,triv16_raw,triv16_correct,triv17_raw,triv17_correct,triv18_raw,triv18_correct,triv19_raw,triv19_correct,triv20_raw,triv20_correct,triv21_raw,triv21_correct,triv22_raw,triv22_correct,triv23_raw,triv23_correct,triv24_raw,triv24_correct,triv25_raw,triv25_correct,triv26_raw,triv26_correct,triv27_raw,triv27_correct,triv28_raw,triv28_correct,triv29_raw,triv29_correct,triv30_raw,triv30_correct,age,major,language,sex_r,year,area_writing,area_trivia,purpose,link_yn,link_text,thinking_yn,thinking_text,comments,prior_hool,soccer hooligan_int_rating,soccer hooligan_acc_rating,professor_int_rating,professor_acc_rating
20161110-134858,314,Male,1,professor,"In my daily life as a university professor, I spend most of my time attempting to gather the best possible curriculum for the course I am currently teaching. As a professor, I tend to be strict during the class period. Outside of the classroom I tend to be more relaxed. My passions and hobbies related to the current field I am working on as I have dedicated my life to that field, I truely enjoy working with it and therefore my passions and hobbies corralate with it. Although the field I am in is my passion, I  also enjoy being involved in other activities outside of that field.",Botswana,True,ASCII,True,Capybara,True,Mars,False,12,True,Pakistan,False,Leg,False,Sweeney Todd,False,Brass,False,Wave,True,Isotherms,False,21,True,Chrysler,False,180,True,Mercury,False,Mikhail Gorbachev,True,Radiation,True,Deep Blue,True,Continental Shelf,True,Fascist,True,Stethoscope,False,Salvador Dali,False,Rio Rojo,False,In the throat,True,Siberia,True,Jupiter,True,Mozart,False,Air pressure,True,Collagen,False,France,True,21,Building Sciences: Architecture Technology and Design,Spanish,male,3rd year,not this one,this one,"no idea
",yes,"no idea
",no,,not really,yes,35,8,90,27
