datetime,subjID,sex,prime_code,prime_condition,prime_response,triv1_raw,triv1_correct,triv2_raw,triv2_correct,triv3_raw,triv3_correct,triv4_raw,triv4_correct,triv5_raw,triv5_correct,triv6_raw,triv6_correct,triv7_raw,triv7_correct,triv8_raw,triv8_correct,triv9_raw,triv9_correct,triv10_raw,triv10_correct,triv11_raw,triv11_correct,triv12_raw,triv12_correct,triv13_raw,triv13_correct,triv14_raw,triv14_correct,triv15_raw,triv15_correct,triv16_raw,triv16_correct,triv17_raw,triv17_correct,triv18_raw,triv18_correct,triv19_raw,triv19_correct,triv20_raw,triv20_correct,triv21_raw,triv21_correct,triv22_raw,triv22_correct,triv23_raw,triv23_correct,triv24_raw,triv24_correct,triv25_raw,triv25_correct,triv26_raw,triv26_correct,triv27_raw,triv27_correct,triv28_raw,triv28_correct,triv29_raw,triv29_correct,triv30_raw,triv30_correct,age,major,language,sex_r,year,area_writing,area_trivia,purpose,link_yn,link_text,thinking_yn,thinking_text,comments,prior_hool,soccer hooligan_int_rating,soccer hooligan_acc_rating,professor_int_rating,professor_acc_rating
20161110-161713,337,male,1,professor,As a university professor I would go about my day teching my classes and then after class i would return home and take care of work related chores such as grading papers and then use the resto of my free time for my personal life. As a proffessor i would be understanding and reasonable with my students helping them with difficulties that a student may have.Als o as a professor I would be involved on campus and socal with coleauges,Zimbabwe,False,HTML,False,Capybara,True,Earth,True,8,False,Bangledesh,False,Arm,True,Robin Hood,False,Brass,False,Iceberg,False,Isobars,True,20,False,General Motors,True,180,True,Mercury,False,Nikita Krushchev,False,Radiation,True,Blue Knight,False,Continental Shelf,True,Fascist,True,Penicillin,True,Pablo Picasso,True,Colorado River,False,In the throat,True,Siberia,True,Jupiter,True,Mozart,False,Air pressure,True,Keratin,True,Greece,False,0,sustainable deveopment,English,male,1st year,this task,this task,no idea,yes,"no idea
",no,,nope,no,75,15.0,93,15.0
