datetime,subjID,sex,prime_code,prime_condition,prime_response,triv1_raw,triv1_correct,triv2_raw,triv2_correct,triv3_raw,triv3_correct,triv4_raw,triv4_correct,triv5_raw,triv5_correct,triv6_raw,triv6_correct,triv7_raw,triv7_correct,triv8_raw,triv8_correct,triv9_raw,triv9_correct,triv10_raw,triv10_correct,triv11_raw,triv11_correct,triv12_raw,triv12_correct,triv13_raw,triv13_correct,triv14_raw,triv14_correct,triv15_raw,triv15_correct,triv16_raw,triv16_correct,triv17_raw,triv17_correct,triv18_raw,triv18_correct,triv19_raw,triv19_correct,triv20_raw,triv20_correct,triv21_raw,triv21_correct,triv22_raw,triv22_correct,triv23_raw,triv23_correct,triv24_raw,triv24_correct,triv25_raw,triv25_correct,triv26_raw,triv26_correct,triv27_raw,triv27_correct,triv28_raw,triv28_correct,triv29_raw,triv29_correct,triv30_raw,triv30_correct,age,major,language,sex_r,year,area_writing,area_trivia,purpose,link_yn,link_text,thinking_yn,thinking_text,comments,prior_hool,professor_int_rating,professor_acc_rating,soccer-hooligan_int_rating,soccer-hooligan_acc_rating
20161110-164610,341,Male,0,soccer-hooligan,I start my day early with a good breakfast and a mean cup of joe. I hit go on a long distance run and work on my core for half an hour. I then jopin my mates on the pitch for a warmup before our match. We play the game and smoke the team 3 to 0. We all hit the pub after the match for copious amounts of beer. We keep the pitchers coming as we look down on others who are not apart of the team. We spot a skinny man with an opposing team jersy on and start to harrass him. Before we know it we are out in the ally beating the living shit out of him. It was all in good fun after all we are just a bunch of hooligans. After drinking copious amounts of beer we all decide to take a strole to another pub. We pass a group of attractive women and start cat calling them. One of their boyfirends approchases andwe beat ,Uganda,False,HTML,False,Muskrat,False,Earth,True,12,True,Pakistan,False,Leg,False,Robin Hood,False,Brass,False,Wave,True,Isotherms,False,0,False,Mitsubishi,False,360,False,Mercury,False,Nikita Krushchev,False,Radiation,True,Deep Thought,False,Continental Shelf,True,Democracy,False,X Rays,False,Paul Cezanne,False,Rio Rojo,False,In the throat,True,Ukraine,False,Saturn,False,Mozart,False,Air pressure,True,Elastin,False,France,True,20,psychology,English,male,2nd year,i enjoyed this task,i did not enjoy this task,"to see where a student is at in there educational career 
",yes,a hooligan wouldnt know these things,yes,made me a holligan,no,yes,85,15,40,4
