datetime,subjID,sex,prime_code,prime_condition,prime_response,triv1_raw,triv1_correct,triv2_raw,triv2_correct,triv3_raw,triv3_correct,triv4_raw,triv4_correct,triv5_raw,triv5_correct,triv6_raw,triv6_correct,triv7_raw,triv7_correct,triv8_raw,triv8_correct,triv9_raw,triv9_correct,triv10_raw,triv10_correct,triv11_raw,triv11_correct,triv12_raw,triv12_correct,triv13_raw,triv13_correct,triv14_raw,triv14_correct,triv15_raw,triv15_correct,triv16_raw,triv16_correct,triv17_raw,triv17_correct,triv18_raw,triv18_correct,triv19_raw,triv19_correct,triv20_raw,triv20_correct,triv21_raw,triv21_correct,triv22_raw,triv22_correct,triv23_raw,triv23_correct,triv24_raw,triv24_correct,triv25_raw,triv25_correct,triv26_raw,triv26_correct,triv27_raw,triv27_correct,triv28_raw,triv28_correct,triv29_raw,triv29_correct,triv30_raw,triv30_correct,age,major,language,sex_r,year,area_writing,area_trivia,purpose,link_yn,link_text,thinking_yn,thinking_text,comments,prior_hool,soccer-hooligan_int_rating,soccer-hooligan_acc_rating,professor_int_rating,professor_acc_rating
20161117-155107,401,Female,1,professor,"As a professor my daily life would consist of teaching anyone who is interested about my topics of interest, Anatomy and the Nervous system.The daily life of a professor would be similar to that ofd a student. I would wake up and go about a morning routine. I may add a review of that days lecture to my morning or do so upon arriving to the campus. I would then proceed to teach a lecture or lab on the material I had planned. In between lectures I would spend my  time preparing future classs activities and lectures. I would also be seeing students who seek out my knowledge either for personal reasons or for class help. I would probably discuss information that I am passionate about with anyone who would listen including collueges, general public, and students whether they are my students or not. In general i would describe my characteristics as nerdy and focused sround my profession. in my free time i would probably study, spend time with my family, or read for pleasure. ",Zaire,False,HTML,False,Capybara,True,Pluto,False,12,True,Phillipines,False,Arm,True,Sweeney Todd,False,Pewter,False,Wave,True,Isobars,True,21,True,General Motors,True,360,False,Venus,True,Boris Yeltsin,False,Radiation,True,Deep Blue,True,Continental Shelf,True,Fascist,True,Penicillin,True,Salvador Dali,False,Rio Grande,True,In the throat,True,Siberia,True,Saturn,False,Tchaikovsky,True,Air pressure,True,Keratin,True,France,True,20,"Exercise Science
",English,female,3rd year,Sanford 101  (computer lab),Sanford 101(computer lab),to see how different thinkers (based on major) process thoughts  in order to complete a task,yes,I think that there is a link in regards to the typ of professor an individual might think about and where they excel in general knowledge questions.,no,,no,yes,56,15.0,68,15.0
