datetime,subjID,sex,prime_code,prime_condition,prime_response,triv1_raw,triv1_correct,triv2_raw,triv2_correct,triv3_raw,triv3_correct,triv4_raw,triv4_correct,triv5_raw,triv5_correct,triv6_raw,triv6_correct,triv7_raw,triv7_correct,triv8_raw,triv8_correct,triv9_raw,triv9_correct,triv10_raw,triv10_correct,triv11_raw,triv11_correct,triv12_raw,triv12_correct,triv13_raw,triv13_correct,triv14_raw,triv14_correct,triv15_raw,triv15_correct,triv16_raw,triv16_correct,triv17_raw,triv17_correct,triv18_raw,triv18_correct,triv19_raw,triv19_correct,triv20_raw,triv20_correct,triv21_raw,triv21_correct,triv22_raw,triv22_correct,triv23_raw,triv23_correct,triv24_raw,triv24_correct,triv25_raw,triv25_correct,triv26_raw,triv26_correct,triv27_raw,triv27_correct,triv28_raw,triv28_correct,triv29_raw,triv29_correct,triv30_raw,triv30_correct,age,major,language,sex_r,year,area_writing,area_trivia,purpose,link_yn,link_text,thinking_yn,thinking_text,comments,prior_hool,professor_int_rating,professor_acc_rating,soccer hooligan_int_rating,soccer hooligan_acc_rating
20170201-162329,449,Male,0,soccer hooligan,"I love soccer. My day consists of going to school, working and watching soccer either in person or on television while I drink with friends. Life is good because I eat, breathe and sleep soccer. As a soccer hooligan I enjoy getting drunk with friends and harassing anyone who doesn't root for my favorite team. If I am not busy, I am doing something that immerses me in the soccer culture because I am a fanatic. I have no problem telling people how I feel about them or their team because I know my soccer hooligan buddies have my back and will support my opinion just like it is their own. I am rough and tough and love being an instigator. I am loud, crude and tend to go above and beyond. Nothing anybody can ever say to me will make me change my ways as a soccer hooligan.",Botswana,True,ASCII,True,Capybara,True,Pluto,False,12,True,Pakistan,False,12,True,Guy Fawkes,True,Bronze,True,Iceberg,False,Fronts,False,21,True,Chrysler,False,180,True,Venus,True,Mikhail Gorbachev,True,In trees,True,Blue Knight,False,Continental Shelf,True,Fascist,True,Penicillin,True,Iron,True,Colorado River,False,In the throat,True,Siberia,True,Saturn,False,Tchaikovsky,True,Air pressure,True,Keratin,True,France,True,20,"Psychology
",English,male,3rd year,Social Psychology,Cognitive Psychology,To analyze our cognitive functioning when presented with different tasks that ask us to assume different roles.,no,,no,,I found this experiment interesting and found myself attempting to take on the role of a soccer hooligan when asked to answer the questions like I was one.,yes,75,20,35,12
