datetime,subjID,sex,prime_code,prime_condition,prime_response,triv1_raw,triv1_correct,triv2_raw,triv2_correct,triv3_raw,triv3_correct,triv4_raw,triv4_correct,triv5_raw,triv5_correct,triv6_raw,triv6_correct,triv7_raw,triv7_correct,triv8_raw,triv8_correct,triv9_raw,triv9_correct,triv10_raw,triv10_correct,triv11_raw,triv11_correct,triv12_raw,triv12_correct,triv13_raw,triv13_correct,triv14_raw,triv14_correct,triv15_raw,triv15_correct,triv16_raw,triv16_correct,triv17_raw,triv17_correct,triv18_raw,triv18_correct,triv19_raw,triv19_correct,triv20_raw,triv20_correct,triv21_raw,triv21_correct,triv22_raw,triv22_correct,triv23_raw,triv23_correct,triv24_raw,triv24_correct,triv25_raw,triv25_correct,triv26_raw,triv26_correct,triv27_raw,triv27_correct,triv28_raw,triv28_correct,triv29_raw,triv29_correct,triv30_raw,triv30_correct,age,major,language,sex_r,year,area_writing,area_trivia,purpose,link_yn,link_text,thinking_yn,thinking_text,comments,prior_hool,soccer hooligan_int_rating,soccer hooligan_acc_rating,professor_int_rating,professor_acc_rating
20170206-152045,483,male,1,professor,"In my daily life as a professor I teach classes about a certain study that i am an expert in. Activities I am involved in range from teaching classes, grading exams, having office hours, and attending university faculty wide meetings. I am intelligent, respectable, and a professional at my job as a university professor. My hobbies include activities within my specialty subject that I might participate on my off days, as well as also spending time with my friends and families when I am not teaching. ",Zimbabwe,False,HTML,False,Beaver,False,Mars,False,12,True,India,True,9,False,Dick Turpin,False,Brass,False,Wave,True,Isotherms,False,21,True,General Motors,True,180,True,Saturn,False,Mikhail Gorbachev,True,Underground,False,Blue Knight,False,0,False,Communist,False,Penicillin,True,Bronze,True,Rio Grande,True,In the throat,True,Siberia,True,Saturn,False,Tchaikovsky,True,Air pressure,True,Collagen,False,France,True,0,criminal justice,English,male,3rd year,professor,student,no idea,yes,"no idea
",no,,no,no,48,13,65,20
