datetime,subjID,sex,prime_code,prime_condition,prime_response,triv1_raw,triv1_correct,triv2_raw,triv2_correct,triv3_raw,triv3_correct,triv4_raw,triv4_correct,triv5_raw,triv5_correct,triv6_raw,triv6_correct,triv7_raw,triv7_correct,triv8_raw,triv8_correct,triv9_raw,triv9_correct,triv10_raw,triv10_correct,triv11_raw,triv11_correct,triv12_raw,triv12_correct,triv13_raw,triv13_correct,triv14_raw,triv14_correct,triv15_raw,triv15_correct,triv16_raw,triv16_correct,triv17_raw,triv17_correct,triv18_raw,triv18_correct,triv19_raw,triv19_correct,triv20_raw,triv20_correct,triv21_raw,triv21_correct,triv22_raw,triv22_correct,triv23_raw,triv23_correct,triv24_raw,triv24_correct,triv25_raw,triv25_correct,triv26_raw,triv26_correct,triv27_raw,triv27_correct,triv28_raw,triv28_correct,triv29_raw,triv29_correct,triv30_raw,triv30_correct,age,major,language,sex_r,year,area_writing,area_trivia,purpose,link_yn,link_text,thinking_yn,thinking_text,comments,prior_hool,soccer hooligan_int_rating,soccer hooligan_acc_rating,professor_int_rating,professor_acc_rating
20170206-154514,487,Male,1,professor,"The daily life as a professor is fairly similar to the life's of everyday individuals.I would imagine that professors do stray from the norm that everyone else does. Some typical activities that a professor might do is hiking, hunting, fishing, anything outdoors-y. Some personally chacteristics that one would imainge for a university professor would be to have quarkiness as well as humility. Having both of these characteristics enables for the professor to seem approachable as well as human yet still have the ability to lead a classroom with authority that many students need. Some typical hobbies that a university professor might do was previously stated when I discussed typical activities. I would actually like to talk about the activities that the professors do right now. The activities that the professor does on a daily basis include sleeping, eating, and teaching. In my personal experience as a teacher then I would think that the ability to also communicate via tex-messages and emails are something that the professor would do on a daily baisis. The.",Zimbabwe,False,ASCII,True,Capybara,True,Mars,False,12,True,Pakistan,False,9,False,Sweeney Todd,False,Brass,False,Wave,True,Isobars,True,21,True,General Motors,True,180,True,Venus,True,Alexander Popov,False,Underground,False,Deep Blue,True,Continental Shelf,True,Communist,False,Penicillin,True,Iron,True,Rio Grande,True,In the throat,True,Siberia,True,Jupiter,True,Tchaikovsky,True,Air pressure,True,Keratin,True,France,True,21,"Chemistry
",English,male,4th year or higher,Psychology,psychology,To watch facial mannerisms,no,,no,,Am I suppose to sign in somewhere?,no,,10,75,20
