datetime,subjID,sex,prime_code,prime_condition,prime_response,triv1_raw,triv1_correct,triv2_raw,triv2_correct,triv3_raw,triv3_correct,triv4_raw,triv4_correct,triv5_raw,triv5_correct,triv6_raw,triv6_correct,triv7_raw,triv7_correct,triv8_raw,triv8_correct,triv9_raw,triv9_correct,triv10_raw,triv10_correct,triv11_raw,triv11_correct,triv12_raw,triv12_correct,triv13_raw,triv13_correct,triv14_raw,triv14_correct,triv15_raw,triv15_correct,triv16_raw,triv16_correct,triv17_raw,triv17_correct,triv18_raw,triv18_correct,triv19_raw,triv19_correct,triv20_raw,triv20_correct,triv21_raw,triv21_correct,triv22_raw,triv22_correct,triv23_raw,triv23_correct,triv24_raw,triv24_correct,triv25_raw,triv25_correct,triv26_raw,triv26_correct,triv27_raw,triv27_correct,triv28_raw,triv28_correct,triv29_raw,triv29_correct,triv30_raw,triv30_correct,age,major,language,sex_r,year,area_writing,area_trivia,purpose,link_yn,link_text,thinking_yn,thinking_text,comments,prior_hool,soccer hooligan_int_rating,soccer hooligan_acc_rating,professor_int_rating,professor_acc_rating
20170208-155136,509,Female ,1,professor,"As a professor, I wake up in the mornings and arrive at the university  around 8am to teach my first class. I teach two classes that range in course topic each semester. I often try to engage my class in my lectures with discussions of questions that they have and also videos that enforce the ideas I am trying to convey. After my morning class, I hold office hours from 10 to 12. I then take a lunch break and start teaching my afternoon class at 2:00. My schedule varies from day to day. Some days I teach and some days I hold meetings with my research team for an upcoming project. As a professor, I am very friendly to my peers and the students I teach. I care about my students and want them to learn and perform well in my classroom. My hobbies include reading, running, and being outdoors. I truly care about my students and that is my ",Zimbabwe,False,HTML,False,Muskrat,False,Uranus,False,6,False,Bangledesh,False,11,False,Robin Hood,False,Pewter,False,Wave,True,Fronts,False,21,True,Chrysler,False,180,True,Mars,False,Mikhail Gorbachev,True,In deserts,False,King Blue,False,Continental Slope,False,Fascist,True,Penicillin,True,Iron,True,Colorado River,False,In the nose,False,Siberia,True,Jupiter,True,Tchaikovsky,True,Air pressure,True,Keratin,True,France,True,21,"PSY
",English,female,3rd year,research ,research ,no idea ,yes,professors tend to have more general knowledge ,no,,no,no,23,10,75,22
