datetime,subjID,sex,prime_code,prime_condition,prime_response,triv1_raw,triv1_correct,triv2_raw,triv2_correct,triv3_raw,triv3_correct,triv4_raw,triv4_correct,triv5_raw,triv5_correct,triv6_raw,triv6_correct,triv7_raw,triv7_correct,triv8_raw,triv8_correct,triv9_raw,triv9_correct,triv10_raw,triv10_correct,triv11_raw,triv11_correct,triv12_raw,triv12_correct,triv13_raw,triv13_correct,triv14_raw,triv14_correct,triv15_raw,triv15_correct,triv16_raw,triv16_correct,triv17_raw,triv17_correct,triv18_raw,triv18_correct,triv19_raw,triv19_correct,triv20_raw,triv20_correct,triv21_raw,triv21_correct,triv22_raw,triv22_correct,triv23_raw,triv23_correct,triv24_raw,triv24_correct,triv25_raw,triv25_correct,triv26_raw,triv26_correct,triv27_raw,triv27_correct,triv28_raw,triv28_correct,triv29_raw,triv29_correct,triv30_raw,triv30_correct,age,major,language,sex_r,year,area_writing,area_trivia,purpose,link_yn,link_text,thinking_yn,thinking_text,comments,prior_hool,soccer hooligan_int_rating,soccer hooligan_acc_rating,professor_int_rating,professor_acc_rating
20170209-152118,526,Female,1,professor,"As a university professor, I spend a lot of my time either in class or in office hours during the day. I also spend a lot of time doing independent research as well as with students. I have a lot of work and planning to do, including grading assignments and getting ready for upcoming classes. I teach 5 or 6 classes usually. I am a very smart and wise person. I have been in school for a very long time and I have gained a lot of knowledge in a lot of subjects. I know a great deal specifically about the subject I teach but I also am passionate in other subjects as well. I am probably a science or math professor of some kind and I enjoy learning and teaching these subjects. I spend my free time doing research and delving deeper in to those subjects. I also spend a lot of my time helping students in and out of the classroom and I am a big ",Zimbabwe,False,HTML,False,Muskrat,False,Mars,False,12,True,India,True,12,True,Sweeney Todd,False,Pewter,False,Wave,True,Isobars,True,21,True,Ford,False,180,True,Mars,False,Mikhail Gorbachev,True,Underground,False,Deep Blue,True,Continental Shelf,True,Republic,False,Penicillin,True,Iron,True,Rio Grande,True,In the throat,True,Siberia,True,Jupiter,True,Beethoven,False,Air pressure,True,Collagen,False,Germany,False,19,Biology,English,female,1st year,Behavioral,Cognitive,"No idea
",yes,"If we were asked to think as a professor would think, we may perform better on the general knowledge.",no,,No.,yes,40,20,85,25
