datetime,subjID,sex,prime_code,prime_condition,prime_response,triv1_raw,triv1_correct,triv2_raw,triv2_correct,triv3_raw,triv3_correct,triv4_raw,triv4_correct,triv5_raw,triv5_correct,triv6_raw,triv6_correct,triv7_raw,triv7_correct,triv8_raw,triv8_correct,triv9_raw,triv9_correct,triv10_raw,triv10_correct,triv11_raw,triv11_correct,triv12_raw,triv12_correct,triv13_raw,triv13_correct,triv14_raw,triv14_correct,triv15_raw,triv15_correct,triv16_raw,triv16_correct,triv17_raw,triv17_correct,triv18_raw,triv18_correct,triv19_raw,triv19_correct,triv20_raw,triv20_correct,triv21_raw,triv21_correct,triv22_raw,triv22_correct,triv23_raw,triv23_correct,triv24_raw,triv24_correct,triv25_raw,triv25_correct,triv26_raw,triv26_correct,triv27_raw,triv27_correct,triv28_raw,triv28_correct,triv29_raw,triv29_correct,triv30_raw,triv30_correct,age,major,language,sex_r,year,area_writing,area_trivia,purpose,link_yn,link_text,thinking_yn,thinking_text,comments,prior_hool,soccer hooligan_int_rating,soccer hooligan_acc_rating,professor_int_rating,professor_acc_rating
20170210-094558,548,Female ,1,professor,"As a professor, most of my time is spend planning and gradeing material for my courses. A small part of my time is also spent teachig in classes, generally professors get to campus early and stay until the afternoon or later. I would also be engaged in research, which would invovle working with a group of students more closely. I like to get to know my student and am glad to work with them on an individual basis. Creating tests and grading work is the most tedious aspect of the job, and it is nice to have student assistance as well who can help. Getiing a dorcotate degree would take time and I hope my students respect me for my knowledge that I have worked hard to acheiev",Botswana,True,HTML,False,Capybara,True,Uranus,False,12,True,Pakistan,False,12,True,Dick Turpin,False,Bronze,True,Wave,True,Isotherms,False,20,False,Ford,False,180,True,Venus,True,Nikita Krushchev,False,Underground,False,Deep Blue,True,Continental Slope,False,Fascist,True,X Rays,False,Brass,False,Rio Grande,True,In the throat,True,Siberia,True,Jupiter,True,Tchaikovsky,True,Air pressure,True,Keratin,True,France,True,20,Communication sciences and disorders ,English,female,2nd year,Creativity and imagination ,General memory and guessing abilities based on question context.,"To test the creativity and memory of participants 
",yes,Not sure,no,,"I wasn't good at the writing task, probably because I was prompted to imagine a specific senerio ",yes,50.0,14,64,18
