datetime,subjID,sex,prime_code,prime_condition,prime_response,triv1_raw,triv1_correct,triv2_raw,triv2_correct,triv3_raw,triv3_correct,triv4_raw,triv4_correct,triv5_raw,triv5_correct,triv6_raw,triv6_correct,triv7_raw,triv7_correct,triv8_raw,triv8_correct,triv9_raw,triv9_correct,triv10_raw,triv10_correct,triv11_raw,triv11_correct,triv12_raw,triv12_correct,triv13_raw,triv13_correct,triv14_raw,triv14_correct,triv15_raw,triv15_correct,triv16_raw,triv16_correct,triv17_raw,triv17_correct,triv18_raw,triv18_correct,triv19_raw,triv19_correct,triv20_raw,triv20_correct,triv21_raw,triv21_correct,triv22_raw,triv22_correct,triv23_raw,triv23_correct,triv24_raw,triv24_correct,triv25_raw,triv25_correct,triv26_raw,triv26_correct,triv27_raw,triv27_correct,triv28_raw,triv28_correct,triv29_raw,triv29_correct,triv30_raw,triv30_correct,age,major,language,sex_r,year,area_writing,area_trivia,purpose,link_yn,link_text,thinking_yn,thinking_text,comments,prior_hool,soccer hooligan_int_rating,soccer hooligan_acc_rating,professor_int_rating,professor_acc_rating
20170213-164716,575,Female,1,professor,As a university professor I would spend my life preparing things for my class and students as well as thinking about my family ( assuming I am married and or have children). I feel my typical activites would consist of lecturing most of my day with some grading of work sprinkled in there as well as making tests. I would being overly tired all the time from having to write and grade so many things all the time and also trying to squeeze family time into my day also. My typical hobbies would probabaly include doing my own kind of research in my field of intrest because I did go to college for that so I enjoy it and it would be a fun sort of de-stresser.  ,Botswana,True,HTML,False,Muskrat,False,Uranus,False,12,True,Phillipines,False,9,False,Guy Fawkes,True,Brass,False,Wave,True,Isobars,True,21,True,Chrysler,False,180,True,Mercury,False,Mikhail Gorbachev,True,In rivers,False,Blue Knight,False,Continental Abyss,False,Fascist,True,X Rays,False,Bronze,True,Rio Grande,True,In the throat,True,Siberia,True,Jupiter,True,Tchaikovsky,True,Air pressure,True,Keratin,True,France,True,18,music therapy,English,female,1st year,psychology,cognative psychology,basic understanding of things but also maybe a thing about people and their comprehntion of things.,yes,"no idea
",no,,no,yes,46,13,61,19
