datetime,subjID,sex,prime_code,prime_condition,prime_response,triv1_raw,triv1_correct,triv2_raw,triv2_correct,triv3_raw,triv3_correct,triv4_raw,triv4_correct,triv5_raw,triv5_correct,triv6_raw,triv6_correct,triv7_raw,triv7_correct,triv8_raw,triv8_correct,triv9_raw,triv9_correct,triv10_raw,triv10_correct,triv11_raw,triv11_correct,triv12_raw,triv12_correct,triv13_raw,triv13_correct,triv14_raw,triv14_correct,triv15_raw,triv15_correct,triv16_raw,triv16_correct,triv17_raw,triv17_correct,triv18_raw,triv18_correct,triv19_raw,triv19_correct,triv20_raw,triv20_correct,triv21_raw,triv21_correct,triv22_raw,triv22_correct,triv23_raw,triv23_correct,triv24_raw,triv24_correct,triv25_raw,triv25_correct,triv26_raw,triv26_correct,triv27_raw,triv27_correct,triv28_raw,triv28_correct,triv29_raw,triv29_correct,triv30_raw,triv30_correct,age,major,language,sex_r,year,area_writing,area_trivia,purpose,link_yn,link_text,thinking_yn,thinking_text,comments,prior_hool,professor_int_rating,professor_acc_rating,soccer-hooligan_int_rating,soccer-hooligan_acc_rating
20161020-100159,74,Female,0,soccer-hooligan,"As a soccer hooligan, I live an average daily life. I go to work, and am constantly checking the scores of the different soccer games going on to make sure that the teams I am rooting for are winning. After work, I'll head to a bar to meet up with friends to watch the games that are on. We will drink a couple beers and maybe get a little too drunk and then go our separate ways. I will go home and have dinner and watch more soccer and then go to bed and do it all over again the next day. Some typical activities I do are going down to a local park on weekends and playing soccer myself. I also really enjoy working out on a regular",Zimbabwe,False,ASCII,True,Beaver,False,Earth,True,8,False,Bangladesh,False,Leg,False,Sweeney Todd,False,Bronze,True,Wave,True,Isotherms,False,21,True,Ford,False,180,True,Mars,False,Alexander Popov,False,Radiation,True,Blue Knight,False,Continental Slope,False,Communist,False,Stethoscope,False,Pablo Picasso,True,Rio Grande,True,In the throat,True,Ukraine,False,Jupiter,True,Mozart,False,Wind speed,False,Keratin,True,Greece,False,21,"Communication Sciences and Disorders
",English,female,4th year or higher,Gender/Sports Stereotypes,Basic Knowledge in college students,To see how college students would react to these tasks,no,,no,,No.,yes,70,20,35,10
