"means","se","ci_l","ci_u","authors","class","class_n","n1","n2","mean1","mean2","group_priority","shape"
-0.348809523809524,0.467391982863459,-1.26488097688466,0.567261929265617,"Original result","commandments condition",1,56,60,2.76785714285714,3.11666666666667,1.5,17
1.51183533447684,0.451240792868573,0.627419632099139,2.39625103685454,"Evans","commandments condition",1,53,55,3.07547169811321,1.56363636363636,2,15
0.266666666666667,0.462688122590348,-0.640185389684868,1.1735187230182,"Ferreira-Santos","commandments condition",1,51,50,2.66666666666667,2.4,2,15
1.09040511727079,0.365586558382016,0.373868629610089,1.80694160493149,"klein Selle & Rozmann","commandments condition",1,70,67,3.31428571428571,2.22388059701493,2,15
2.07741935483871,0.601262943430094,0.898965640477182,3.25587306920024,"McCarthy","commandments condition",1,50,31,3.4,1.32258064516129,2,15
-0.054112554112554,0.290734428593218,-0.623941563221093,0.515716454995985,"Meijer","commandments condition",1,84,77,3.02380952380952,3.07792207792208,2,15
1.19193450576107,0.402276298807422,0.40348744826445,1.98038156325769,"Sutan","commandments condition",1,34,97,4.67647058823529,3.48453608247423,2,15
0.569407008086253,0.369152559710714,-0.154118713747518,1.29293272992002,"Vanpaemel","commandments condition",1,56,53,3.60714285714286,3.0377358490566,2,15
0.234375,0.377780111686907,-0.506060412981857,0.974810412981857,"Verschuere","commandments condition",1,64,66,3.734375,3.5,2,15
0.81169120928157,0.349385382363386,0.126908443124578,1.49647397543856,"Wick","commandments condition",1,81,83,3.18518518518519,2.37349397590361,2,15
0.786985539488321,0.343241376767157,0.11424480302075,1.45972627595589,"Wiggins","commandments condition",1,62,58,2.33870967741935,1.55172413793103,2,15
0.77364258649467,0.182946837098296,0.415073374696494,1.13221179829285,"Meta-analytic average for 
commandments condition","summary",0,605,637,3.30221169108578,2.45355097291001,3,18
