datetime,subjID,sex,prime_code,prime_condition,prime_response,triv1_raw,triv1_correct,triv2_raw,triv2_correct,triv3_raw,triv3_correct,triv4_raw,triv4_correct,triv5_raw,triv5_correct,triv6_raw,triv6_correct,triv7_raw,triv7_correct,triv8_raw,triv8_correct,triv9_raw,triv9_correct,triv10_raw,triv10_correct,triv11_raw,triv11_correct,triv12_raw,triv12_correct,triv13_raw,triv13_correct,triv14_raw,triv14_correct,triv15_raw,triv15_correct,triv16_raw,triv16_correct,triv17_raw,triv17_correct,triv18_raw,triv18_correct,triv19_raw,triv19_correct,triv20_raw,triv20_correct,triv21_raw,triv21_correct,triv22_raw,triv22_correct,triv23_raw,triv23_correct,triv24_raw,triv24_correct,triv25_raw,triv25_correct,triv26_raw,triv26_correct,triv27_raw,triv27_correct,triv28_raw,triv28_correct,triv29_raw,triv29_correct,triv30_raw,triv30_correct,age,major,language,sex_r,year,area_writing,area_trivia,purpose,link_yn,link_text,thinking_yn,thinking_text,comments,prior_hool,soccer-hooligan_int_rating,soccer-hooligan_acc_rating,professor_int_rating,professor_acc_rating
20161027-144427,027,female,1,professor,"If I was a professor, i will research many academic note every day to improve my knowleged. after work i would like to gym to keep fit.   ",Zimbabwe,False,Wordpad,False,Capybara,True,Mars,False,12,True,India,True,Leg,False,Robin Hood,False,Brass,False,Mountain,False,Cyclones,False,15,False,Ford,False,90,False,Mars,False,Alexander Popov,False,Temperature,False,King Blue,False,Continental Abyss,False,Democracy,False,X Rays,False,Paul Cezanne,False,Rio Lobos,False,In the throat,True,Kazakhstan,False,Saturn,False,Handel,False,Relative humidity,False,Collagen,False,Spain,False,20,translator,chinese,female,1st year,interesting,i have no idea about those questions...,"no idea
",no,,no,,no,no,70,10,80,25
