datetime,subjID,sex,prime_code,prime_condition,prime_response,triv1_raw,triv1_correct,triv2_raw,triv2_correct,triv3_raw,triv3_correct,triv4_raw,triv4_correct,triv5_raw,triv5_correct,triv6_raw,triv6_correct,triv7_raw,triv7_correct,triv8_raw,triv8_correct,triv9_raw,triv9_correct,triv10_raw,triv10_correct,triv11_raw,triv11_correct,triv12_raw,triv12_correct,triv13_raw,triv13_correct,triv14_raw,triv14_correct,triv15_raw,triv15_correct,triv16_raw,triv16_correct,triv17_raw,triv17_correct,triv18_raw,triv18_correct,triv19_raw,triv19_correct,triv20_raw,triv20_correct,triv21_raw,triv21_correct,triv22_raw,triv22_correct,triv23_raw,triv23_correct,triv24_raw,triv24_correct,triv25_raw,triv25_correct,triv26_raw,triv26_correct,triv27_raw,triv27_correct,triv28_raw,triv28_correct,triv29_raw,triv29_correct,triv30_raw,triv30_correct,age,major,language,sex_r,year,area_writing,area_trivia,purpose,link_yn,link_text,thinking_yn,thinking_text,comments,prior_hool,professor_int_rating,professor_acc_rating,soccer-hooligan_int_rating,soccer-hooligan_acc_rating
20161103-165125,116,F,0,soccer-hooligan,"I am a high schooler from an urban city. I go to school although I go there just because my parents ask me to do so. I usually sleep in class or annoy my benchmate. If I can't annoy my benchmate and I am too awake to sleep in class, then I would doodle or carve on my desk. I don't usually study and I use my free time playing FIFA on my playstation or play counterstrike on my computer. I have a facebook group chat with my bros and I usually play soccer in the afternoon for like 3-4 hours a day. I am in school soccer team so I usually have to control myself durings school practice but other than that, I would cat-call girls. I usually party in the weekends with my friends and my hobby includes playing FIFA, soccer and I like to play guitar. ",Zaire,False,HTML,False,Capybara,True,Uranus,False,15,False,India,True,Leg,False,Guy Fawkes,True,Bronze,True,Iceberg,False,Isotherms,False,25,False,Ford,False,180,True,Venus,True,Mikhail Gorbachev,True,Temperature,False,Deep Thought,False,Continental Abyss,False,Fascist,True,Penicillin,True,Salvador Dali,False,Colorado River,False,In the spine,False,Siberia,True,Jupiter,True,Tchaikovsky,True,Air pressure,True,Keratin,True,France,True,19,business administration,English,female,3rd year,"psychology
",psychology,no idea,yes,you can know the way people judge and think based on their general knowledge and basically the environment they grew up in.,no,,"another question you might want to ask is ""country of origin"", different student goes through different curriculums as they grow up in different countries and therefore have different knowledge on different fields. Knowing what curriculums they were exposed to might help to understand their answers better.",yes,79,19,80,9
