datetime,subjID,sex,prime_code,prime_condition,prime_response,triv1_raw,triv1_correct,triv2_raw,triv2_correct,triv3_raw,triv3_correct,triv4_raw,triv4_correct,triv5_raw,triv5_correct,triv6_raw,triv6_correct,triv7_raw,triv7_correct,triv8_raw,triv8_correct,triv9_raw,triv9_correct,triv10_raw,triv10_correct,triv11_raw,triv11_correct,triv12_raw,triv12_correct,triv13_raw,triv13_correct,triv14_raw,triv14_correct,triv15_raw,triv15_correct,triv16_raw,triv16_correct,triv17_raw,triv17_correct,triv18_raw,triv18_correct,triv19_raw,triv19_correct,triv20_raw,triv20_correct,triv21_raw,triv21_correct,triv22_raw,triv22_correct,triv23_raw,triv23_correct,triv24_raw,triv24_correct,triv25_raw,triv25_correct,triv26_raw,triv26_correct,triv27_raw,triv27_correct,triv28_raw,triv28_correct,triv29_raw,triv29_correct,triv30_raw,triv30_correct,age,major,language,sex_r,year,area_writing,area_trivia,purpose,link_yn,link_text,thinking_yn,thinking_text,comments,prior_hool,soccer-hooligan_int_rating,soccer-hooligan_acc_rating,professor_int_rating,professor_acc_rating
20161014-113648,11,F,1,professor,"As a university professor, basically I'm teaching students and doing researches during daily work. My typical activities involve preparing lectures, holding lectures, holding office hours to answer students' questions, grading the assignments, preparing and grading exams, etc., and another aspect is doing researches in my field, possibly together with some student research assistants.
The typical personality characteristics would be responsible, patient, willing to help, attention to details, enthusiastic about teaching and a",Botswana,True,Wordpad,False,Coypu,False,Uranus,False,8,False,Bangladesh,False,Leg,False,Sweeney Todd,False,Brass,False,Wave,True,Isobars,True,21,True,Ford,False,180,True,Venus,True,Mikhail Gorbachev,True,Pressure,False,Deep Blue,True,Continental Shelf,True,Fascist,True,Penicillin,True,Pablo Picasso,True,Colorado River,False,In the spine,False,Siberia,True,Saturn,False,Tchaikovsky,True,Air pressure,True,Elastin,False,France,True,20,business,Chinese,female,3rd year,self perception,information processing,no idea,no,,no,,No,no,20,7,71,15.0
