datetime,subjID,sex,prime_code,prime_condition,prime_response,triv1_raw,triv1_correct,triv2_raw,triv2_correct,triv3_raw,triv3_correct,triv4_raw,triv4_correct,triv5_raw,triv5_correct,triv6_raw,triv6_correct,triv7_raw,triv7_correct,triv8_raw,triv8_correct,triv9_raw,triv9_correct,triv10_raw,triv10_correct,triv11_raw,triv11_correct,triv12_raw,triv12_correct,triv13_raw,triv13_correct,triv14_raw,triv14_correct,triv15_raw,triv15_correct,triv16_raw,triv16_correct,triv17_raw,triv17_correct,triv18_raw,triv18_correct,triv19_raw,triv19_correct,triv20_raw,triv20_correct,triv21_raw,triv21_correct,triv22_raw,triv22_correct,triv23_raw,triv23_correct,triv24_raw,triv24_correct,triv25_raw,triv25_correct,triv26_raw,triv26_correct,triv27_raw,triv27_correct,triv28_raw,triv28_correct,triv29_raw,triv29_correct,triv30_raw,triv30_correct,age,major,language,sex_r,year,area_writing,area_trivia,purpose,link_yn,link_text,thinking_yn,thinking_text,comments,prior_hool,soccer-hooligan_int_rating,soccer-hooligan_acc_rating,professor_int_rating,professor_acc_rating
20170317-152603,224,M,1,professor,"AS A UNIVERSITY PROFESSOR I AM GENERALLY KEPT BUSY PREPARING FOR UPCOMING LECTURES AND ANSWERING MY STUDENTS QUESTIONS BOTH THROUGH EMAIL AND IN PERSON DURING OFFICE HOURS. MY TYPICAL ACTIVITIES INCLUDE LECTURES AND IN MY FREE TIME TRYING TO DO RESEARCH. I ALSO ENJOY WALKS AND CONNECTING WITH FAMILY. I HAVE TO BE VERY PATIENT AS A PROESSOR BECUASE I UNDERSTAND THAT NOT EVERY STUDENT LEARNS AT THE SAME RATE. I ALSO HAVE TO BE FAIR WITH MY GRADING AND REALIZE THAT STUDENTS ENROLLED IN MY CLASS ALL COME IN WITH DIFFERENT LEVELS OF EXPERTISE IN THE MATERIAL. I ENJOY HIKING AND EXPLORING WHENEVER I AM NOT TEACHING A CLASS. AN OCCASSIONAL OUTING WITH THE GUYS IS USUALLY ALSO A FUN TIME. 

THROUGH MY TIME WORKING WITH STUDENTS I LEARNED IT IS VERY IMPORTANT TO BE COMPASSIONATE TO OTHERS BEACAUSE I LOOK AT THEM AND REMEMBER MY FIRST TIME LEARNING THE MATERIAL AND HOW HARD IT WAS ON ME. I ENJOY WATCHING THEIR FACES LIGHT UP WHEN THEY FINALLY ",Zimbabwe,False,HTML,False,Muskrat,False,Uranus,False,6,False,Bangladesh,False,Arm,True,Sweeney Todd,False,Brass,False,Wave,True,Isotherms,False,21,True,Mitsubishi,False,360,False,Mercury,False,Nikita Krushchev,False,Pressure,False,Blue Knight,False,Continental Shelf,True,Communist,False,X Rays,False,Salvador Dali,False,Rio Lobos,False,In the throat,True,Siberia,True,Saturn,False,Beethoven,False,Air temperature,False,Lecithin,False,Greece,False,21,BUSINESS,English,male,3rd year, ,history,no idea,yes,no idea,no,,no,no,40,5,90,25
