datetime,subjID,sex,prime_code,prime_condition,prime_response,triv1_raw,triv1_correct,triv2_raw,triv2_correct,triv3_raw,triv3_correct,triv4_raw,triv4_correct,triv5_raw,triv5_correct,triv6_raw,triv6_correct,triv7_raw,triv7_correct,triv8_raw,triv8_correct,triv9_raw,triv9_correct,triv10_raw,triv10_correct,triv11_raw,triv11_correct,triv12_raw,triv12_correct,triv13_raw,triv13_correct,triv14_raw,triv14_correct,triv15_raw,triv15_correct,triv16_raw,triv16_correct,triv17_raw,triv17_correct,triv18_raw,triv18_correct,triv19_raw,triv19_correct,triv20_raw,triv20_correct,triv21_raw,triv21_correct,triv22_raw,triv22_correct,triv23_raw,triv23_correct,triv24_raw,triv24_correct,triv25_raw,triv25_correct,triv26_raw,triv26_correct,triv27_raw,triv27_correct,triv28_raw,triv28_correct,triv29_raw,triv29_correct,triv30_raw,triv30_correct,age,major,language,sex_r,year,area_writing,area_trivia,purpose,link_yn,link_text,thinking_yn,thinking_text,comments,prior_hool,soccer-hooligan_int_rating,soccer-hooligan_acc_rating,professor_int_rating,professor_acc_rating
20170321-123336,231,F,1,professor,"IN MY DAILY LIFE AS A UNIVERSITY PROFESSOR, I TEACH CLASSES AND UNDERTAKE RESEARCH. I LIVE NEAR THE UNIVERSITY, AND MAKE GOOD USE OF LOCAL CAFES AND THE UNIVERSITY LIBRARIES. ON A TYPICAL DAY, I TEACH A FEW HOURS OF CLASS AND WORK IN OFFICE HOURS WITH STUDENTS. IN BETWEEN, I USUALLY WORK ON MY OWN PERSONAL RESEARCH. OCCASIONALLY, AFTER PUBLISHING work I may be invited to a conference to speak. I usually spend time managing my research projects (including writing grants, talking with collegues, and doing extensive reading and writing). My typical personality characteristics are erudition, openmindedness, and passion. My hobbies include networking with other collegues in my field, reading, and working with undergraduates. Outside of academia, I am a fan of cafes, outdoor exercise, and art. It's also important to me to keep up with what is going on in the world, so I subscribe to several newspapers that i rea",Botswana,True,ASCII,True,Capybara,True,Uranus,False,8,False,Pakistan,False,Arm,True,Guy Fawkes,True,Brass,False,Wave,True,Isotherms,False,21,True,Mitsubishi,False,180,True,Venus,True,Mikhail Gorbachev,True,Pressure,False,Blue Knight,False,Continental Shelf,True,Fascist,True,Penicillin,True,Pablo Picasso,True,Rio Grande,True,In the nose,False,Siberia,True,Jupiter,True,Tchaikovsky,True,Air pressure,True,Keratin,True,France,True,20,"History
",English,female,3rd year,Understanding how people conceptualize particular professions,Understanding general knowledge,No idea,yes,"Syntax, length, or sophistication may have been predicted what sorts of questions were asked in the 2nd tax",no,,No,no,50.0,15.0,90,28
