datetime,subjID,sex,prime_code,prime_condition,prime_response,triv1_raw,triv1_correct,triv2_raw,triv2_correct,triv3_raw,triv3_correct,triv4_raw,triv4_correct,triv5_raw,triv5_correct,triv6_raw,triv6_correct,triv7_raw,triv7_correct,triv8_raw,triv8_correct,triv9_raw,triv9_correct,triv10_raw,triv10_correct,triv11_raw,triv11_correct,triv12_raw,triv12_correct,triv13_raw,triv13_correct,triv14_raw,triv14_correct,triv15_raw,triv15_correct,triv16_raw,triv16_correct,triv17_raw,triv17_correct,triv18_raw,triv18_correct,triv19_raw,triv19_correct,triv20_raw,triv20_correct,triv21_raw,triv21_correct,triv22_raw,triv22_correct,triv23_raw,triv23_correct,triv24_raw,triv24_correct,triv25_raw,triv25_correct,triv26_raw,triv26_correct,triv27_raw,triv27_correct,triv28_raw,triv28_correct,triv29_raw,triv29_correct,triv30_raw,triv30_correct,age,major,language,sex_r,year,area_writing,area_trivia,purpose,link_yn,link_text,thinking_yn,thinking_text,comments,prior_hool,professor_int_rating,professor_acc_rating,soccer-hooligan_int_rating,soccer-hooligan_acc_rating
20161018-104351,35,F,0,soccer-hooligan,"What are you doing in your daily life as a soccer hooligan?
 - I drink a lot in public
- I like playing soccer and watching soccer?

What are your typical activities as a soccer hooligan?
- I like saying offensive things to passerby - I find joy out of it
I sometimes provoke fights or destroy property

What are your typical personality characteristics or attributes as a soccer hooligan?
- I am relaxed
- I don't really care about what other people think of me
- I don't really care about how I make other people feel

What are your typical passions or hobbies as a soccer hooligan?
- I am passionate about soccer
- I like going to bars and drinking",Zaire,False,HTML,False,Coypu,False,Earth,True,12,True,Bangladesh,False,Arm,True,Guy Fawkes,True,Bronze,True,Pillar,False,Isobars,True,21,True,Chrysler,False,180,True,Mars,False,Alexander Popov,False,Radiation,True,Deep Blue,True,Continental Abyss,False,Republic,False,Penicillin,True,Paul Cezanne,False,Colorado River,False,In the throat,True,Ukraine,False,Saturn,False,Tchaikovsky,True,Wind speed,False,Collagen,False,Greece,False,21,Business Administration,English,female,4th year or higher,Empathy?,General knowledge?,I am not sure. The first task might be about stereotypes and how that contributes to someone's answer. I really don't know about the second one. I think it just shows that I am very ignorant.,yes,could be that the stereotypes affect how someone answers questions? I have no idea,no,,pretty interesting. I would like to know the impact of this study.,no,75,25,50,9
