datetime,subjID,sex,prime_code,prime_condition,prime_response,triv1_raw,triv1_correct,triv2_raw,triv2_correct,triv3_raw,triv3_correct,triv4_raw,triv4_correct,triv5_raw,triv5_correct,triv6_raw,triv6_correct,triv7_raw,triv7_correct,triv8_raw,triv8_correct,triv9_raw,triv9_correct,triv10_raw,triv10_correct,triv11_raw,triv11_correct,triv12_raw,triv12_correct,triv13_raw,triv13_correct,triv14_raw,triv14_correct,triv15_raw,triv15_correct,triv16_raw,triv16_correct,triv17_raw,triv17_correct,triv18_raw,triv18_correct,triv19_raw,triv19_correct,triv20_raw,triv20_correct,triv21_raw,triv21_correct,triv22_raw,triv22_correct,triv23_raw,triv23_correct,triv24_raw,triv24_correct,triv25_raw,triv25_correct,triv26_raw,triv26_correct,triv27_raw,triv27_correct,triv28_raw,triv28_correct,triv29_raw,triv29_correct,triv30_raw,triv30_correct,age,major,language,sex_r,year,area_writing,area_trivia,purpose,link_yn,link_text,thinking_yn,thinking_text,comments,prior_hool,soccer-hooligan_int_rating,soccer-hooligan_acc_rating,professor_int_rating,professor_acc_rating
20161013-175918,4,f,1,professor,"Daily life:
Personality type:
passions:


Day to day, I wake up early in the morning, say goodbye to my family, and head off to work. I come in early and prep for my classes that I will teach. After class is done, I go to my office and work on my research. I have a lab asistant and a group of people who help me with my research. I am always excited to talk to my students and get them involved. This excitment is a reflection of my personality. I am an academic. I enjoy learning and like to learn about new ways to learn. My main goal is to be innovative and to stay on top of the most relevant and recent research in my field. I hope to specialize further and contribute significantly to my field. Hopefully this contribution helps the world as well. 

My passion is my field",Botswana,True,HTML,False,Capybara,True,Mars,False,8,False,India,True,Neck,False,Guy Fawkes,True,Brass,False,Wave,True,Isobars,True,25,False,General Motors,True,180,True,Venus,True,Mikhail Gorbachev,True,Temperature,False,Blue Knight,False,Continental Shelf,True,Democracy,False,Penicillin,True,Salvador Dali,False,Colorado River,False,In the throat,True,Siberia,True,Saturn,False,Tchaikovsky,True,Air pressure,True,Keratin,True,Greece,False,21,business administration,English,female,4th year or higher,Education,"I'm not sure what you mean by 
""area""--- but I will guess history ","The first task possibly to see students' view of professors. The second I do not know
",yes,Professors like learning and knowing things-- but the first excercise was about a way of thinking and one's life experience. The second was trivia. ,no,,I don't think that thinking like a professor made me think more ciritically or do better on the tasks. No matter what mind frame I was in... I didn't know the answer to the vast majority of questions,no,42,15.0,75,22
