datetime,subjID,sex,prime_code,prime_condition,prime_response,triv1_raw,triv1_correct,triv2_raw,triv2_correct,triv3_raw,triv3_correct,triv4_raw,triv4_correct,triv5_raw,triv5_correct,triv6_raw,triv6_correct,triv7_raw,triv7_correct,triv8_raw,triv8_correct,triv9_raw,triv9_correct,triv10_raw,triv10_correct,triv11_raw,triv11_correct,triv12_raw,triv12_correct,triv13_raw,triv13_correct,triv14_raw,triv14_correct,triv15_raw,triv15_correct,triv16_raw,triv16_correct,triv17_raw,triv17_correct,triv18_raw,triv18_correct,triv19_raw,triv19_correct,triv20_raw,triv20_correct,triv21_raw,triv21_correct,triv22_raw,triv22_correct,triv23_raw,triv23_correct,triv24_raw,triv24_correct,triv25_raw,triv25_correct,triv26_raw,triv26_correct,triv27_raw,triv27_correct,triv28_raw,triv28_correct,triv29_raw,triv29_correct,triv30_raw,triv30_correct,age,major,language,sex_r,year,area_writing,area_trivia,purpose,link_yn,link_text,thinking_yn,thinking_text,comments,prior_hool,professor_int_rating,professor_acc_rating,soccer-hooligan_int_rating,soccer-hooligan_acc_rating
20161020-122121,62,F,0,soccer-hooligan,"Daily life: typical 9 to 5 office job, live with 3 roommates to split rent, single, come home to eat left overs/order take out, go out on Friday nights to watch the game/drink at sports bars, go home, rinse and repeat

Typical activities: drink, going to sports bars, dead-end jobs, smoke, soccer

Personality characteristics: rude, don't care what you think, crazy enthusiastic 

Passions: soccer, drink",Zimbabwe,False,HTML,False,Beaver,False,Mars,False,12,True,Phillipines,False,Leg,False,Guy Fawkes,True,Brass,False,Pillar,False,Isobars,True,21,True,Mitsubishi,False,360,False,Mars,False,Mikhail Gorbachev,True,Temperature,False,King Blue,False,Continental Rise,False,Republic,False,Penicillin,True,Henri Matisse,False,Rio Lobos,False,In the lungs,False,Ukraine,False,Jupiter,True,Tchaikovsky,True,Wind speed,False,Keratin,True,Spain,False,20,econ,chinese,female,4th year or higher,the writing task,the trivia/knowledge task,no idea,no,,no,,no,yes,75,22,55,15.0
