datetime,subjID,sex,prime_code,prime_condition,prime_response,triv1_raw,triv1_correct,triv2_raw,triv2_correct,triv3_raw,triv3_correct,triv4_raw,triv4_correct,triv5_raw,triv5_correct,triv6_raw,triv6_correct,triv7_raw,triv7_correct,triv8_raw,triv8_correct,triv9_raw,triv9_correct,triv10_raw,triv10_correct,triv11_raw,triv11_correct,triv12_raw,triv12_correct,triv13_raw,triv13_correct,triv14_raw,triv14_correct,triv15_raw,triv15_correct,triv16_raw,triv16_correct,triv17_raw,triv17_correct,triv18_raw,triv18_correct,triv19_raw,triv19_correct,triv20_raw,triv20_correct,triv21_raw,triv21_correct,triv22_raw,triv22_correct,triv23_raw,triv23_correct,triv24_raw,triv24_correct,triv25_raw,triv25_correct,triv26_raw,triv26_correct,triv27_raw,triv27_correct,triv28_raw,triv28_correct,triv29_raw,triv29_correct,triv30_raw,triv30_correct,age,major,language,sex_r,year,area_writing,area_trivia,purpose,link_yn,link_text,thinking_yn,thinking_text,comments,prior_hool,professor_int_rating,professor_acc_rating,soccer-hooligan_int_rating,soccer-hooligan_acc_rating
20161021-152531,68,M,0,soccer-hooligan,"My daily life as a soccer hooligan will primarily consist of me spending time with other soccer fanatics. Typically, if there are games on I would go out to bars or other places that show the games, and try to drink a lot there and have fun. At the same time I would be vocal about the teams that I am rooting for and try to talk to others about what their views are. Also, as a soccer hooligan, I would engage in playing soccer on a daily basis. Trying to mimic other world famous players, as well as my favorite players that I like to watch. Pride would definitely be an attribute that I would have as a soccer hooligan. I would never let anyone talk bad about the teams or players that are my favorite. My typical passions or hobbies as a soccer hooligan would be to watch and play soccer, drink, make a lot of friends, and always go out to meet others and spend time with my friends.vv",Uganda,False,HTML,False,Beaver,False,Mars,False,6,False,Bangladesh,False,Leg,False,Dick Turpin,False,Brass,False,Pillar,False,Cyclones,False,21,True,Mitsubishi,False,360,False,Venus,True,Mikhail Gorbachev,True,Radiation,True,Blue Knight,False,Continental Abyss,False,Republic,False,X Rays,False,Salvador Dali,False,Rio Grande,True,In the throat,True,Siberia,True,Jupiter,True,Mozart,False,Air temperature,False,Collagen,False,France,True,21,"Business Administration
",English,male,4th year or higher,"Yes
", ,No idea,no,,no,,No,yes,44,8,100,30
