datetime,subjID,sex,prime_code,prime_condition,prime_response,triv1_raw,triv1_correct,triv2_raw,triv2_correct,triv3_raw,triv3_correct,triv4_raw,triv4_correct,triv5_raw,triv5_correct,triv6_raw,triv6_correct,triv7_raw,triv7_correct,triv8_raw,triv8_correct,triv9_raw,triv9_correct,triv10_raw,triv10_correct,triv11_raw,triv11_correct,triv12_raw,triv12_correct,triv13_raw,triv13_correct,triv14_raw,triv14_correct,triv15_raw,triv15_correct,triv16_raw,triv16_correct,triv17_raw,triv17_correct,triv18_raw,triv18_correct,triv19_raw,triv19_correct,triv20_raw,triv20_correct,triv21_raw,triv21_correct,triv22_raw,triv22_correct,triv23_raw,triv23_correct,triv24_raw,triv24_correct,triv25_raw,triv25_correct,triv26_raw,triv26_correct,triv27_raw,triv27_correct,triv28_raw,triv28_correct,triv29_raw,triv29_correct,triv30_raw,triv30_correct,age,major,language,sex_r,year,area_writing,area_trivia,purpose,link_yn,link_text,thinking_yn,thinking_text,comments,prior_hool,soccer-hooligan_int_rating,soccer-hooligan_acc_rating,professor_int_rating,professor_acc_rating
20161027-105754,79,F,1,professor,"My daily life is quite busy; i have to think about the universities, students and my family. usually, what i do during the day as activities for the university are to go to take lectures to students. i try to make it at my best, trying to make it fun and interesting for my student, as i really like to teach. moreover, i also go to do some researches concerning marketing and my field of interests. i usually have a group of researchers that address to me and that i can lead. so, usually, we work together. i am a very extroverse person and at the same time a very responsible one. helping other people make me feeling better. i usually play tennis, i like running and even go to the cinema.    
",Zaire,False,ASCII,True,Muskrat,False,Pluto,False,8,False,Pakistan,False,Arm,True,Dick Turpin,False,Solder,False,Iceberg,False,Isobars,True,15,False,Ford,False,360,False,Mars,False,Mikhail Gorbachev,True,Radiation,True,Deep Blue,True,Continental Abyss,False,Fascist,True,Penicillin,True,Pablo Picasso,True,Colorado River,False,In the spine,False,Siberia,True,Jupiter,True,Tchaikovsky,True,Air pressure,True,Keratin,True,France,True,21,Business and Administration,Italian,female,4th year or higher,Emotional field,memory,to study some aspects of young people,yes,no idea,no,,No,no,39,5,68,20
