datetime,subjID,sex,prime_code,prime_condition,prime_response,triv1_raw,triv1_correct,triv2_raw,triv2_correct,triv3_raw,triv3_correct,triv4_raw,triv4_correct,triv5_raw,triv5_correct,triv6_raw,triv6_correct,triv7_raw,triv7_correct,triv8_raw,triv8_correct,triv9_raw,triv9_correct,triv10_raw,triv10_correct,triv11_raw,triv11_correct,triv12_raw,triv12_correct,triv13_raw,triv13_correct,triv14_raw,triv14_correct,triv15_raw,triv15_correct,triv16_raw,triv16_correct,triv17_raw,triv17_correct,triv18_raw,triv18_correct,triv19_raw,triv19_correct,triv20_raw,triv20_correct,triv21_raw,triv21_correct,triv22_raw,triv22_correct,triv23_raw,triv23_correct,triv24_raw,triv24_correct,triv25_raw,triv25_correct,triv26_raw,triv26_correct,triv27_raw,triv27_correct,triv28_raw,triv28_correct,triv29_raw,triv29_correct,triv30_raw,triv30_correct,age,major,language,sex_r,year,area_writing,area_trivia,purpose,link_yn,link_text,thinking_yn,thinking_text,comments,prior_hool,professor_int_rating,professor_acc_rating,soccer hooligan_int_rating,soccer hooligan_acc_rating
20170206-143642,49210,F,0,soccer hooligan,"if i was a soccer hooligan i would keep on watching soccer games or play fifa or anything that inlcudes soccer. I would be drinking alot as well. 
my activities as a soccer hooligan is to sit and watch a game, play soccer agressively with opposing teams, maybe coaching a team if i was really good at it, since i have the passion for it.
as hooligans is defined, id probably be a short tempered, agressive person who has so much passion towards soccer which leads to over reacting sometimes. i might not actually be bad, but my passion makes me behave in a different way. i would love sports.
as mentioned before, my hobby would be to play different kinds of sports but soccer in particular and to do activities that require athletisim. however, it isnt necessary. my passion is to watch soccer and cheer for the team that i love with all my heart.
",Uganda,False,HTML,False,Beaver,False,Uranus,False,6,False,Pakistan,False,12,True,Dick Turpin,False,Brass,False,Wave,True,Isotherms,False,21,True,Chrysler,False,120,False,Venus,True,Alexander Popov,False,In deserts,False,Deep Blue,True,Continental Rise,False,Democracy,False,Penicillin,True,Copper,False,Colorado River,False,In the throat,True,Ukraine,False,Jupiter,True,Mozart,False,Wind speed,False,Collagen,False,Greece,False,20,marketing,English,female,3rd year,social psychology (to see our perceptions and expectations),psychology in general (to see if we have the knowledge of hard and random topics),"the purpose of these tasks is to see how we perceive , think, and behave when we are asked to picture a scenario or when random quiestions are ask. these tasks help the researchers with further studies.",yes,maybe thinkinh about only soccer and only about being a soccer hooligan affects the brain into not knowing the knowledge test answer? but mostly i have no idea,no,,the knowledge test questions were hard. i literally guessed more than 90%. i didnt think they were related to psychology,yes,75,20,40,13
