datetime,subjID,sex,prime_code,prime_condition,prime_response,triv1_raw,triv1_correct,triv2_raw,triv2_correct,triv3_raw,triv3_correct,triv4_raw,triv4_correct,triv5_raw,triv5_correct,triv6_raw,triv6_correct,triv7_raw,triv7_correct,triv8_raw,triv8_correct,triv9_raw,triv9_correct,triv10_raw,triv10_correct,triv11_raw,triv11_correct,triv12_raw,triv12_correct,triv13_raw,triv13_correct,triv14_raw,triv14_correct,triv15_raw,triv15_correct,triv16_raw,triv16_correct,triv17_raw,triv17_correct,triv18_raw,triv18_correct,triv19_raw,triv19_correct,triv20_raw,triv20_correct,triv21_raw,triv21_correct,triv22_raw,triv22_correct,triv23_raw,triv23_correct,triv24_raw,triv24_correct,triv25_raw,triv25_correct,triv26_raw,triv26_correct,triv27_raw,triv27_correct,triv28_raw,triv28_correct,triv29_raw,triv29_correct,triv30_raw,triv30_correct,age,major,language,sex_r,year,area_writing,area_trivia,purpose,link_yn,link_text,thinking_yn,thinking_text,comments,prior_hool,professor_int_rating,professor_acc_rating,voetbalhooligan_int_rating,voetbalhooligan_acc_rating
20170206-113334,07,1,0,voetbalhooligan,"Mijn leven als voetbalhooligan.

Vrijdag, de mooiste dag van de week voor mij omdat mijn favoriete voetbalclub dan speelt. Ik sla geen wedstrijd over en ga door het vuur voor mijn club. Samen met mijn vrienden ga ik vooraf in de kroeg indrinken. Dat is een vast ritueel dan kunnen we daarna voor goud op de tribune. Vaak krijgen we ook ruzie na afloop van de wedstrijd, eigenlijk vind ik dat nog best spannend en opwindend. Verder werk ik de rest van de week in de bouw. Het leven als bouwvakker bevalt me wel, behalve de vieze koffie en de  vroege werktijd da",Zaire,False,HTML,False,Beverrat,False,Uranus,False,12,True,Pakistan,False,Arm,True,Robin Hood,False,Messing,False,Golf,True,Isothermen,False,21,True,Mitsubishi,False,360,False,Mercury,False,Nikita Chroesjtsjov,False,Straling,True,Blue Knight,False,Tektonische stijging,False,Fascisme,True,Stethoscoop,False,Henri Matisse,False,Colorado Rivier,False,In de keel,True,Siberië,True,Jupiter,True,Beethoven,False,Luchtdruk,True,Keratine,True,Spanje,False,2e jaar,vrouw,19,Nederlands,communicatiewetenschap,sociale psychologie,cognitieve psychologie,geen idee,ja,meer algemene kennis heeft invloed op empathie,nee,,nee,ja,80,23,35,9
