datetime,subjID,sex,prime_code,prime_condition,prime_response,triv1_raw,triv1_correct,triv2_raw,triv2_correct,triv3_raw,triv3_correct,triv4_raw,triv4_correct,triv5_raw,triv5_correct,triv6_raw,triv6_correct,triv7_raw,triv7_correct,triv8_raw,triv8_correct,triv9_raw,triv9_correct,triv10_raw,triv10_correct,triv11_raw,triv11_correct,triv12_raw,triv12_correct,triv13_raw,triv13_correct,triv14_raw,triv14_correct,triv15_raw,triv15_correct,triv16_raw,triv16_correct,triv17_raw,triv17_correct,triv18_raw,triv18_correct,triv19_raw,triv19_correct,triv20_raw,triv20_correct,triv21_raw,triv21_correct,triv22_raw,triv22_correct,triv23_raw,triv23_correct,triv24_raw,triv24_correct,triv25_raw,triv25_correct,triv26_raw,triv26_correct,triv27_raw,triv27_correct,triv28_raw,triv28_correct,triv29_raw,triv29_correct,triv30_raw,triv30_correct,age,major,language,sex_r,year,area_writing,area_trivia,purpose,link_yn,link_text,thinking_yn,thinking_text,comments,prior_hool,professor_int_rating,professor_acc_rating,voetbalhooligan_int_rating,voetbalhooligan_acc_rating
20170206-153524,19,0,0,voetbalhooligan,"In het dagelijks leven ben ik een heel gewoon persoon. Normale baan, vriendin. Huisje, boompje, beestje, dat idee. Maar dit is niet genoeg, dit passieve, sedentaire bestaan. Ik heb een uitlaatklep nodig. Een uitlaatklep voor oerinstincten en frustraties. Deze uitlaatklep vind ik in het voetbal. Eerst gewoon als supporter, lekker schreeuwen en schelden. Vooral de tegenstander en scheidsrechter moesten het in het begin ontgelden, maar na verloop van tijd richtte ik me op steeds meer mensen. Spelers van mijn club, mensen om mij heen. Na een tijdje was het verbale gedeelte niet meer genoeg. Ik wist van een paar jongens die verderop in het vak zaten, dat ze zo nu en dan bij vechtpartijen betrokken raakten. Ik begon ze op te zoeken, zo af en toe een praatje maken. Na een tijdje raakte ik door een kwestie van verkeerde plek, verkeerde moment, betrokken bij zo'n gevecht. Stiekem wilde ik dit eigenlijk ook. Die jongens vonden het goed om te zien dat ik niet laf wegrende en vroegen me mee te gaan naar een volgend gevecht, ergens in de buurt van de snelweg. Daar hadden ze met een clubje van 20 man afgesproken met 20 man van de tegenclub. Dit soort gevechten houden we nog steeds regelmatig, net als trainingen. Vechten schept een band. Mensen uit mijn dagelijks leven weten hier weinig van, maar deze jongens voelen als een tweede familie. Als een familie waar ik mijn oerinstincten en agressie de vrije loop kan laten, zodat ik de rest van de week mij weer als een normaal, rustig en productief lid van de maatschappij kan gedragen.",Botswana,True,ASCII,True,Capibara,True,Pluto,False,6,False,Bangladesh,False,Arm,True,Sweeney Todd,False,Brons,True,Golf,True,Isobaren,True,21,True,Ford,False,360,False,Venus,True,Mikhail Gorbachov,True,Straling,True,Deep Blue,True,Tektonische afgrond,False,Fascisme,True,Penicilline,True,Pablo Picasso,True,Rio Grande,True,In de keel,True,Siberië,True,Mars,False,Tsjaikovski,True,Relatieve vochtigheid,False,Collageen,False,Frankrijk,True,1e jaar,man,24,Nederlands,Taalwetenschap,"cognitieve psychologie
",cognitieve psychologie,geen idee,nee,,nee,,"Het type psychologie dat de onderzoekers van beide experimenten bestuderen, zegt een niet-psychologie student niet zo veel en is dus lastig te onthouden.",ja,70,25,40,10
