datetime,subjID,sex,prime_code,prime_condition,prime_response,triv1_raw,triv1_correct,triv2_raw,triv2_correct,triv3_raw,triv3_correct,triv4_raw,triv4_correct,triv5_raw,triv5_correct,triv6_raw,triv6_correct,triv7_raw,triv7_correct,triv8_raw,triv8_correct,triv9_raw,triv9_correct,triv10_raw,triv10_correct,triv11_raw,triv11_correct,triv12_raw,triv12_correct,triv13_raw,triv13_correct,triv14_raw,triv14_correct,triv15_raw,triv15_correct,triv16_raw,triv16_correct,triv17_raw,triv17_correct,triv18_raw,triv18_correct,triv19_raw,triv19_correct,triv20_raw,triv20_correct,triv21_raw,triv21_correct,triv22_raw,triv22_correct,triv23_raw,triv23_correct,triv24_raw,triv24_correct,triv25_raw,triv25_correct,triv26_raw,triv26_correct,triv27_raw,triv27_correct,triv28_raw,triv28_correct,triv29_raw,triv29_correct,triv30_raw,triv30_correct,age,major,language,sex_r,year,area_writing,area_trivia,purpose,link_yn,link_text,thinking_yn,thinking_text,comments,prior_hool,professor_int_rating,professor_acc_rating,voetbalhooligan_int_rating,voetbalhooligan_acc_rating
20170207-163042,33,1,0,voetbalhooligan,"In het dasgelijk leven ben ik manager bij een bedrijf dat zich specialiseert  in de IT. Mijn collega's zijn mensen die videogames ontwikkelen en ik zorg ervoor dat de groepsdynamiek gezond blijft. Mijn hobby's zijn bier drinken, kroegen met vrienden. Ik heb een club abonnement bij Ajax. Een seizoenspas. Iedere keer dat mijn club speelt tegen een groot team, ben ik erbij. Ik ben extravert, maar kan soms ook in mezelf gekeerd zijn. Ik kan me helemaal uitleven bij het voetbal, het is eigenlijk een soort religie voor me. De scheidsrechter is de duivel. Je moet rekening houden met mij en mijn persoon. ",Zimbabwe,False,HTML,False,Capibara,True,Uranus,False,8,False,Bangladesh,False,Arm,True,Sweeney Todd,False,Messing,False,Golf,True,Isothermen,False,21,True,Ford,False,180,True,Venus,True,Mikhail Gorbachov,True,Druk,False,Blue Knight,False,Tektonische afgrond,False,Fascisme,True,Penicilline,True,Henri Matisse,False,Colorado Rivier,False,In de keel,True,Siberië,True,Saturnus,False,Beethoven,False,Luchtdruk,True,Keratine,True,Frankrijk,True,1e jaar,vrouw,22,Nederlands,"psychologie
",sociale psychologie,sociale psychologie,geen idee,nee,,ja,activeren van feitelijke kennis/ schema's,nee,ja,75,19,50,3
