datetime,subjID,sex,prime_code,prime_condition,prime_response,triv1_raw,triv1_correct,triv2_raw,triv2_correct,triv3_raw,triv3_correct,triv4_raw,triv4_correct,triv5_raw,triv5_correct,triv6_raw,triv6_correct,triv7_raw,triv7_correct,triv8_raw,triv8_correct,triv9_raw,triv9_correct,triv10_raw,triv10_correct,triv11_raw,triv11_correct,triv12_raw,triv12_correct,triv13_raw,triv13_correct,triv14_raw,triv14_correct,triv15_raw,triv15_correct,triv16_raw,triv16_correct,triv17_raw,triv17_correct,triv18_raw,triv18_correct,triv19_raw,triv19_correct,triv20_raw,triv20_correct,triv21_raw,triv21_correct,triv22_raw,triv22_correct,triv23_raw,triv23_correct,triv24_raw,triv24_correct,triv25_raw,triv25_correct,triv26_raw,triv26_correct,triv27_raw,triv27_correct,triv28_raw,triv28_correct,triv29_raw,triv29_correct,triv30_raw,triv30_correct,age,major,language,sex_r,year,area_writing,area_trivia,purpose,link_yn,link_text,thinking_yn,thinking_text,comments,prior_hool,professor_int_rating,professor_acc_rating,voetbalhooligan_int_rating,voetbalhooligan_acc_rating
20170208-153320,41,1,0,voetbalhooligan,"aggressiv, vijandig tegenover buitenlanders, patriotisch, bier drinken, voetbal kijken, motorclub bezoeken, werken in een bouwbedrijf, veel vlees eten, mss minachtend gedrag tegen vrouwen tonen, luid, roken, in een kroeg uithangen ",Botswana,True,ASCII,True,Capibara,True,Aarde,True,8,False,De Filipijnen,False,Arm,True,Guy Fawkes,True,Messing,False,Pilaar,False,Isobaren,True,21,True,Chrysler,False,180,True,Venus,True,Mikhail Gorbachov,True,Straling,True,Blue Knight,False,Tektonische plaat,True,Fascisme,True,Penicilline,True,Salvador Dali,False,Rio Grande,True,In de neus,False,Siberië,True,Jupiter,True,Tsjaikovski,True,Luchtdruk,True,Keratine,True,Frankrijk,True,4e jaar of hoger,vrouw,24,duits,natuurkunde,sociologiee,weet niet meer,"geen idee
",nee,,nee,,nee,ja,70,20,40,13
