datetime,subjID,sex,prime_code,prime_condition,prime_response,triv1_raw,triv1_correct,triv2_raw,triv2_correct,triv3_raw,triv3_correct,triv4_raw,triv4_correct,triv5_raw,triv5_correct,triv6_raw,triv6_correct,triv7_raw,triv7_correct,triv8_raw,triv8_correct,triv9_raw,triv9_correct,triv10_raw,triv10_correct,triv11_raw,triv11_correct,triv12_raw,triv12_correct,triv13_raw,triv13_correct,triv14_raw,triv14_correct,triv15_raw,triv15_correct,triv16_raw,triv16_correct,triv17_raw,triv17_correct,triv18_raw,triv18_correct,triv19_raw,triv19_correct,triv20_raw,triv20_correct,triv21_raw,triv21_correct,triv22_raw,triv22_correct,triv23_raw,triv23_correct,triv24_raw,triv24_correct,triv25_raw,triv25_correct,triv26_raw,triv26_correct,triv27_raw,triv27_correct,triv28_raw,triv28_correct,triv29_raw,triv29_correct,triv30_raw,triv30_correct,age,major,language,sex_r,year,area_writing,area_trivia,purpose,link_yn,link_text,thinking_yn,thinking_text,comments,prior_hool,professor_int_rating,professor_acc_rating,voetbalhooligan_int_rating,voetbalhooligan_acc_rating
20170209-154102,63,1,0,voetbalhooligan,"In mijn dagelijks leven als hooligan ga ik naar school in mijn varsity jacket en een voetbal in mijn hand (just to show off). Ik praat met hot chicks, ik vecht met de jongens, en na school gaan we naar onze hangout spot.
Mijn typische activiteiten zijn flirten, voetballen. 
Ik ben echt full of myself, superiority complex heb ik.",Botswana,True,ASCII,True,Bever,False,Uranus,False,6,False,Pakistan,False,Arm,True,Guy Fawkes,True,Soldeer,False,Golf,True,Isothermen,False,21,True,Ford,False,90,False,Mercury,False,Mikhail Gorbachov,True,Straling,True,Blue Knight,False,Tektonische afgrond,False,Fascisme,True,Penicilline,True,Pablo Picasso,True,Colorado Rivier,False,In de keel,True,Siberië,True,Saturnus,False,Beethoven,False,Luchttemperatuur,False,Keratine,True,Frankrijk,True,1e jaar,vrouw,19,Nederlands,psychologie,sociale psychologie,Conitieve psychologie,Geen idee,ja,"Als je over een voetbalhooligan denkt dan komen zijn karakteristieken in beeld, wat van invloed zou kunnen zijn op de algemene kennis vragen.",nee,,nee,ja,75,20,30,10
