datetime,subjID,sex,prime_code,prime_condition,prime_response,triv1_raw,triv1_correct,triv2_raw,triv2_correct,triv3_raw,triv3_correct,triv4_raw,triv4_correct,triv5_raw,triv5_correct,triv6_raw,triv6_correct,triv7_raw,triv7_correct,triv8_raw,triv8_correct,triv9_raw,triv9_correct,triv10_raw,triv10_correct,triv11_raw,triv11_correct,triv12_raw,triv12_correct,triv13_raw,triv13_correct,triv14_raw,triv14_correct,triv15_raw,triv15_correct,triv16_raw,triv16_correct,triv17_raw,triv17_correct,triv18_raw,triv18_correct,triv19_raw,triv19_correct,triv20_raw,triv20_correct,triv21_raw,triv21_correct,triv22_raw,triv22_correct,triv23_raw,triv23_correct,triv24_raw,triv24_correct,triv25_raw,triv25_correct,triv26_raw,triv26_correct,triv27_raw,triv27_correct,triv28_raw,triv28_correct,triv29_raw,triv29_correct,triv30_raw,triv30_correct,age,major,language,sex_r,year,area_writing,area_trivia,purpose,link_yn,link_text,thinking_yn,thinking_text,comments,prior_hool,professor_int_rating,professor_acc_rating,voetbalhooligan_int_rating,voetbalhooligan_acc_rating
20170210-143109,72,1,0,voetbalhooligan,"In het dagelijks leven heb ik een simpele baan. Als ik thuis kom van mijn werk pak ik meestal direct een biertje uit de koelkast. Nadat ik lekker op de bank zit met mijn biertje, zet ik mijn televisie aan om voor de rest van de avond voetbal te kijken. Op de dagen dat mijn voetbalclub speelt, ben ik altijd aanwezig bij de live wedstrijd. Samen met mijn vrienden worden we dan lekker dronken van het bier en schreeuwen wij er op los. Na de wedstrijd vinden we het leuk om een beetje de fans van de tegenstander te irriteren. 
De typische activiteiten van een hooligan is dus vooral heel veel voetbal kijken. Voetbal is het belangrijkste en daar ga ik dan ook helemaal in op. Ik ben een agressief type en vind het moeilijk om mijn emoties in toon te houden. Andere mensen noemen mij ook wel een opvlieger. Ik hou wel heel erg van mijn familie en mijn familie betrek ik dan het liefst bij mijn liefde voor voetbal. Ondanks mijn boosheid tijdens voetbal, ben ik over het algemeen een lieve man met een groot h",Botswana,True,Morse Code,False,Capibara,True,Aarde,True,8,False,India,True,Arm,True,Robin Hood,False,Brons,True,Pilaar,False,Isothermen,False,21,True,Ford,False,180,True,Mars,False,Nikita Chroesjtsjov,False,Straling,True,Blue Knight,False,Tektonische plaat,True,Fascisme,True,Röntgenstraling,False,Paul Cezanne,False,Rio Rojo,False,In de keel,True,Siberië,True,Jupiter,True,Mozart,False,Luchtdruk,True,Keratine,True,Frankrijk,True,1e jaar,vrouw,19,Nederlands,psychologie,gedragspsycholoog,cognitieve psycholoog,geen idee,ja,hoe wij denken over 'in onze ogen' lager opgeleide mensen zegt ook iets over ons,nee,,nee,ja,80,25,60,14
