datetime,subjID,sex,prime_code,prime_condition,prime_response,triv1_raw,triv1_correct,triv2_raw,triv2_correct,triv3_raw,triv3_correct,triv4_raw,triv4_correct,triv5_raw,triv5_correct,triv6_raw,triv6_correct,triv7_raw,triv7_correct,triv8_raw,triv8_correct,triv9_raw,triv9_correct,triv10_raw,triv10_correct,triv11_raw,triv11_correct,triv12_raw,triv12_correct,triv13_raw,triv13_correct,triv14_raw,triv14_correct,triv15_raw,triv15_correct,triv16_raw,triv16_correct,triv17_raw,triv17_correct,triv18_raw,triv18_correct,triv19_raw,triv19_correct,triv20_raw,triv20_correct,triv21_raw,triv21_correct,triv22_raw,triv22_correct,triv23_raw,triv23_correct,triv24_raw,triv24_correct,triv25_raw,triv25_correct,triv26_raw,triv26_correct,triv27_raw,triv27_correct,triv28_raw,triv28_correct,triv29_raw,triv29_correct,triv30_raw,triv30_correct,age,major,language,sex_r,year,area_writing,area_trivia,purpose,link_yn,link_text,thinking_yn,thinking_text,comments,prior_hool,voetbalhooligan_int_rating,voetbalhooligan_acc_rating,professor_int_rating,professor_acc_rating
20170210-153250,75,1,1,professor,"lezen van literatuur
ik werk nauwkeurig
ik weet hoe ik een onderzoek moet uitvoeren
ik weet hoe ik onderzoeksliteratuur moet interpreteren
ik kan kennis op bepaalde gebieden overbrengen 
anderen vertrouwen in mijn deskundigheid
ik heb lang gestudeerd om professor te worden
ik kan lang concentreren op een onderwerp
ik kan kritisch nadenken 
ik kan goed met anderen omgaan
ik ben creatief
ik bereid colleges voor
ik publiceer in wetenschappelijke tijdschriften
",Zaire,False,HTML,False,Capibara,True,Mars,False,8,False,India,True,Nek,False,Guy Fawkes,True,Messing,False,IJsberg,False,Isothermen,False,21,True,Ford,False,180,True,Mars,False,Alexander Popov,False,Straling,True,King Blue,False,Tektonische plaat,True,Fascisme,True,Stethoscoop,False,Paul Cezanne,False,Rio Lobos,False,In de keel,True,Wit-Rusland,False,Neptunus,False,Tsjaikovski,True,Luchtdruk,True,Keratine,True,Frankrijk,True,1e jaar,vrouw,25,Nederlands,Psychologie,sociale psychologie ,cognitieve psychologie,geen idee,ja,geen idee,nee,,nee,ja,40,15.0,98,25
