datetime,subjID,sex,prime_code,prime_condition,prime_response,triv1_raw,triv1_correct,triv2_raw,triv2_correct,triv3_raw,triv3_correct,triv4_raw,triv4_correct,triv5_raw,triv5_correct,triv6_raw,triv6_correct,triv7_raw,triv7_correct,triv8_raw,triv8_correct,triv9_raw,triv9_correct,triv10_raw,triv10_correct,triv11_raw,triv11_correct,triv12_raw,triv12_correct,triv13_raw,triv13_correct,triv14_raw,triv14_correct,triv15_raw,triv15_correct,triv16_raw,triv16_correct,triv17_raw,triv17_correct,triv18_raw,triv18_correct,triv19_raw,triv19_correct,triv20_raw,triv20_correct,triv21_raw,triv21_correct,triv22_raw,triv22_correct,triv23_raw,triv23_correct,triv24_raw,triv24_correct,triv25_raw,triv25_correct,triv26_raw,triv26_correct,triv27_raw,triv27_correct,triv28_raw,triv28_correct,triv29_raw,triv29_correct,triv30_raw,triv30_correct,age,major,language,sex_r,year,area_writing,area_trivia,purpose,link_yn,link_text,thinking_yn,thinking_text,comments,prior_hool,professor_int_rating,professor_acc_rating,voetbalhooligan_int_rating,voetbalhooligan_acc_rating
20170213-160342,94,0,0,voetbalhooligan,"In het dagelijks leven heb ik geen werk. Ik besteed mijn dag aan tv kijken, drinken, met vrienden hangen . Een typisch persoonlijkheidskenmerk van mij is dat ik nogal opvliegerig kan zijn, snel boos ben en vaak ontevreden ben. Mijn grootste passie is dat ik een gepassioneerde voetbalsupporter (hooligan) ben en ik hou dan ook erg van voetbal.  Mijn hoofdactiviteit is dan ook het bezoeken van voetbalwedstrijden, het vechten met andere supporters en het vernielen van dingen na wedstrijden. ",Uganda,False,ASCII,True,Bever,False,Mars,False,8,False,Pakistan,False,Arm,True,Robin Hood,False,Brons,True,Golf,True,Isothermen,False,21,True,Mitsubishi,False,360,False,Venus,True,Nikita Chroesjtsjov,False,Druk,False,King Blue,False,Tektonische plaat,True,Fascisme,True,Penicilline,True,Henri Matisse,False,Colorado Rivier,False,In de keel,True,Siberië,True,Mars,False,0,False,Luchtdruk,True,Lecithine,False,Frankrijk,True,2e jaar,man,19,Nederlands,"Communicatiewetenschap
",Psychologie,Sociologie,"Taak 1: voor verder onderzoek, taak 2: testen van subschalen",ja,"geen idee
",nee,,"nee
",ja,85,23,15,10
