datetime,subjID,sex,prime_code,prime_condition,prime_response,triv1_raw,triv1_correct,triv2_raw,triv2_correct,triv3_raw,triv3_correct,triv4_raw,triv4_correct,triv5_raw,triv5_correct,triv6_raw,triv6_correct,triv7_raw,triv7_correct,triv8_raw,triv8_correct,triv9_raw,triv9_correct,triv10_raw,triv10_correct,triv11_raw,triv11_correct,triv12_raw,triv12_correct,triv13_raw,triv13_correct,triv14_raw,triv14_correct,triv15_raw,triv15_correct,triv16_raw,triv16_correct,triv17_raw,triv17_correct,triv18_raw,triv18_correct,triv19_raw,triv19_correct,triv20_raw,triv20_correct,triv21_raw,triv21_correct,triv22_raw,triv22_correct,triv23_raw,triv23_correct,triv24_raw,triv24_correct,triv25_raw,triv25_correct,triv26_raw,triv26_correct,triv27_raw,triv27_correct,triv28_raw,triv28_correct,triv29_raw,triv29_correct,triv30_raw,triv30_correct,age,major,language,sex_r,year,area_writing,area_trivia,purpose,link_yn,link_text,thinking_yn,thinking_text,comments,prior_hool,professor_int_rating,professor_acc_rating,soccer hooligan_int_rating,soccer hooligan_acc_rating
20161104-132553,par102,male,0,soccer hooligan,"I enjoy playing football with my mates. I am good at sports but not that good at school, sometimes I miss the classes to spend some time with my friends. We drink and have fun together, staying up late. If we go out we could paint graffiti or meet up with other people. If we see someone who we dont like we could provoke a fight, in that way we fell in power. During the weekends me and my friends play computer games in my house. ",Zaire,False,HTML,False,Beaver,False,Uranus,False,8,False,Bangledesh,False,Arm,True,Guy Fawkes,True,Bronze,True,Wave,True,Cyclones,False,21,True,General Motors,True,180,True,Venus,True,Mikhail Gorbachev,True,Radiation,True,Blue Knight,False,Continental Abyss,False,Democracy,False,X Rays,False,Salvador Dali,False,Rio Grande,True,In the throat,True,Siberia,True,Jupiter,True,Tchaikovsky,True,Air pressure,True,Keratin,True,Greece,False,18,psychology,"latvian
",male,1st year,cant remember,cognitive psychology,see the effect of active cognitive processes on memory?,no,,no,,this was an interesting task,no,89,27,25,3
