datetime,subjID,sex,prime_code,prime_condition,prime_response,triv1_raw,triv1_correct,triv2_raw,triv2_correct,triv3_raw,triv3_correct,triv4_raw,triv4_correct,triv5_raw,triv5_correct,triv6_raw,triv6_correct,triv7_raw,triv7_correct,triv8_raw,triv8_correct,triv9_raw,triv9_correct,triv10_raw,triv10_correct,triv11_raw,triv11_correct,triv12_raw,triv12_correct,triv13_raw,triv13_correct,triv14_raw,triv14_correct,triv15_raw,triv15_correct,triv16_raw,triv16_correct,triv17_raw,triv17_correct,triv18_raw,triv18_correct,triv19_raw,triv19_correct,triv20_raw,triv20_correct,triv21_raw,triv21_correct,triv22_raw,triv22_correct,triv23_raw,triv23_correct,triv24_raw,triv24_correct,triv25_raw,triv25_correct,triv26_raw,triv26_correct,triv27_raw,triv27_correct,triv28_raw,triv28_correct,triv29_raw,triv29_correct,triv30_raw,triv30_correct,age,major,language,sex_r,year,area_writing,area_trivia,purpose,link_yn,link_text,thinking_yn,thinking_text,comments,prior_hool,soccer hooligan_int_rating,soccer hooligan_acc_rating,professor_int_rating,professor_acc_rating
20170120-154443,par115,male,1,professor,"I would choose a particular field of study that I like and dive deep into that topic. This may involve looking up the internet, going to libraries and looking up articles in order to fully understand the topic. In addition, I will also try to think about any loopholes about the topic of interest so that I can formulate or postulate further theories to back up the current arguements.

As a teacher to the university students. I would think about what probles my students might face in the process of doing their coursework and help them by preparing additional practice materials or guidelines so that they understand their field of study. This involves doing the questions beforehand and taking note about what could the st",Zaire,False,ASCII,True,Muskrat,False,Pluto,False,12,True,Pakistan,False,Leg,False,Guy Fawkes,True,Bronze,True,Iceberg,False,Isotherms,False,15,False,General Motors,True,180,True,Venus,True,Alexander Popov,False,Radiation,True,Deep Thought,False,Continental Shelf,True,Republic,False,Penicillin,True,Pablo Picasso,True,Rio Rojo,False,In the throat,True,Siberia,True,Jupiter,True,Tchaikovsky,True,Air pressure,True,Keratin,True,France,True,20,Electrical and Electronic Engineering,Chinese,male,1st year,Role Play,General Knowledge,To discover student's general knowledge and their ability to stand in other people's perspective,no,,no,,No,yes,26,10,75,17
