datetime,subjID,sex,prime_code,prime_condition,prime_response,triv1_raw,triv1_correct,triv2_raw,triv2_correct,triv3_raw,triv3_correct,triv4_raw,triv4_correct,triv5_raw,triv5_correct,triv6_raw,triv6_correct,triv7_raw,triv7_correct,triv8_raw,triv8_correct,triv9_raw,triv9_correct,triv10_raw,triv10_correct,triv11_raw,triv11_correct,triv12_raw,triv12_correct,triv13_raw,triv13_correct,triv14_raw,triv14_correct,triv15_raw,triv15_correct,triv16_raw,triv16_correct,triv17_raw,triv17_correct,triv18_raw,triv18_correct,triv19_raw,triv19_correct,triv20_raw,triv20_correct,triv21_raw,triv21_correct,triv22_raw,triv22_correct,triv23_raw,triv23_correct,triv24_raw,triv24_correct,triv25_raw,triv25_correct,triv26_raw,triv26_correct,triv27_raw,triv27_correct,triv28_raw,triv28_correct,triv29_raw,triv29_correct,triv30_raw,triv30_correct,age,major,language,sex_r,year,area_writing,area_trivia,purpose,link_yn,link_text,thinking_yn,thinking_text,comments,prior_hool,soccer-hooligan_int_rating,soccer-hooligan_acc_rating,professor_int_rating,professor_acc_rating
20161018-175615,par13,Female,1,professor,"In my daily life, I wake up at 7am get ready and eat breakfast before I leave the house and drive to work. Once I arrive I go to my office and prepare for my day of lectures. When I finish the day, I return home, eat dinner whilst watching television. Then I read articles/journals/books until I go to sleep unless I have work to do for lectures the next day which I will prioritise. 
My personality characterisitics are relaxed, calm, passionate (about my subject), friendly and patient. 
My passion is in my subject. My hobbies include reading books, keeping updated with the news in my subject. 
I also enjoy spending time with my partner and keepn",Botswana,True,HTML,False,Capybara,True,Mars,False,6,False,Bangladesh,False,Foot,False,Guy Fawkes,True,Bronze,True,Iceberg,False,Isotherms,False,21,True,Ford,False,180,True,Saturn,False,Boris Yeltsin,False,Radiation,True,Blue Knight,False,Continental Abyss,False,Republic,False,X Rays,False,Henri Matisse,False,Rio Grande,True,In the spine,False,Ukraine,False,Neptune,False,Mozart,False,Air temperature,False,Keratin,True,France,True,18,psychology,English,female,1st year,social,social,stereotypical representations + general knowledge,no,,no,,no,yes,28,12,90,30
