datetime,subjID,sex,prime_code,prime_condition,prime_response,triv1_raw,triv1_correct,triv2_raw,triv2_correct,triv3_raw,triv3_correct,triv4_raw,triv4_correct,triv5_raw,triv5_correct,triv6_raw,triv6_correct,triv7_raw,triv7_correct,triv8_raw,triv8_correct,triv9_raw,triv9_correct,triv10_raw,triv10_correct,triv11_raw,triv11_correct,triv12_raw,triv12_correct,triv13_raw,triv13_correct,triv14_raw,triv14_correct,triv15_raw,triv15_correct,triv16_raw,triv16_correct,triv17_raw,triv17_correct,triv18_raw,triv18_correct,triv19_raw,triv19_correct,triv20_raw,triv20_correct,triv21_raw,triv21_correct,triv22_raw,triv22_correct,triv23_raw,triv23_correct,triv24_raw,triv24_correct,triv25_raw,triv25_correct,triv26_raw,triv26_correct,triv27_raw,triv27_correct,triv28_raw,triv28_correct,triv29_raw,triv29_correct,triv30_raw,triv30_correct,age,major,language,sex_r,year,area_writing,area_trivia,purpose,link_yn,link_text,thinking_yn,thinking_text,comments,prior_hool,soccer hooligan_int_rating,soccer hooligan_acc_rating,professor_int_rating,professor_acc_rating
20161031-165817,par79,female,1,professor,"As a univeristy professor, I would have lectures and tutorials every day. Apart form this, I will do my own research studies and read other people's reseaches.  For the typical activities, there would have many conferences that i have to come, and I would also talk my research topics to my colleges as well. ",Botswana,True,HTML,False,Capybara,True,Mars,False,12,True,India,True,Leg,False,Guy Fawkes,True,Pewter,False,Iceberg,False,Isobars,True,15,False,Mitsubishi,False,360,False,Mercury,False,Boris Yeltsin,False,Radiation,True,King Blue,False,Continental Rise,False,Fascist,True,Penicillin,True,Paul Cezanne,False,Rio Lobos,False,In the throat,True,Ukraine,False,Jupiter,True,Tchaikovsky,True,Air pressure,True,Collagen,False,Greece,False,22,Linguistics,Chinese,female,1st year,social psychology,common knowledge,"no idea
",yes,no idea,no,,no,no,60,14,75,20
