datetime,subjID,sex,prime_code,prime_condition,prime_response,triv1_raw,triv1_correct,triv2_raw,triv2_correct,triv3_raw,triv3_correct,triv4_raw,triv4_correct,triv5_raw,triv5_correct,triv6_raw,triv6_correct,triv7_raw,triv7_correct,triv8_raw,triv8_correct,triv9_raw,triv9_correct,triv10_raw,triv10_correct,triv11_raw,triv11_correct,triv12_raw,triv12_correct,triv13_raw,triv13_correct,triv14_raw,triv14_correct,triv15_raw,triv15_correct,triv16_raw,triv16_correct,triv17_raw,triv17_correct,triv18_raw,triv18_correct,triv19_raw,triv19_correct,triv20_raw,triv20_correct,triv21_raw,triv21_correct,triv22_raw,triv22_correct,triv23_raw,triv23_correct,triv24_raw,triv24_correct,triv25_raw,triv25_correct,triv26_raw,triv26_correct,triv27_raw,triv27_correct,triv28_raw,triv28_correct,triv29_raw,triv29_correct,triv30_raw,triv30_correct,age,major,language,sex_r,year,area_writing,area_trivia,purpose,link_yn,link_text,thinking_yn,thinking_text,comments,prior_hool,soccer hooligan_int_rating,soccer hooligan_acc_rating,professor_int_rating,professor_acc_rating
20161102-135445,par89,Female,1,professor,"Daily life: writing up experiments and conducting experiments, possibly giving lectures, attending meetings
Activites: creating lectures and general admin work, perhaps other activites such as reading and researching 
Characterists/attributes: intelligent, hard-working, critical thinker, analytical 
Passions/hobbies: which ever subject I teach, perhaps other hobbies such as sport ",Zimbabwe,False,ASCII,True,Capybara,True,Uranus,False,8,False,Bangledesh,False,Arm,True,Guy Fawkes,True,Brass,False,Wave,True,Isobars,True,21,True,Mitsubishi,False,360,False,Venus,True,Boris Yeltsin,False,Radiation,True,Blue Knight,False,Continental Slope,False,Fascist,True,Penicillin,True,Henri Matisse,False,Rio Grande,True,In the throat,True,Siberia,True,Jupiter,True,Tchaikovsky,True,Air pressure,True,Keratin,True,France,True,18,"Psychology
",English,female,1st year,Unsure,Unsure,No idea,yes,Thinking like a professor may make someone feel more intelligent and therefore try harder in the quiz,no,,No,yes,23,9,93,25
