datetime,subjID,sex,prime_code,prime_condition,prime_response,triv1_raw,triv1_correct,triv2_raw,triv2_correct,triv3_raw,triv3_correct,triv4_raw,triv4_correct,triv5_raw,triv5_correct,triv6_raw,triv6_correct,triv7_raw,triv7_correct,triv8_raw,triv8_correct,triv9_raw,triv9_correct,triv10_raw,triv10_correct,triv11_raw,triv11_correct,triv12_raw,triv12_correct,triv13_raw,triv13_correct,triv14_raw,triv14_correct,triv15_raw,triv15_correct,triv16_raw,triv16_correct,triv17_raw,triv17_correct,triv18_raw,triv18_correct,triv19_raw,triv19_correct,triv20_raw,triv20_correct,triv21_raw,triv21_correct,triv22_raw,triv22_correct,triv23_raw,triv23_correct,triv24_raw,triv24_correct,triv25_raw,triv25_correct,triv26_raw,triv26_correct,triv27_raw,triv27_correct,triv28_raw,triv28_correct,triv29_raw,triv29_correct,triv30_raw,triv30_correct,age,major,language,sex_r,year,area_writing,area_trivia,purpose,link_yn,link_text,thinking_yn,thinking_text,comments,prior_hool,professor_int_rating,professor_acc_rating,soccer hooligan_int_rating,soccer hooligan_acc_rating
20161031-191317,par83,female,0,soccer hooligan,"I am hooligan, yeah...You are right... don't ask me what hooligan is 
so basically I sleep all day through from 3am to 6pm.sometimes whrn there is a game at night I will stay up more late.
I got bunch of friends, we hang out together especially at night in our favorite pubs watching games having beers.
we got our special language which could be confusing to you ..like total jagons
fighting happens all the time ",Botswana,True,ASCII,True,Capybara,True,Earth,True,12,True,India,True,Arm,True,Guy Fawkes,True,Bronze,True,Iceberg,False,Isobars,True,21,True,General Motors,True,90,False,Venus,True,Mikhail Gorbachev,True,Temperature,False,Deep Blue,True,Continental Shelf,True,Fascist,True,Penicillin,True,Pablo Picasso,True,Rio Grande,True,In the throat,True,Siberia,True,Jupiter,True,Tchaikovsky,True,Air pressure,True,Lecithin,False,France,True,23,linguistics,mandarin chinese,female,1st year,social perception,no idea,no idea,yes,the general knowledge shows a person s educational background which may affect their thinking about soccer hooligan,no,,no,no,95,18,40,15.0
