datetime,subjID,sex,prime_code,prime_condition,prime_response,triv1_raw,triv1_correct,triv2_raw,triv2_correct,triv3_raw,triv3_correct,triv4_raw,triv4_correct,triv5_raw,triv5_correct,triv6_raw,triv6_correct,triv7_raw,triv7_correct,triv8_raw,triv8_correct,triv9_raw,triv9_correct,triv10_raw,triv10_correct,triv11_raw,triv11_correct,triv12_raw,triv12_correct,triv13_raw,triv13_correct,triv14_raw,triv14_correct,triv15_raw,triv15_correct,triv16_raw,triv16_correct,triv17_raw,triv17_correct,triv18_raw,triv18_correct,triv19_raw,triv19_correct,triv20_raw,triv20_correct,triv21_raw,triv21_correct,triv22_raw,triv22_correct,triv23_raw,triv23_correct,triv24_raw,triv24_correct,triv25_raw,triv25_correct,triv26_raw,triv26_correct,triv27_raw,triv27_correct,triv28_raw,triv28_correct,triv29_raw,triv29_correct,triv30_raw,triv30_correct,age,major,language,sex_r,year,area_writing,area_trivia,purpose,link_yn,link_text,thinking_yn,thinking_text,comments,prior_hool,soccer-hooligan_int_rating,soccer-hooligan_acc_rating,professor_int_rating,professor_acc_rating
,,,,,,,,,,,,,,,,,,,,,,,,,,,,,,,,,,,,,,,,,,,,,,,,,,,,,,,,,,,,,,,,,,,,,,,,,,,,,,,,,,,
20160922-155636,5128,m,1,professor,Being a university professor my daily life is somewhat hectic. I wake up in the morning and have to plan my day around my assigned classes as well as factoring in time to meet with students or any other faculty members. In my free time I must constantly be updating my email to tend to my students needs and wants. Along with emails im also forming lesson plans in order to come to my lecture prepared. As a university professor I must be outgoing and open in order to get my students full attention. If I remain up tight students may turn on me in ways that will harm my reputation and theres. I must also be understanding of students life outside of the classroom and realize class isnt there only priority. As a professor my passions and hobbies include supporting my students at univeristy sporting events. I also enjoy reading the novels I assign to my students in my free time so that I can relate to them when class time comes.Overall being a professor is challengin,Zimbabwe,FALSE,Morse Code,FALSE,Muskrat,FALSE,Pluto,FALSE,8,FALSE,Pakistan,FALSE,Arm,TRUE,Sweeney Todd,FALSE,Brass,FALSE,Wave,TRUE,Isotherms,FALSE,21,TRUE,Mitsubishi,FALSE,180,TRUE,Venus,TRUE,Alexander Popov,FALSE,Pressure,FALSE,Deep Thought,FALSE,Continental Shelf,TRUE,Fascist,TRUE,Penicillin,TRUE,Salvador Dali,FALSE,Rio Grande,TRUE,In the throat,TRUE,Ukraine,FALSE,Jupiter,TRUE,Handel,FALSE,Air pressure,TRUE,Keratin,TRUE,Greece,FALSE,19,Marketing,English,male,2nd year,How we percieve other people,How we have developed over the years in knowlege ,Determine our knowlege and views of society,no,,no,,"No comments
",no,47,15,70,20
