datetime,subjID,sex,prime_code,prime_condition,prime_response,triv1_raw,triv1_correct,triv2_raw,triv2_correct,triv3_raw,triv3_correct,triv4_raw,triv4_correct,triv5_raw,triv5_correct,triv6_raw,triv6_correct,triv7_raw,triv7_correct,triv8_raw,triv8_correct,triv9_raw,triv9_correct,triv10_raw,triv10_correct,triv11_raw,triv11_correct,triv12_raw,triv12_correct,triv13_raw,triv13_correct,triv14_raw,triv14_correct,triv15_raw,triv15_correct,triv16_raw,triv16_correct,triv17_raw,triv17_correct,triv18_raw,triv18_correct,triv19_raw,triv19_correct,triv20_raw,triv20_correct,triv21_raw,triv21_correct,triv22_raw,triv22_correct,triv23_raw,triv23_correct,triv24_raw,triv24_correct,triv25_raw,triv25_correct,triv26_raw,triv26_correct,triv27_raw,triv27_correct,triv28_raw,triv28_correct,triv29_raw,triv29_correct,triv30_raw,triv30_correct,age,major,language,sex_r,year,area_writing,area_trivia,purpose,link_yn,link_text,thinking_yn,thinking_text,comments,prior_hool,professor_int_rating,professor_acc_rating,soccer-hooligan_int_rating,soccer-hooligan_acc_rating
20161013-164131,5245,F,0,soccer-hooligan,Hello I am a soccer hooligan. I love to cheer on my team in the most extreme ways possible. This includes yelling insane things at everyone in the stadium. I enjoy drinking and I end up yelling at people even more when I drink a lot. I usually just lay around my house and watch soccer games and drink a lot when I'm not actually at the games. I do not have many aspirations in life except for my team to be number one. I did not go to college and I am very content on just laying around and going to soccer games. I do not have nay plans for my future because I do not really care about many thingss except for soccer. I usually only hang out with my friends who are also soccer hooligans when I hang out with anyone. I do not wish to do anything elsse with my liife because it cannot get any better than just laying around and watching sports and drinking beer and eating a lot of junk food. ,Botswana,True,HTML,False,Capybara,True,Uranus,False,12,True,Bangladesh,False,Foot,False,Robin Hood,False,Brass,False,Iceberg,False,Isotherms,False,21,True,Chrysler,False,180,True,Mercury,False,Nikita Krushchev,False,Radiation,True,Blue Knight,False,Continental Shelf,True,Fascist,True,Penicillin,True,Henri Matisse,False,Rio Grande,True,In the throat,True,Siberia,True,Saturn,False,Handel,False,Air pressure,True,Keratin,True,France,True,19,Marketing and International Business ,English,female,2nd year,The student was working with changing your personality ,The student was testing to see if the personality changed your ability to take a test,It was to see if you can change the mind set of a person by mentally putting them into a new persona ,yes,"The link was changing your knowledge from yourself into one of a soccer hooligan 
",no,,No,no,90,30,50.0,5
