datetime,subjID,sex,prime_code,prime_condition,prime_response,triv1_raw,triv1_correct,triv2_raw,triv2_correct,triv3_raw,triv3_correct,triv4_raw,triv4_correct,triv5_raw,triv5_correct,triv6_raw,triv6_correct,triv7_raw,triv7_correct,triv8_raw,triv8_correct,triv9_raw,triv9_correct,triv10_raw,triv10_correct,triv11_raw,triv11_correct,triv12_raw,triv12_correct,triv13_raw,triv13_correct,triv14_raw,triv14_correct,triv15_raw,triv15_correct,triv16_raw,triv16_correct,triv17_raw,triv17_correct,triv18_raw,triv18_correct,triv19_raw,triv19_correct,triv20_raw,triv20_correct,triv21_raw,triv21_correct,triv22_raw,triv22_correct,triv23_raw,triv23_correct,triv24_raw,triv24_correct,triv25_raw,triv25_correct,triv26_raw,triv26_correct,triv27_raw,triv27_correct,triv28_raw,triv28_correct,triv29_raw,triv29_correct,triv30_raw,triv30_correct,age,major,language,sex_r,year,area_writing,area_trivia,purpose,link_yn,link_text,thinking_yn,thinking_text,comments,prior_hool,soccer-hooligan_int_rating,soccer-hooligan_acc_rating,professor_int_rating,professor_acc_rating
,,,,,,,,,,,,,,,,,,,,,,,,,,,,,,,,,,,,,,,,,,,,,,,,,,,,,,,,,,,,,,,,,,,,,,,,,,,,,,,,,,,
20160922-181458,5362,F,1,professor,"As a university professor, I teach Intermediate Accounting. My typical activites that I am involed in include teaching courses, planning the syllabus schedule, incorporating guests speakers to talk about their experience within the field to students as well as hosting office hours to help students if they are struggling with the material or would like to review the day's chapter. My hobbies include teaching and reading the newspaper to stay current with the rapid changes of the financial world. My personality characteristrics include being friendly, understanding and confident.",Zaire,FALSE,HTML,FALSE,Capybara,TRUE,Mars,FALSE,12,TRUE,Bangladesh,FALSE,Arm,TRUE,Robin Hood,FALSE,Bronze,TRUE,Iceberg,FALSE,Isotherms,FALSE,21,TRUE,General Motors,TRUE,180,TRUE,Venus,TRUE,Nikita Krushchev,FALSE,Rainfall,FALSE,Blue Knight,FALSE,Continental Shelf,TRUE,Fascist,TRUE,Penicillin,TRUE,Pablo Picasso,TRUE,Colorado River,FALSE,In the throat,TRUE,Ukraine,FALSE,Jupiter,TRUE,Beethoven,FALSE,Air pressure,TRUE,Keratin,TRUE,France,TRUE,20,Accounting,English,female,3rd year,"Psychology relating as to how students express goals, motives and objectives through their creative writing and observing this based on their major.",Psychology involving studies on the brain in being able to retain information on fact and the environment.,"Evaluating critical thinking, rentention of facts and creative writing.",no,,no,,No,no,46,15,70,20
