datetime,subjID,sex,prime_code,prime_condition,prime_response,triv1_raw,triv1_correct,triv2_raw,triv2_correct,triv3_raw,triv3_correct,triv4_raw,triv4_correct,triv5_raw,triv5_correct,triv6_raw,triv6_correct,triv7_raw,triv7_correct,triv8_raw,triv8_correct,triv9_raw,triv9_correct,triv10_raw,triv10_correct,triv11_raw,triv11_correct,triv12_raw,triv12_correct,triv13_raw,triv13_correct,triv14_raw,triv14_correct,triv15_raw,triv15_correct,triv16_raw,triv16_correct,triv17_raw,triv17_correct,triv18_raw,triv18_correct,triv19_raw,triv19_correct,triv20_raw,triv20_correct,triv21_raw,triv21_correct,triv22_raw,triv22_correct,triv23_raw,triv23_correct,triv24_raw,triv24_correct,triv25_raw,triv25_correct,triv26_raw,triv26_correct,triv27_raw,triv27_correct,triv28_raw,triv28_correct,triv29_raw,triv29_correct,triv30_raw,triv30_correct,age,major,language,sex_r,year,area_writing,area_trivia,purpose,link_yn,link_text,thinking_yn,thinking_text,comments,prior_hool,professor_int_rating,professor_acc_rating,soccer-hooligan_int_rating,soccer-hooligan_acc_rating
,,,,,,,,,,,,,,,,,,,,,,,,,,,,,,,,,,,,,,,,,,,,,,,,,,,,,,,,,,,,,,,,,,,,,,,,,,,,,,,,,,,
20160922-181214,5440,F,0,soccer-hooligan,"In my daily life as a soccer hooligan I am attending sports games, watching sports game on tv, or going to bars to watch them. Typical personality characteristics of me being a soccer hooligan is angry, exciting, outgoing, peppy, and loud. Passions are sports games like soccer, so watching soccer or playing soccer.  My hobbies would also be playing soccer, drinking, and hanging out with friends. I mostly enjoy watching games, playing in the games, drinking ",Botswana,TRUE,HTML,FALSE,Muskrat,FALSE,Pluto,FALSE,8,FALSE,Bangladesh,FALSE,Arm,TRUE,Robin Hood,FALSE,Bronze,TRUE,Pillar,FALSE,Cyclones,FALSE,21,TRUE,Chrysler,FALSE,360,FALSE,Mars,FALSE,Nikita Krushchev,FALSE,Radiation,TRUE,Deep Thought,FALSE,Continental Abyss,FALSE,Democracy,FALSE,Stethoscope,FALSE,Pablo Picasso,TRUE,Rio Grande,TRUE,In the throat,TRUE,Ukraine,FALSE,Saturn,FALSE,Beethoven,FALSE,Wind speed,FALSE,Keratin,TRUE,Spain,FALSE,19,Undeclared Business,English,female,2nd year,writing task,trivia/knowledge task,I beleive the purpose of these questions were for pyschologists to examine ,yes,"no idea
",no,,no,no,70,21,59,17
