datetime,subjID,sex,prime_code,prime_condition,prime_response,triv1_raw,triv1_correct,triv2_raw,triv2_correct,triv3_raw,triv3_correct,triv4_raw,triv4_correct,triv5_raw,triv5_correct,triv6_raw,triv6_correct,triv7_raw,triv7_correct,triv8_raw,triv8_correct,triv9_raw,triv9_correct,triv10_raw,triv10_correct,triv11_raw,triv11_correct,triv12_raw,triv12_correct,triv13_raw,triv13_correct,triv14_raw,triv14_correct,triv15_raw,triv15_correct,triv16_raw,triv16_correct,triv17_raw,triv17_correct,triv18_raw,triv18_correct,triv19_raw,triv19_correct,triv20_raw,triv20_correct,triv21_raw,triv21_correct,triv22_raw,triv22_correct,triv23_raw,triv23_correct,triv24_raw,triv24_correct,triv25_raw,triv25_correct,triv26_raw,triv26_correct,triv27_raw,triv27_correct,triv28_raw,triv28_correct,triv29_raw,triv29_correct,triv30_raw,triv30_correct,age,major,language,sex_r,year,area_writing,area_trivia,purpose,link_yn,link_text,thinking_yn,thinking_text,comments,prior_hool,professor_int_rating,professor_acc_rating,soccer-hooligan_int_rating,soccer-hooligan_acc_rating
20161018-155225,5479,f,0,soccer-hooligan,"During my daily life as a soccer hooligan, I go to work and then spend the rest of my time folling around and playing sports.  I draft up teams that I would like and think would win games with my friends.  I typically go to a lot of soccer games; highschool, college, and professional soccer matches.  I am adventrous, funny, and tend to j",Zimbabwe,False,HTML,False,Muskrat,False,Mars,False,12,True,India,True,Foot,False,Guy Fawkes,True,Brass,False,Iceberg,False,Fronts,False,15,False,Mitsubishi,False,180,True,Venus,True,Nikita Krushchev,False,Temperature,False,King Blue,False,Continental Shelf,True,Fascist,True,Stethoscope,False,Salvador Dali,False,Rio Grande,True,In the throat,True,Belarus,False,Neptune,False,Tchaikovsky,True,Relative humidity,False,Keratin,True,France,True,19,pharmaceutical and healthcare marketing,English,female,2nd year,at a desk,at a desk,"how much knowledge people know about random things
",yes,no idea,no,,nope,no,79,11,65,20
