datetime,subjID,sex,prime_code,prime_condition,prime_response,triv1_raw,triv1_correct,triv2_raw,triv2_correct,triv3_raw,triv3_correct,triv4_raw,triv4_correct,triv5_raw,triv5_correct,triv6_raw,triv6_correct,triv7_raw,triv7_correct,triv8_raw,triv8_correct,triv9_raw,triv9_correct,triv10_raw,triv10_correct,triv11_raw,triv11_correct,triv12_raw,triv12_correct,triv13_raw,triv13_correct,triv14_raw,triv14_correct,triv15_raw,triv15_correct,triv16_raw,triv16_correct,triv17_raw,triv17_correct,triv18_raw,triv18_correct,triv19_raw,triv19_correct,triv20_raw,triv20_correct,triv21_raw,triv21_correct,triv22_raw,triv22_correct,triv23_raw,triv23_correct,triv24_raw,triv24_correct,triv25_raw,triv25_correct,triv26_raw,triv26_correct,triv27_raw,triv27_correct,triv28_raw,triv28_correct,triv29_raw,triv29_correct,triv30_raw,triv30_correct,age,major,language,sex_r,year,area_writing,area_trivia,purpose,link_yn,link_text,thinking_yn,thinking_text,comments,prior_hool,professor_int_rating,professor_acc_rating,soccer-hooligan_int_rating,soccer-hooligan_acc_rating
,,,,,,,,,,,,,,,,,,,,,,,,,,,,,,,,,,,,,,,,,,,,,,,,,,,,,,,,,,,,,,,,,,,,,,,,,,,,,,,,,,,
20161004-172439,6058,M,0,soccer-hooligan,"As a soccer hooligan, in my daily life I watch a lot of soccer and drink a lot of alcohol. I often get into heated arguments with other soccer hooligans and often say offensive things and instigate fights with rival fans. Some of my personality traits include being rude and insensitive. My hobbies and passions include playing and watching soccer.",Botswana,TRUE,HTML,FALSE,Beaver,FALSE,Earth,TRUE,8,FALSE,Phillipines,FALSE,Leg,FALSE,Sweeney Todd,FALSE,Bronze,TRUE,Iceberg,FALSE,Isotherms,FALSE,21,TRUE,Ford,FALSE,180,TRUE,Venus,TRUE,Mikhail Gorbachev,TRUE,Radiation,TRUE,Deep Blue,TRUE,Continental Shelf,TRUE,Fascist,TRUE,Penicillin,TRUE,Henri Matisse,FALSE,Rio Grande,TRUE,In the throat,TRUE,Siberia,TRUE,Jupiter,TRUE,Handel,FALSE,Air pressure,TRUE,Keratin,TRUE,Greece,FALSE,20,Risk Managment and Insurance,English,male,3rd year,Soccer Hooligan,Very Dificult,no idea,no,,no,,no,yes,70,15,50,15
