datetime,subjID,sex,prime_code,prime_condition,prime_response,triv1_raw,triv1_correct,triv2_raw,triv2_correct,triv3_raw,triv3_correct,triv4_raw,triv4_correct,triv5_raw,triv5_correct,triv6_raw,triv6_correct,triv7_raw,triv7_correct,triv8_raw,triv8_correct,triv9_raw,triv9_correct,triv10_raw,triv10_correct,triv11_raw,triv11_correct,triv12_raw,triv12_correct,triv13_raw,triv13_correct,triv14_raw,triv14_correct,triv15_raw,triv15_correct,triv16_raw,triv16_correct,triv17_raw,triv17_correct,triv18_raw,triv18_correct,triv19_raw,triv19_correct,triv20_raw,triv20_correct,triv21_raw,triv21_correct,triv22_raw,triv22_correct,triv23_raw,triv23_correct,triv24_raw,triv24_correct,triv25_raw,triv25_correct,triv26_raw,triv26_correct,triv27_raw,triv27_correct,triv28_raw,triv28_correct,triv29_raw,triv29_correct,triv30_raw,triv30_correct,age,major,language,sex_r,year,area_writing,area_trivia,purpose,link_yn,link_text,thinking_yn,thinking_text,comments,prior_hool,chuliganem_int_rating,chuliganem_acc_rating,profesorem_int_rating,profesorem_acc_rating
20170113-120047,115,0,1,profesorem,"Jako profesor codziennie chodz臋 na uczelnie, 偶eby dzieli膰 si臋 wiedz膐 ze studentami. Opr贸cz tego popo艂udnia sp臋dzam na aktywno艣ci fizycznej wieczorem siedz臋 z 偶on膐 przy kominku i czytam r贸偶ne ciekawe publikacje z dziedziny psychologii. Najcz臋艣ciej biegam - bieganie pozwala mi oczy艣ci膰 umys艂 opr贸cz tego uwielbiam wychodzi膰 na d艂ugie spacery z moim psem. Jestem raczej mi艂ym cz艂owiekiem, lubie rozmawia膰 z lud藕mi s艂ucha膰 co maj膐 do powiedzenia. uwielbiam t舉偶 docieka膰 r贸偶nych problem贸w, na kt贸re nier znam jeszcze odpowiedzi, z t膐d cz臋sto buior膐 si臋 pomys艂y na jakie艣 nowe, ciekawe badania.    Uwieolbiam podr贸偶owa膰.",Zairu,False,ASCII,True,B贸br,False,Pluton,False,8,False,Pakistan,False,Nodze,False,Dick Turpin,False,Br膐z,True,Fala,True,Izobary,True,21,True,General Motors,True,180,True,Merkury,False,Aleksander Popow,False,Promieniowanie,True,Blue Knight,False,Szelf kontynentalny,True,Komunizm,False,Stetoskopu,False,Paul Cezanne,False,Rio Grande,True,W kr臋gos艂upie,False,Syberia,True,Jupiter,True,Czajkowski,True,Ci艣nienie powietrza,True,Kolagen,False,Francji,True,kobieta,Polski,psychologia ,22,2 rok,r贸偶nice indywidualne?,nie wiem,nie wiem,tak,"Prfesor, raczej jest wykszta艂conym cz艂owiekiem, opr贸cz dziedziny w kt贸rej si臋 specjalizuje powinien mie膰 wiedz臋 og贸ln膐 偶eby by膰 powa偶nie traktowany, nie tylko jako psycholog, ale te偶 jako inteligenty cz艂owiek z szertsz膐 wiedz膐
",nie,,Pytania troche za trudne...,tak,40,0,75,20
