datetime,subjID,sex,prime_code,prime_condition,prime_response,triv1_raw,triv1_correct,triv2_raw,triv2_correct,triv3_raw,triv3_correct,triv4_raw,triv4_correct,triv5_raw,triv5_correct,triv6_raw,triv6_correct,triv7_raw,triv7_correct,triv8_raw,triv8_correct,triv9_raw,triv9_correct,triv10_raw,triv10_correct,triv11_raw,triv11_correct,triv12_raw,triv12_correct,triv13_raw,triv13_correct,triv14_raw,triv14_correct,triv15_raw,triv15_correct,triv16_raw,triv16_correct,triv17_raw,triv17_correct,triv18_raw,triv18_correct,triv19_raw,triv19_correct,triv20_raw,triv20_correct,triv21_raw,triv21_correct,triv22_raw,triv22_correct,triv23_raw,triv23_correct,triv24_raw,triv24_correct,triv25_raw,triv25_correct,triv26_raw,triv26_correct,triv27_raw,triv27_correct,triv28_raw,triv28_correct,triv29_raw,triv29_correct,triv30_raw,triv30_correct,age,major,language,sex_r,year,area_writing,area_trivia,purpose,link_yn,link_text,thinking_yn,thinking_text,comments,prior_hool,profesorem_int_rating,profesorem_acc_rating,chuliganem_int_rating,chuliganem_acc_rating
20161128-130727,26,0,0,chuliganem,"jako chuligan dużo przeklinam, obrażam innych, piję i palę, szwędam się po mieście wieczorami, najprawdopodobniej nie pracuję, chodzę na mecze i jestem fanem jakiejś drużyny sportowej; jestem osobą niechlujną, niemiłą, łatwo mnie wyprowadzić z równowagi, zawsze trzymam się swojej grupy, dostosowuję się do niej i robię wszystko, by zaimponować swoim ""ziomkom"", nawet jeżeli są to rzeczy niebezpiecznie, czy nielegalne; oprócz sportu prawdopodobnie nie mam wielu innych zainteresowań, ale mogę dużo czasu spędzać w internecie, prowokując innych",Zairu,False,ASCII,True,Kapibara,True,Ziemia,True,12,True,Bangladesz,False,Nodze,False,Guy Fawkes,True,Mosiądz,False,Góra lodowa,False,Fronty,False,21,True,Chrysler,False,180,True,Wenus,True,Michaił Gorbaczow,True,Promieniowanie,True,Blue Knight,False,Szelf kontynentalny,True,Faszyzm,True,Penicyliny,True,Salvador Dali,False,Rzeka Colorado,False,W kręgosłupie,False,Syberia,True,Saturn,False,Czajkowski,True,Ciśnienie powietrza,True,Keratyna,True,Francji,True,kobieta,Polski,psychologia,19,1 rok,psychologia poznawcza, ,"nie wiem
",tak,nie wiem,tak,nie wiem,nie,tak,75,24,30,6
