datetime,subjID,sex,prime_code,prime_condition,prime_response,triv1_raw,triv1_correct,triv2_raw,triv2_correct,triv3_raw,triv3_correct,triv4_raw,triv4_correct,triv5_raw,triv5_correct,triv6_raw,triv6_correct,triv7_raw,triv7_correct,triv8_raw,triv8_correct,triv9_raw,triv9_correct,triv10_raw,triv10_correct,triv11_raw,triv11_correct,triv12_raw,triv12_correct,triv13_raw,triv13_correct,triv14_raw,triv14_correct,triv15_raw,triv15_correct,triv16_raw,triv16_correct,triv17_raw,triv17_correct,triv18_raw,triv18_correct,triv19_raw,triv19_correct,triv20_raw,triv20_correct,triv21_raw,triv21_correct,triv22_raw,triv22_correct,triv23_raw,triv23_correct,triv24_raw,triv24_correct,triv25_raw,triv25_correct,triv26_raw,triv26_correct,triv27_raw,triv27_correct,triv28_raw,triv28_correct,triv29_raw,triv29_correct,triv30_raw,triv30_correct,age,major,language,sex_r,year,area_writing,area_trivia,purpose,link_yn,link_text,thinking_yn,thinking_text,comments,prior_hool,chuliganem_int_rating,chuliganem_acc_rating,profesorem_int_rating,profesorem_acc_rating
20161202-120244,34,1,1,profesorem,"Życie codzienne:czytanie ksiązek oraz publikacji naukowych,zajmowanie się rodziną i domem,płacenie podatków etc. jak każdy obywatel.Aktywności:branie udziału w konferencjach,konsultacjach,wykładach.Cechy charakteru:wyważony,konsekwentny,kreatywny,odpowiedzialny,szalony.Zainteresowania:motoryzacja,sport,nauka.
",Zairu,False,ASCII,True,Nutria,False,Ziemia,True,6,False,Bangladesz,False,Stopie,False,Guy Fawkes,True,Mosiądz,False,Fala,True,Izobary,True,25,False,Mitsubishi,False,90,False,Wenus,True,Michaił Gorbaczow,True,Promieniowanie,True,Deep Blue,True,Szelf kontynentalny,True,Faszyzm,True,Penicyliny,True,Paul Cezanne,False,Rio Grande,True,W gardle,True,Syberia,True,Saturn,False,Czajkowski,True,Ciśnienie powietrza,True,Keratyna,True,Francji,True,mężczyzna,Polski,psychologia,23,1 rok,społecznej,żadnej,czy postrzeganie siebie wpływa na wiedzę ?,tak,determinuje większe skupienie się na pytaniu,tak,zwiększa starraność w doborze odpowiedzi,nie dają mi spokoju te pytania o stolicę i przywódcę kraju - były bez sensu,tak,40,15.0,65,23
