datetime,subjID,sex,prime_code,prime_condition,prime_response,triv1_raw,triv1_correct,triv2_raw,triv2_correct,triv3_raw,triv3_correct,triv4_raw,triv4_correct,triv5_raw,triv5_correct,triv6_raw,triv6_correct,triv7_raw,triv7_correct,triv8_raw,triv8_correct,triv9_raw,triv9_correct,triv10_raw,triv10_correct,triv11_raw,triv11_correct,triv12_raw,triv12_correct,triv13_raw,triv13_correct,triv14_raw,triv14_correct,triv15_raw,triv15_correct,triv16_raw,triv16_correct,triv17_raw,triv17_correct,triv18_raw,triv18_correct,triv19_raw,triv19_correct,triv20_raw,triv20_correct,triv21_raw,triv21_correct,triv22_raw,triv22_correct,triv23_raw,triv23_correct,triv24_raw,triv24_correct,triv25_raw,triv25_correct,triv26_raw,triv26_correct,triv27_raw,triv27_correct,triv28_raw,triv28_correct,triv29_raw,triv29_correct,triv30_raw,triv30_correct,age,major,language,sex_r,year,area_writing,area_trivia,purpose,link_yn,link_text,thinking_yn,thinking_text,comments,prior_hool,profesorem_int_rating,profesorem_acc_rating,chuliganem_int_rating,chuliganem_acc_rating
20161220-134433,98,0,0,chuliganem,"1.Nie robie nic w szczególnego w życiu codziennym jako chuligan nie pracuję, głownie spotykam się ze znajomymi, spożywam alkohol, lub oglądam całymi dniami telewizję lub siedze przy komputerze.
2. Najczestsze aktywności słuchanie muzyki Oglądanie telewizji, spotkania ze znajomymi 
3.Jak chuligan jestem odważna wybuchowa, agresywna, nietolerancyjna
4.Zainteresowania: Piłka nozna, wyścigi,",Botswany,True,ASCII,True,Kapibara,True,Ziemia,True,8,False,Bangladesz,False,Nodze,False,Robin Hood,False,Mosiądz,False,Fala,True,Izotermy,False,21,True,Ford,False,120,False,Mars,False,Nikita Chruszczow,False,Opady deszczu,False,Deep Blue,True,Szelf kontynentalny,True,Faszyzm,True,Stetoskopu,False,Pablo Picasso,True,Rio Grande,True,W kręgosłupie,False,Syberia,True,Saturn,False,Beethoven,False,Ciśnienie powietrza,True,Kolagen,False,Francji,True,kobieta,Polski,psychologia,19,1 rok,psychologia społeczna,wiedza ogólna,nie wiem,tak,Spadek chęci albo myślenia and zadaniem,tak,Mogło obiżyc mojązdolnosc myslenia lub chęci ,Nie,tak,75,18,36,13
