Subject_Number,Condition,Lineup_Choice,Confidence,Gender,Age,Race,Excluded?
1,Control,6,7,Male,18,White,0
2,Experimental,6,5,Female,19,White,0
3,Control,6,6,Male,19,Other,1
4,Control,2,5,Male,36,White,1
5,Control,6,3,Female,19,White,0
6,Experimental,,,,,,1
7,Experimental,6,5,Female,18,White,0
8,Experimental,6,7,Female,35,White,1
9,Control,,,,,,1
10,Experimental,2,4,Male,20,White,0
11,Control,7,5,Male,19,White,0
12,Control,6,7,Male,18,White,0
13,Experimental,5,3,Female,19,White,0
14,Experimental,0,6,Female,19,White,0
15,Experimental,7,5,Female,20,White,0
16,Control,0,7,Male,19,White,0
17,Control,6,6,Female,19,White,0
18,Experimental,,,,,,1
19,Experimental,,,,,,1
20,Control,7,3,Female,19,White,0
21,Experimental,2,4,Male,18,White,0
22,Experimental,0,1,Female,43,White,1
23,Experimental,6,5,Male,20,White,0
24,Control,,,,,,1
25,Control,0,4,Female,18,White,0
26,Control,0,4,Female,19,Other,1
27,Experimental,7,4,Male,19,White,0
28,Experimental,5,6,Female,18,Other,1
29,Control,1,4,Female,23,White,0
30,Experimental,5,4,Male,30,White,1
31,Experimental,4,6,Female,18,White,0
32,Control,2,6,Male,19,White,0
