datetime,subjID,sex,prime_code,prime_condition,prime_response,triv1_raw,triv1_correct,triv2_raw,triv2_correct,triv3_raw,triv3_correct,triv4_raw,triv4_correct,triv5_raw,triv5_correct,triv6_raw,triv6_correct,triv7_raw,triv7_correct,triv8_raw,triv8_correct,triv9_raw,triv9_correct,triv10_raw,triv10_correct,triv11_raw,triv11_correct,triv12_raw,triv12_correct,triv13_raw,triv13_correct,triv14_raw,triv14_correct,triv15_raw,triv15_correct,triv16_raw,triv16_correct,triv17_raw,triv17_correct,triv18_raw,triv18_correct,triv19_raw,triv19_correct,triv20_raw,triv20_correct,triv21_raw,triv21_correct,triv22_raw,triv22_correct,triv23_raw,triv23_correct,triv24_raw,triv24_correct,triv25_raw,triv25_correct,triv26_raw,triv26_correct,triv27_raw,triv27_correct,triv28_raw,triv28_correct,triv29_raw,triv29_correct,triv30_raw,triv30_correct,age,major,language,sex_r,year,area_writing,area_trivia,purpose,link_yn,link_text,thinking_yn,thinking_text,comments,prior_hool,soccer hooligan_int_rating,soccer hooligan_acc_rating,professor_int_rating,professor_acc_rating
20161216-143043,107,Male,1,professor,"Daily life as a professor: reading articles, doing research, sharing knowledge with students, preparing course materials for students

Typical activities as professor: participate in conferences/research reports, writing research report, guiding students in researching 
Typical personality: hardworking, passion, not easy to give up, willingness to share knowledge with others
Passions or hobbies: reading magazines/research articles, attending conferences/research reporting sessions, keep myself update with world's changes",Zimbabwe,False,HTML,False,Coypu,False,Earth,True,12,True,India,True,12,True,Dick Turpin,False,Bronze,True,Iceberg,False,Isotherms,False,20,False,Chrysler,False,180,True,Saturn,False,Alexander Popov,False,Underground,False,Blue Knight,False,Continental Slope,False,Republic,False,South America,False,Iron,True,Colorado River,False,In the throat,True,Belarus,False,Jupiter,True,Tchaikovsky,True,Air pressure,True,Keratin,True,Greece,False,22,Pharmacy,Mandarin,male,3rd year,education,behaviour,no idea,no,,no,,no,no,25,17,88,26
