datetime,subjID,sex,prime_code,prime_condition,prime_response,triv1_raw,triv1_correct,triv2_raw,triv2_correct,triv3_raw,triv3_correct,triv4_raw,triv4_correct,triv5_raw,triv5_correct,triv6_raw,triv6_correct,triv7_raw,triv7_correct,triv8_raw,triv8_correct,triv9_raw,triv9_correct,triv10_raw,triv10_correct,triv11_raw,triv11_correct,triv12_raw,triv12_correct,triv13_raw,triv13_correct,triv14_raw,triv14_correct,triv15_raw,triv15_correct,triv16_raw,triv16_correct,triv17_raw,triv17_correct,triv18_raw,triv18_correct,triv19_raw,triv19_correct,triv20_raw,triv20_correct,triv21_raw,triv21_correct,triv22_raw,triv22_correct,triv23_raw,triv23_correct,triv24_raw,triv24_correct,triv25_raw,triv25_correct,triv26_raw,triv26_correct,triv27_raw,triv27_correct,triv28_raw,triv28_correct,triv29_raw,triv29_correct,triv30_raw,triv30_correct,age,major,language,sex_r,year,area_writing,area_trivia,purpose,link_yn,link_text,thinking_yn,thinking_text,comments,prior_hool,soccer hooligan_int_rating,soccer hooligan_acc_rating,professor_int_rating,professor_acc_rating
20161220-141740,118,Female,1,professor,"Daily life: doing research or teaching. discussing about your my major with students or people I work with
Activities: doing research, conducting experiments, teaching, reading articles
Personality: have sense of humor, smart, calm, dedicating 
Passions/hobbies: cycling, gaming, reading. eating green (could be vegan). hanging out but not until late
",Zimbabwe,False,HTML,False,Capybara,True,Pluto,False,12,True,Bangledesh,False,12,True,Sweeney Todd,False,Bronze,True,Iceberg,False,Fronts,False,21,True,Mitsubishi,False,180,True,Mercury,False,Mikhail Gorbachev,True,Underground,False,Blue Knight,False,Continental Slope,False,Fascist,True,Stethoscope,False,Iron,True,Rio Grande,True,In the throat,True,Siberia,True,Jupiter,True,Handel,False,Relative humidity,False,Keratin,True,Spain,False,20,Health,Vietnamese,female,1st year,"Law, IT, Business, Biology, Psychology","Engineering, Health, IT, Art, Biology, Chemistry",No idea,yes,A professor may have good general knowledge,no,,No comments,no,67,22,78,24
