datetime,subjID,sex,prime_code,prime_condition,prime_response,triv1_raw,triv1_correct,triv2_raw,triv2_correct,triv3_raw,triv3_correct,triv4_raw,triv4_correct,triv5_raw,triv5_correct,triv6_raw,triv6_correct,triv7_raw,triv7_correct,triv8_raw,triv8_correct,triv9_raw,triv9_correct,triv10_raw,triv10_correct,triv11_raw,triv11_correct,triv12_raw,triv12_correct,triv13_raw,triv13_correct,triv14_raw,triv14_correct,triv15_raw,triv15_correct,triv16_raw,triv16_correct,triv17_raw,triv17_correct,triv18_raw,triv18_correct,triv19_raw,triv19_correct,triv20_raw,triv20_correct,triv21_raw,triv21_correct,triv22_raw,triv22_correct,triv23_raw,triv23_correct,triv24_raw,triv24_correct,triv25_raw,triv25_correct,triv26_raw,triv26_correct,triv27_raw,triv27_correct,triv28_raw,triv28_correct,triv29_raw,triv29_correct,triv30_raw,triv30_correct,age,major,language,sex_r,year,area_writing,area_trivia,purpose,link_yn,link_text,thinking_yn,thinking_text,comments,prior_hool,soccer hooligan_int_rating,soccer hooligan_acc_rating,professor_int_rating,professor_acc_rating
,,,,,,,,,,,,,,,,,,,,,,,,,,,,,,,,,,,,,,,,,,,,,,,,,,,,,,,,,,,,,,,,,,,,,,,,,,,,,,,,,,,
20170127-104530,148,Female,1,professor,"What are you doing in your daily life? As a university professor, I'd imagine I'd spent a lot of time in my office surrounded by my own personal library. Whilst I'd love to spend all my time reading books from my personal library, I stereotypically get stuck behind my computer for 80% of the day preparing for my student classes and doing admin work. Although most days I get to do at least some research for my upcoming project.
What are your typical personality characteristics or attributes? Although I come across as an extrovert in my classes, I'm very much an introvert. I fuel myself by spending time alone and prefer to think by myself too. I'm quiet, kind, but also rather stubborn. People simply don't know the things I do. However, if knowledge has taught me anything, humility is key! So I make a conscious effort to think of myself less, get lost in my work, and encourage my students to strive for excellence. 
What are my typical passions and hobbies? The basics: reading, nature, and intelligent discussions.",Zimbabwe,FALSE,ASCII,TRUE,Beaver,FALSE,Uranus,FALSE,12,TRUE,Bangledesh,FALSE,12,TRUE,Sweeney Todd,FALSE,Pewter,FALSE,Wave,TRUE,Isotherms,FALSE,21,TRUE,Mitsubishi,FALSE,180,TRUE,Mars,FALSE,Alexander Popov,FALSE,In trees,TRUE,Blue Knight,FALSE,Continental Abyss,FALSE,Republic,FALSE,Stethoscope,FALSE,Copper,FALSE,Rio Lobos,FALSE,In the throat,TRUE,Belarus,FALSE,Mars,FALSE,Mozart,FALSE,Relative humidity,FALSE,Keratin,TRUE,France,TRUE,21,Social Work,English,female,3rd year,university professor?,psychology,first study: to discern student opinion. second study: no idea.,yes,no idea.,no,,not at this stage.,no,50,10,80,20
