"means","se","ci_l","ci_u","authors","class","class_n","n1","n2","mean1","mean2","group_priority","shape"
1.50531746031746,0.72922269656485,0.0760672383411738,2.93456768229375,"Original result","difference",1,113,116,1.15650793650794,-0.348809523809524,1.5,17
0.0761734997029118,0.629101036182471,-1.15684187385156,1.30918887325738,"Aczel","difference",1,105,110,0.130718954248366,0.0545454545454542,2,15
-1.27197569884267,0.807156565090034,-2.8539734963042,0.310022098618856,"Birt","difference",1,100,105,-0.44577831132453,0.826197387518142,2,15
-0.632250007523096,0.630462949382859,-1.8679346819004,0.603434666854206,"Evans","difference",1,123,108,-0.0295055821371615,0.602744425385935,2,15
1.04232804232804,0.688277575770135,-0.306671217547963,2.39132730220404,"Ferreira-Santos","difference",1,110,101,0.708994708994709,-0.333333333333333,2,15
-0.326385149671154,0.654385945329337,-1.60895803450585,0.956187735163543,"González-Iraizoz","difference",1,109,105,0.786342123056119,1.11272727272727,2,15
-0.985853847188593,0.973880068538885,-2.89462370678621,0.922916012409021,"Holzmeister","difference",1,127,119,0.318948412698413,1.30480225988701,2,15
0.182850288366187,0.61356161925966,-1.01970838767882,1.3854089644112,"klein Selle & Rozmann","difference",1,146,137,0.332956898174289,0.150106609808103,2,15
-0.73446519524618,0.594256640541052,-1.89918680828041,0.430256417788047,"Koppel","difference",1,119,117,-0.221561969439728,0.512903225806451,2,15
0.122004682204187,0.536978369997725,-0.930453583468377,1.17446294787675,"Laine","difference",1,117,107,0.218091334894614,0.0960866526904263,2,15
-0.297141756548537,0.804013975832047,-1.87298019224621,1.27869667914913,"Loschelder","difference",1,103,109,-0.534090909090909,-0.236949152542373,2,15
-1.2656379852032,0.936315309956663,-3.10078227089172,0.569506300485317,"McCarthy","difference",1,124,94,-0.161092530657748,1.10454545454545,2,15
0.0198967698967696,0.44883536559965,-0.859804381666412,0.899597921459951,"Meijer","difference",1,175,161,-0.293956043956044,-0.313852813852814,2,15
-1.66564826591476,0.815974889573797,-3.26492966176845,-0.0663668700610702,"Özdoğru","difference",1,145,92,-0.51457614115842,1.15107212475634,2,15
-0.00945494994438256,0.647997825766314,-1.27950735050662,1.26059745061785,"Suchotzki","difference",1,118,122,-0.0632183908045976,-0.053763440860215,2,15
-0.299201928536421,0.540581643231721,-1.35872247997407,0.760318622901233,"Sutan","difference",1,168,132,0.111962537249894,0.411164465786315,2,15
0.350004568504729,0.543103444579195,-0.714458622750138,1.4144677597596,"Vanpaemel","difference",1,118,109,0.711864406779661,0.361859838274933,2,15
0.134531455862977,0.503463284748621,-0.852238449782554,1.12130136150851,"Verschuere","difference",1,135,130,0.262845849802371,0.128314393939394,2,15
0.603613287790504,0.647447747592297,-0.665360979361977,1.87258755494299,"Wick","difference",1,169,165,0.467369901547117,-0.136243386243386,2,15
0.29042101980497,0.561026326122744,-0.809170373774431,1.39001241338437,"Wiggins","difference",1,120,120,0.215337593776049,-0.0750834260289208,2,15
-0.11036134937412,0.143019354134935,-0.390674132570771,0.169951433822532,"Meta-analytic average for 
difference","summary",0,2431,2243,0.105350149613288,0.350939158568957,3,18
