datetime,subjID,sex,prime_code,prime_condition,prime_response,triv1_raw,triv1_correct,triv2_raw,triv2_correct,triv3_raw,triv3_correct,triv4_raw,triv4_correct,triv5_raw,triv5_correct,triv6_raw,triv6_correct,triv7_raw,triv7_correct,triv8_raw,triv8_correct,triv9_raw,triv9_correct,triv10_raw,triv10_correct,triv11_raw,triv11_correct,triv12_raw,triv12_correct,triv13_raw,triv13_correct,triv14_raw,triv14_correct,triv15_raw,triv15_correct,triv16_raw,triv16_correct,triv17_raw,triv17_correct,triv18_raw,triv18_correct,triv19_raw,triv19_correct,triv20_raw,triv20_correct,triv21_raw,triv21_correct,triv22_raw,triv22_correct,triv23_raw,triv23_correct,triv24_raw,triv24_correct,triv25_raw,triv25_correct,triv26_raw,triv26_correct,triv27_raw,triv27_correct,triv28_raw,triv28_correct,triv29_raw,triv29_correct,triv30_raw,triv30_correct,age,major,language,sex_r,year,area_writing,area_trivia,purpose,link_yn,link_text,thinking_yn,thinking_text,comments,prior_hool,professeur d'université_int_rating,professeur d'université_acc_rating,hooligan de foot_int_rating,hooligan de foot_acc_rating
20170317-170110,143,h,0,hooligan de foot,"En tout que hooligan, je suis souvent aggressif, je perd mon sang-froid facilement, mais je suis capable de très bien m'entendre avec les personnes partageant mon engagement pour mon équipe de foot favorite.
Je passe beaucoup de temps à suivre les résultats de mon équipe, mais aussi ceux des autres, cependant je suis plus activement les nouvelles de mon équipe, je suis engagé au sein de l'association de supporters. Je vais souvent dans des bars, pour suivre des matches de foot. Je suis capable de m'emporter rapidement en cas de mauvais résultats de mon équipe, mais aussi en cas de bons résultats, si je rencontre des personnes supportant des équipes rivales. Je pense avoir toujours raison en ce qui concerne le foot, étant donné que je suis activement ce sport.",L’Ouganda,False,Le HTML,False,Le castor,False,Uranus,False,15,False,Le Pakistan,False,La jambe,False,Dick Turpin,False,Le laiton,False,Un iceberg,False,Isobares,True,21,True,Mitsubishi,False,120,False,Vénus,True,Mikhail Gorbachev,True,La radiation,True,Deep Blue,True,Le plateau continental,True,Fasciste,True,La pénicilline,True,Pablo Picasso,True,Le fleuve Colorado,False,Dans la gorge,True,La Sibérie,True,Jupiter,True,Tchaïkovsky,True,La pression de l’air,True,La kératine,True,France,True,4ème année ou plus,homme,22,économie et sociologie,Français,Psychologie comportementale,Psychologie cognitive,Aucune idée,oui,"La capacité de se mettre à la place de quelqu'un ""d'anormal"" et notre culture générale",non,,Non,oui,72,15.0,36,7
