datetime,subjID,sex,prime_code,prime_condition,prime_response,triv1_raw,triv1_correct,triv2_raw,triv2_correct,triv3_raw,triv3_correct,triv4_raw,triv4_correct,triv5_raw,triv5_correct,triv6_raw,triv6_correct,triv7_raw,triv7_correct,triv8_raw,triv8_correct,triv9_raw,triv9_correct,triv10_raw,triv10_correct,triv11_raw,triv11_correct,triv12_raw,triv12_correct,triv13_raw,triv13_correct,triv14_raw,triv14_correct,triv15_raw,triv15_correct,triv16_raw,triv16_correct,triv17_raw,triv17_correct,triv18_raw,triv18_correct,triv19_raw,triv19_correct,triv20_raw,triv20_correct,triv21_raw,triv21_correct,triv22_raw,triv22_correct,triv23_raw,triv23_correct,triv24_raw,triv24_correct,triv25_raw,triv25_correct,triv26_raw,triv26_correct,triv27_raw,triv27_correct,triv28_raw,triv28_correct,triv29_raw,triv29_correct,triv30_raw,triv30_correct,age,major,language,sex_r,year,area_writing,area_trivia,purpose,link_yn,link_text,thinking_yn,thinking_text,comments,prior_hool,professeur d'université_int_rating,professeur d'université_acc_rating,hooligan de foot_int_rating,hooligan de foot_acc_rating
20170210-135546,99,h,0,hooligan de foot,"J'aime le foot, je le pratique le week end avec mes amis si nous n'avons pas de match prevus au parc des princes.
Tous les soirs, en semaine je regarde des vidéos sur youtube sur les derniers achats des differents clubs que j'aime, les trasferts de joueurs et autres..
Tous les samedi soirs on se retrouve avec mes potes, on regard eun match ou deux au bar du coin, on boit des bières et une fois qu'on a fini on continu notre soiréé dehors.
Parfois on se bat, parfois on casse des trucs, rien de particulier.",Le Zaïre,False,Le HTML,False,Le ragondin,False,Pluton,False,12,True,Le Pakistan,False,Le bras,True,Sweeney Todd,False,Le laiton,False,Une vague,True,Isobares,True,21,True,Ford,False,360,False,Mars,False,Mikhail Gorbachev,True,La radiation,True,Blue Knight,False,Le plateau continental,True,Fasciste,True,Les rayons X,False,Pablo Picasso,True,Le Rio Rojo,False,Dans la gorge,True,La Sibérie,True,Jupiter,True,Mozart,False,La vitesse du vent,False,La kératine,True,France,True,1ère année,homme,18,psychologie,Français,psychologie sociale,psychologie du developpement,Créer un leure.,oui,La culture.,non,,Non.,oui,80,23,35,4
