datetime,subjID,sex,prime_code,prime_condition,prime_response,triv1_raw,triv1_correct,triv2_raw,triv2_correct,triv3_raw,triv3_correct,triv4_raw,triv4_correct,triv5_raw,triv5_correct,triv6_raw,triv6_correct,triv7_raw,triv7_correct,triv8_raw,triv8_correct,triv9_raw,triv9_correct,triv10_raw,triv10_correct,triv11_raw,triv11_correct,triv12_raw,triv12_correct,triv13_raw,triv13_correct,triv14_raw,triv14_correct,triv15_raw,triv15_correct,triv16_raw,triv16_correct,triv17_raw,triv17_correct,triv18_raw,triv18_correct,triv19_raw,triv19_correct,triv20_raw,triv20_correct,triv21_raw,triv21_correct,triv22_raw,triv22_correct,triv23_raw,triv23_correct,triv24_raw,triv24_correct,triv25_raw,triv25_correct,triv26_raw,triv26_correct,triv27_raw,triv27_correct,triv28_raw,triv28_correct,triv29_raw,triv29_correct,triv30_raw,triv30_correct,age,major,language,sex_r,year,area_writing,area_trivia,purpose,link_yn,link_text,thinking_yn,thinking_text,comments,prior_hool,professor_int_rating,professor_acc_rating,soccer hooligan_int_rating,soccer hooligan_acc_rating
"20161214-110817,79,M,0,soccer hooligan,""As a soccer hooligan, I don't have a specific plan for my daily life. I just enjoy living sports passionately, so I don't really care on having a plan for the other activities in my life."
"The only typical activities I do is going to the gym, playing with my fellows in the local soccer club and working somewhere, because somehow I need to havem oney to keep things going on. My ersonality attributes are: self-assurance, extroversion, go-getter person, but sometimes I lack focus to achieve bigger goals in life, although I have a lot of energy to be good at achieving short-term objectives such as kicking everybody's butt when things get though in a soccer match. My passion is of course soccer, going to gym, being w"",Zimbabwe,FALSE,ASCII,TRUE,Capybara,TRUE,Pluto,FALSE,8,FALSE,Pakistan,FALSE,Arm,TRUE,Guy Fawkes,TRUE,Bronze,TRUE,Wave,TRUE,Isobars,TRUE,21,TRUE,Mitsubishi,FALSE,90,FALSE,Venus,TRUE,Mikhail Gorbachev,TRUE,Temperature,FALSE,Deep Blue,TRUE,Continental Slope,FALSE,Fascist,TRUE,Penicillin,TRUE,Pablo Picasso,TRUE,Colorado River,FALSE,In the throat,TRUE,Siberia,TRUE,Jupiter,TRUE,Tchaikovsky,TRUE,Air pressure,TRUE,Collagen,FALSE,France,TRUE,29,Engineering,Spanish,male,4th year or higher,Creativity,Cognitive,To relate your career with your vision about a hooligan or to analyse if we think better cognitively or creatively.,yes,Cultural level vs. prejudice about a steriotype,no,,""Interesting, i would love to read the results."",yes,75,24,40,10"
